cpu/cpu_tb.vcd
$date
	Sun May 11 18:19:16 2025
$end
$version
	Icarus Verilog
$end
$timescale
	100ps
$end
$scope module cpu_tb $end
$var wire 32 ! PC [31:0] $end
$var wire 32 " INST [31:0] $end
$var wire 3 # DMEM_WRITE [2:0] $end
$var wire 4 $ DMEM_READ [3:0] $end
$var wire 32 % DMEM_DATA_WRITE [31:0] $end
$var wire 32 & DMEM_DATA_READ [31:0] $end
$var wire 32 ' DMEM_ADDR [31:0] $end
$var wire 1 ( BUSYWAIT $end
$var reg 1 ) CLK $end
$var reg 1 * RST $end
$scope module cpu_inst $end
$var wire 1 + BUSYWAIT $end
$var wire 1 , BUSYWAIT_OUT $end
$var wire 1 ) CLK $end
$var wire 32 - DMEM_ADDR_MA [31:0] $end
$var wire 32 . DMEM_DATA_WRITE_MA [31:0] $end
$var wire 4 / DMEM_READ_MA [3:0] $end
$var wire 3 0 DMEM_WRITE_MA [2:0] $end
$var wire 1 * RST $end
$var wire 1 1 WRITE_EN_WB $end
$var wire 1 2 WRITE_EN_MA $end
$var wire 1 3 WRITE_EN_ID $end
$var wire 1 4 WRITE_EN_EX $end
$var wire 32 5 WRITE_DATA_WB [31:0] $end
$var wire 2 6 WB_SEL_WB [1:0] $end
$var wire 2 7 WB_SEL_MA [1:0] $end
$var wire 2 8 WB_SEL_ID [1:0] $end
$var wire 2 9 WB_SEL_EX [1:0] $end
$var wire 5 : WADDR_WB [4:0] $end
$var wire 5 ; WADDR_MA [4:0] $end
$var wire 5 < WADDR_EX [4:0] $end
$var wire 32 = PC_WB [31:0] $end
$var wire 32 > PC_PLUS_4_MA [31:0] $end
$var wire 32 ? PC_PLUS_4_IF [31:0] $end
$var wire 1 @ PC_MUX_SEL_EX $end
$var wire 32 A PC_MA [31:0] $end
$var wire 32 B PC_INT_IF [31:0] $end
$var wire 32 C PC_IF [31:0] $end
$var wire 32 D PC_ID [31:0] $end
$var wire 32 E PC_EX [31:0] $end
$var wire 3 F MEM_WRITE_MA [2:0] $end
$var wire 3 G MEM_WRITE_ID [2:0] $end
$var wire 3 H MEM_WRITE_EX [2:0] $end
$var wire 4 I MEM_READ_MA [3:0] $end
$var wire 4 J MEM_READ_ID [3:0] $end
$var wire 4 K MEM_READ_EX [3:0] $end
$var wire 32 L INST_IF [31:0] $end
$var wire 32 M INST_ID [31:0] $end
$var wire 4 N IMM_SEL_ID [3:0] $end
$var wire 32 O IMM_ID [31:0] $end
$var wire 32 P IMM_EX [31:0] $end
$var wire 1 Q HAZARD_STALL $end
$var wire 1 R HAZARD_BUBBLE $end
$var wire 2 S FORWARDING_DATA2_SEL_ID [1:0] $end
$var wire 2 T FORWARDING_DATA2_SEL_EX [1:0] $end
$var wire 32 U FORWARDING_DATA2 [31:0] $end
$var wire 2 V FORWARDING_DATA1_SEL_ID [1:0] $end
$var wire 2 W FORWARDING_DATA1_SEL_EX [1:0] $end
$var wire 32 X FORWARDING_DATA1 [31:0] $end
$var wire 32 Y DMEM_DATA_READ_WB [31:0] $end
$var wire 32 Z DMEM_DATA_READ_MA [31:0] $end
$var wire 32 [ DATA2_MA [31:0] $end
$var wire 32 \ DATA2_ID [31:0] $end
$var wire 32 ] DATA2_EX [31:0] $end
$var wire 1 ^ DATA2_ALU_SEL_ID $end
$var wire 1 _ DATA2_ALU_SEL_EX $end
$var wire 32 ` DATA1_ID [31:0] $end
$var wire 32 a DATA1_EX [31:0] $end
$var wire 1 b DATA1_ALU_SEL_ID $end
$var wire 1 c DATA1_ALU_SEL_EX $end
$var wire 1 ( BUSYWAIT_IN $end
$var wire 4 d BRANCH_JUMP_ID [3:0] $end
$var wire 4 e BRANCH_JUMP_EX [3:0] $end
$var wire 32 f ALU_OUT_WB [31:0] $end
$var wire 32 g ALU_OUT_MA [31:0] $end
$var wire 32 h ALU_OUT_EX [31:0] $end
$var wire 5 i ALU_OP_ID [4:0] $end
$var wire 5 j ALU_OP_EX [4:0] $end
$var wire 32 k ALU_DATA2_EX [31:0] $end
$var wire 32 l ALU_DATA1_EX [31:0] $end
$scope module alu_inst $end
$var wire 32 m andData [31:0] $end
$var wire 32 n forwardData [31:0] $end
$var wire 32 o orData [31:0] $end
$var wire 32 p xorData [31:0] $end
$var wire 32 q subData [31:0] $end
$var wire 32 r srlData [31:0] $end
$var wire 32 s sraData [31:0] $end
$var wire 32 t sltuData [31:0] $end
$var wire 32 u sltData [31:0] $end
$var wire 32 v sllData [31:0] $end
$var wire 32 w remuData [31:0] $end
$var wire 32 x remData [31:0] $end
$var wire 32 y mulhuData [31:0] $end
$var wire 32 z mulhsuData [31:0] $end
$var wire 32 { mulhData [31:0] $end
$var wire 32 | mulData [31:0] $end
$var wire 32 } divuData [31:0] $end
$var wire 32 ~ divData [31:0] $end
$var wire 32 !" addData [31:0] $end
$var wire 5 "" SELECT [4:0] $end
$var wire 32 #" DATA2 [31:0] $end
$var wire 32 $" DATA1 [31:0] $end
$var reg 32 %" RESULT [31:0] $end
$upscope $end
$scope module alu_mux_1 $end
$var wire 1 c sel $end
$var wire 32 &" out [31:0] $end
$var wire 32 '" data2 [31:0] $end
$var wire 32 (" data1 [31:0] $end
$upscope $end
$scope module alu_mux_2 $end
$var wire 1 _ sel $end
$var wire 32 )" out [31:0] $end
$var wire 32 *" data2 [31:0] $end
$var wire 32 +" data1 [31:0] $end
$upscope $end
$scope module branch_logic_inst $end
$var wire 4 ," op [3:0] $end
$var wire 32 -" data2 [31:0] $end
$var wire 32 ." data1 [31:0] $end
$var wire 1 /" BNE $end
$var wire 1 0" BLTU $end
$var wire 1 1" BLT $end
$var wire 1 2" BGEU $end
$var wire 1 3" BGE $end
$var wire 1 4" BEQ $end
$var reg 1 @ out $end
$upscope $end
$scope module control_unit_inst $end
$var wire 1 b data1_alu_sel $end
$var wire 1 ^ data2_alu_sel $end
$var wire 3 5" funct3 [2:0] $end
$var wire 1 6" funct3_mux_select $end
$var wire 7 7" funct7 [6:0] $end
$var wire 7 8" opcode [6:0] $end
$var wire 1 3 reg_write_en $end
$var wire 1 * reset $end
$var wire 2 9" wb_sel [1:0] $end
$var wire 3 :" mem_write [2:0] $end
$var wire 4 ;" mem_read [3:0] $end
$var wire 4 <" imm_sel [3:0] $end
$var wire 4 =" branch_jump [3:0] $end
$var wire 5 >" alu_op [4:0] $end
$scope module funct3_mux $end
$var wire 3 ?" data1 [2:0] $end
$var wire 3 @" data2 [2:0] $end
$var wire 1 6" sel $end
$var wire 3 A" out [2:0] $end
$upscope $end
$upscope $end
$scope module ex_mem_pipeline_reg_inst $end
$var wire 32 B" alu_result_in [31:0] $end
$var wire 1 + busywait $end
$var wire 1 ) clk $end
$var wire 1 * rst $end
$var wire 2 C" wb_sel_in [1:0] $end
$var wire 1 4 reg_write_in $end
$var wire 32 D" read_data2_in [31:0] $end
$var wire 32 E" pc_in [31:0] $end
$var wire 3 F" mem_write_in [2:0] $end
$var wire 4 G" mem_read_in [3:0] $end
$var wire 5 H" dest_addr_in [4:0] $end
$var reg 32 I" alu_result_out [31:0] $end
$var reg 5 J" dest_addr_out [4:0] $end
$var reg 4 K" mem_read_out [3:0] $end
$var reg 3 L" mem_write_out [2:0] $end
$var reg 32 M" pc_out [31:0] $end
$var reg 32 N" read_data2_out [31:0] $end
$var reg 1 2 reg_write_out $end
$var reg 2 O" wb_sel_out [1:0] $end
$upscope $end
$scope module forwarding_mux_1 $end
$var wire 32 P" data2 [31:0] $end
$var wire 2 Q" sel [1:0] $end
$var wire 32 R" out [31:0] $end
$var wire 32 S" data3 [31:0] $end
$var wire 32 T" data1 [31:0] $end
$upscope $end
$scope module forwarding_mux_2 $end
$var wire 32 U" data2 [31:0] $end
$var wire 2 V" sel [1:0] $end
$var wire 32 W" out [31:0] $end
$var wire 32 X" data3 [31:0] $end
$var wire 32 Y" data1 [31:0] $end
$upscope $end
$scope module hazard_unit_inst $end
$var wire 5 Z" addr1 [4:0] $end
$var wire 5 [" addr2 [4:0] $end
$var wire 1 \" ex_memr $end
$var wire 1 ]" load_use_hazard $end
$var wire 1 ^" mem_memr $end
$var wire 5 _" mem_rd [4:0] $end
$var wire 1 2 mem_we $end
$var wire 1 4 ex_we $end
$var wire 5 `" ex_rd [4:0] $end
$var reg 1 R bubble $end
$var reg 2 a" forwarding_data1sel [1:0] $end
$var reg 2 b" forwarding_data2sel [1:0] $end
$var reg 1 Q stall $end
$upscope $end
$scope module id_ex_pipeline_reg_inst $end
$var wire 5 c" aluop_in [4:0] $end
$var wire 4 d" branch_jump_in [3:0] $end
$var wire 1 + busywait $end
$var wire 1 ) clk $end
$var wire 1 b data1_alu_sel_in $end
$var wire 2 e" data1sel_in [1:0] $end
$var wire 1 ^ data2_alu_sel_in $end
$var wire 2 f" data2sel_in [1:0] $end
$var wire 5 g" dest_addr_in [4:0] $end
$var wire 4 h" mem_read_in [3:0] $end
$var wire 3 i" mem_write_in [2:0] $end
$var wire 1 3 reg_write_en_in $end
$var wire 1 j" rst $end
$var wire 2 k" wb_sel_in [1:0] $end
$var wire 32 l" read_data2_in [31:0] $end
$var wire 32 m" read_data1_in [31:0] $end
$var wire 32 n" pc_in [31:0] $end
$var wire 32 o" imm_in [31:0] $end
$var reg 5 p" aluop_out [4:0] $end
$var reg 4 q" branch_jump_out [3:0] $end
$var reg 1 c data1_alu_sel_out $end
$var reg 2 r" data1sel_out [1:0] $end
$var reg 1 _ data2_alu_sel_out $end
$var reg 2 s" data2sel_out [1:0] $end
$var reg 5 t" dest_addr_out [4:0] $end
$var reg 32 u" imm_out [31:0] $end
$var reg 4 v" mem_read_out [3:0] $end
$var reg 3 w" mem_write_out [2:0] $end
$var reg 32 x" pc_out [31:0] $end
$var reg 32 y" read_data1_out [31:0] $end
$var reg 32 z" read_data2_out [31:0] $end
$var reg 1 4 reg_write_en_out $end
$var reg 2 {" wb_sel_out [1:0] $end
$upscope $end
$scope module if_id_pipeline_reg_inst $end
$var wire 1 |" busywait $end
$var wire 1 ) clk $end
$var wire 1 }" rst $end
$var wire 32 ~" pc_in [31:0] $end
$var wire 32 !# instr_in [31:0] $end
$var reg 32 "# instr_out [31:0] $end
$var reg 32 ## pc_out [31:0] $end
$upscope $end
$scope module mem_wb_pipeline_reg_inst $end
$var wire 32 $# alu_result_in [31:0] $end
$var wire 1 + busywait $end
$var wire 1 ) clk $end
$var wire 5 %# dest_addr_in [4:0] $end
$var wire 32 &# pc_in [31:0] $end
$var wire 1 2 reg_write_in $end
$var wire 1 * rst $end
$var wire 2 '# wb_sel_in [1:0] $end
$var wire 32 (# mem_data_in [31:0] $end
$var reg 32 )# alu_result_out [31:0] $end
$var reg 5 *# dest_addr_out [4:0] $end
$var reg 32 +# mem_data_out [31:0] $end
$var reg 32 ,# pc_out [31:0] $end
$var reg 1 1 reg_write_out $end
$var reg 2 -# wb_sel_out [1:0] $end
$upscope $end
$scope module pc_inst $end
$var wire 1 .# busywait $end
$var wire 1 ) clk $end
$var wire 1 * rst $end
$var wire 32 /# pc_in [31:0] $end
$var reg 32 0# pc_out [31:0] $end
$upscope $end
$scope module pc_mux $end
$var wire 32 1# data2 [31:0] $end
$var wire 1 @ sel $end
$var wire 32 2# out [31:0] $end
$var wire 32 3# data1 [31:0] $end
$upscope $end
$scope module pc_plus_4 $end
$var wire 32 4# data [31:0] $end
$var wire 32 5# out [31:0] $end
$upscope $end
$scope module pc_plus_4_ma $end
$var wire 32 6# data [31:0] $end
$var wire 32 7# out [31:0] $end
$upscope $end
$scope module reg_files_inst $end
$var wire 5 8# addr1 [4:0] $end
$var wire 5 9# addr2 [4:0] $end
$var wire 1 ) clk $end
$var wire 32 :# data1 [31:0] $end
$var wire 32 ;# data2 [31:0] $end
$var wire 1 * rst $end
$var wire 5 <# waddr [4:0] $end
$var wire 1 1 we $end
$var wire 32 =# wd [31:0] $end
$upscope $end
$scope module sign_extender_inst $end
$var wire 4 ># imm_sel [3:0] $end
$var wire 32 ?# inst [31:0] $end
$var wire 5 @# TYPE6 [4:0] $end
$var wire 12 A# TYPE5 [11:0] $end
$var wire 12 B# TYPE3 [11:0] $end
$var wire 20 C# TYPE1 [19:0] $end
$var reg 32 D# imm_ext [31:0] $end
$upscope $end
$scope module wb_mux $end
$var wire 32 E# data1 [31:0] $end
$var wire 32 F# data2 [31:0] $end
$var wire 32 G# data3 [31:0] $end
$var wire 2 H# sel [1:0] $end
$var wire 32 I# out [31:0] $end
$upscope $end
$upscope $end
$scope module dmem_inst $end
$var wire 32 J# address [31:0] $end
$var wire 1 ) clock $end
$var wire 4 K# read [3:0] $end
$var wire 1 * reset $end
$var wire 3 L# write [2:0] $end
$var wire 32 M# writedata [31:0] $end
$var reg 1 ( busywait $end
$var reg 1 N# readaccess $end
$var reg 32 O# readdata [31:0] $end
$var reg 1 P# writeaccess $end
$var integer 32 Q# i [31:0] $end
$upscope $end
$scope module imem_inst $end
$var wire 1 ) clk $end
$var wire 32 R# pc [31:0] $end
$var wire 1 * rst $end
$var reg 32 S# instr [31:0] $end
$upscope $end
$upscope $end
$enddefinitions $end
$comment Show the parameter values. $end
$dumpall
$end
#0
$dumpvars
b0 S#
bx R#
b100000000 Q#
0P#
bx O#
0N#
bx M#
bx L#
bx K#
bx J#
bx I#
bx H#
bx G#
bx F#
bx E#
bx D#
bx C#
bx B#
bx A#
bx @#
bx ?#
bx >#
bx =#
bx <#
bx ;#
bx :#
bx 9#
bx 8#
bx 7#
bx 6#
bx 5#
bx 4#
bx 3#
bx 2#
bx 1#
bx 0#
bx /#
x.#
bx -#
bx ,#
bx +#
bx *#
bx )#
bx (#
bx '#
bx &#
bx %#
bx $#
bx ##
bx "#
b0 !#
bx ~"
1}"
x|"
bx {"
bx z"
bx y"
bx x"
bx w"
bx v"
bx u"
bx t"
bx s"
bx r"
bx q"
bx p"
bx o"
bx n"
bx m"
bx l"
bx k"
1j"
bx i"
bx h"
bx g"
bx f"
bx e"
bx d"
bx c"
bx b"
bx a"
bx `"
bx _"
x^"
x]"
x\"
bx ["
bx Z"
bx Y"
bx X"
bx W"
bx V"
bx U"
bx T"
bx S"
bx R"
bx Q"
bx P"
bx O"
bx N"
bx M"
bx L"
bx K"
bx J"
bx I"
bx H"
bx G"
bx F"
bx E"
bx D"
bx C"
bx B"
bx A"
b0 @"
bx ?"
bx >"
bx ="
bx <"
bx ;"
bx :"
bx 9"
bx 8"
bx 7"
x6"
bx 5"
x4"
x3"
x2"
x1"
x0"
x/"
bx ."
bx -"
bx ,"
bx +"
bx *"
bx )"
bx ("
bx '"
bx &"
bx %"
bx $"
bx #"
bx ""
bx !"
bx ~
bx }
bx |
bx {
bx z
bx y
bx x
bx w
bx v
bx u
bx t
bx s
bx r
bx q
bx p
bx o
bx n
bx m
bx l
bx k
bx j
bx i
bx h
bx g
bx f
bx e
bx d
xc
xb
bx a
bx `
x_
x^
bx ]
bx \
bx [
bx Z
bx Y
bx X
bx W
bx V
bx U
bx T
bx S
xR
xQ
bx P
bx O
bx N
bx M
b0 L
bx K
bx J
bx I
bx H
bx G
bx F
bx E
bx D
bx C
bx B
bx A
x@
bx ?
bx >
bx =
bx <
bx ;
bx :
bx 9
bx 8
bx 7
bx 6
bx 5
x4
x3
x2
x1
bx 0
bx /
bx .
bx -
z,
0+
1*
0)
0(
bx '
bx &
bx %
bx $
bx #
b0 "
bx !
$end
#10
b0 h
b0 %"
b0 B"
b0 1#
b0x t
b0x u
#30
03
#50
b0 !
b0 C
b0 ~"
b0 0#
b0 4#
b0 R#
1)
#60
0]"
0|"
0.#
b0 O
b0 o"
b0 D#
b0 C#
b0 B#
b0 A#
b0 @#
b0 g"
b0 ["
b0 Z"
b0 7"
b0 5"
b0 ?"
b0 8"
b0 9#
b0 8#
0\"
bx h
bx %"
bx B"
bx 1#
0^"
0Q
0R
b0 S
b0 b"
b0 f"
b0 V
b0 a"
b0 e"
b0 M
b0 "#
b0 ?#
b0 D
b0 n"
b0 ##
b0 T
b0 V"
b0 s"
b0 W
b0 Q"
b0 r"
b0 9
b0 C"
b0 {"
b0 K
b0 G"
b0 v"
b0 e
b0 ,"
b0 q"
b0 H
b0 F"
b0 w"
b0 j
b0 ""
b0 p"
b0 <
b0 H"
b0 `"
b0 t"
b0 P
b0 *"
b0 u"
b0 ]
b0 Y"
b0 z"
b0 a
b0 T"
b0 y"
b0 E
b0 '"
b0 E"
b0 x"
0_
0c
04
b0 7
b0 O"
b0 '#
b0 $
b0 /
b0 K#
b0 I
b0 K"
b0 #
b0 0
b0 L#
b0 F
b0 L"
b0 %
b0 .
b0 M#
b0 [
b0 N"
b0 '
b0 -
b0 J#
b0 g
b0 I"
b0 P"
b0 U"
b0 $#
b0 A
b0 M"
b0 &#
b0 6#
b0 ;
b0 J"
b0 _"
b0 %#
02
b0 6
b0 -#
b0 H#
b0 :
b0 *#
b0 <#
b0 f
b0 )#
b0 F#
b0 Y
b0 +#
b0 E#
b0 =
b0 ,#
b0 G#
01
b100 ?
b100 3#
b100 5#
#70
bx000 i
bx000 >"
bx000 c"
b0 A"
b0 \
b0 l"
b0 ;#
b0 `
b0 m"
b0 :#
12"
00"
13"
01"
0/"
14"
b0 U
b0 +"
b0 -"
b0 D"
b0 W"
b0 X
b0 ("
b0 ."
b0 R"
b0 5
b0 S"
b0 X"
b0 =#
b0 I#
b100 >
b100 7#
#80
b0 k
b0 #"
b0 )"
b0 l
b0 $"
b0 &"
06"
0@
#90
b100 B
b100 /#
b100 2#
b0 s
b0 r
b0 v
b0 t
b0 u
b0 m
b0 o
b0 p
b0 n
0^
b0xxx N
b0xxx <"
b0xxx >#
0b
b0 d
b0 ="
b0 d"
b0 i
b0 >"
b0 c"
b1 8
b1 9"
b1 k"
b0 G
b0 :"
b0 i"
b0 J
b0 ;"
b0 h"
#100
b0 h
b0 %"
b0 B"
b0 1#
b100000000 Q#
b0 q
b0 !"
0)
#110
b0 {
b0 z
b0 y
b0 w
b0 x
b0 }
b0 ~
b0 |
#150
0j"
0}"
1)
0*
#160
b100 !
b100 C
b100 ~"
b100 0#
b100 4#
b100 R#
bx Y
bx +#
bx E#
#170
bx 5
bx S"
bx X"
bx =#
bx I#
b1000 ?
b1000 3#
b1000 5#
#180
b1000 B
b1000 /#
b1000 2#
#200
0)
#220
b10100000000000010010011 "
b10100000000000010010011 L
b10100000000000010010011 !#
b10100000000000010010011 S#
#250
1)
#260
b10100000000 C#
b101 B#
b1 A#
b101 @#
b1 g"
b101 ["
b10011 8"
b101 9#
b1000 !
b1000 C
b1000 ~"
b1000 0#
b1000 4#
b1000 R#
b10100000000000010010011 M
b10100000000000010010011 "#
b10100000000000010010011 ?#
b100 D
b100 n"
b100 ##
b1 9
b1 C"
b1 {"
#270
b1100 ?
b1100 3#
b1100 5#
#280
b1100 B
b1100 /#
b1100 2#
#290
b101 O
b101 o"
b101 D#
b10 N
b10 <"
b10 >#
1^
13
#300
0)
#320
b101000000000000100010011 "
b101000000000000100010011 L
b101000000000000100010011 !#
b101000000000000100010011 S#
#350
1)
#360
b1010 O
b1010 o"
b1010 D#
b101000000000 C#
b1010 B#
b10 A#
b1010 @#
b10 g"
b1010 ["
b1010 9#
b1100 !
b1100 C
b1100 ~"
b1100 0#
b1100 4#
b1100 R#
b1 7
b1 O"
b1 '#
b1 <
b1 H"
b1 `"
b1 t"
b101 P
b101 *"
b101 u"
b100 E
b100 '"
b100 E"
b100 x"
1_
14
b101000000000000100010011 M
b101000000000000100010011 "#
b101000000000000100010011 ?#
b1000 D
b1000 n"
b1000 ##
#370
b101 k
b101 #"
b101 )"
b10000 ?
b10000 3#
b10000 5#
#380
b1 t
b1 u
b101 o
b101 p
b10000 B
b10000 /#
b10000 2#
b101 n
#390
b101 h
b101 %"
b101 B"
b101 1#
b11111111111111111111111111111011 q
b101 !"
#400
0)
#420
b1000000000000000001101111 "
b1000000000000000001101111 L
b1000000000000000001101111 !#
b1000000000000000001101111 S#
#450
1)
#460
b10000 O
b10000 o"
b10000 D#
b1000000000000 C#
b10000 B#
b0 A#
b10000 @#
b0 g"
b10000 ["
b1101111 8"
b10000 9#
b10000 !
b10000 C
b10000 ~"
b10000 0#
b10000 4#
b10000 R#
b1000000000000000001101111 M
b1000000000000000001101111 "#
b1000000000000000001101111 ?#
b1100 D
b1100 n"
b1100 ##
b10 <
b10 H"
b10 `"
b10 t"
b1010 P
b1010 *"
b1010 u"
b1000 E
b1000 '"
b1000 E"
b1000 x"
b101 '
b101 -
b101 J#
b101 g
b101 I"
b101 P"
b101 U"
b101 $#
b100 A
b100 M"
b100 &#
b100 6#
b1 ;
b1 J"
b1 _"
b1 %#
12
b1 6
b1 -#
b1 H#
#470
b1010 k
b1010 #"
b1010 )"
b0 5
b0 S"
b0 X"
b0 =#
b0 I#
b10100 ?
b10100 3#
b10100 5#
b1000 >
b1000 7#
#480
b1010 o
b1010 p
b10100 B
b10100 /#
b10100 2#
b1010 n
16"
#490
b1010 h
b1010 %"
b1010 B"
b1010 1#
b11111111111111111111111111110110 q
b1010 !"
b1 N
b1 <"
b1 >#
1b
b1010 d
b1010 ="
b1010 d"
b11 8
b11 9"
b11 k"
#500
0)
#520
b110000000000001000010011 "
b110000000000001000010011 L
b110000000000001000010011 !#
b110000000000001000010011 S#
#550
1)
#560
b1100 O
b1100 o"
b1100 D#
b110000000000 C#
b1100 B#
b100 A#
b1100 @#
b100 g"
b1100 ["
b10011 8"
b1100 9#
b10100 !
b10100 C
b10100 ~"
b10100 0#
b10100 4#
b10100 R#
b1 :
b1 *#
b1 <#
b101 f
b101 )#
b101 F#
b100 =
b100 ,#
b100 G#
11
b1010 '
b1010 -
b1010 J#
b1010 g
b1010 I"
b1010 P"
b1010 U"
b1010 $#
b1000 A
b1000 M"
b1000 &#
b1000 6#
b10 ;
b10 J"
b10 _"
b10 %#
b11 9
b11 C"
b11 {"
b1010 e
b1010 ,"
b1010 q"
b0 <
b0 H"
b0 `"
b0 t"
b10000 P
b10000 *"
b10000 u"
b1100 E
b1100 '"
b1100 E"
b1100 x"
1c
b110000000000001000010011 M
b110000000000001000010011 "#
b110000000000001000010011 ?#
b10000 D
b10000 n"
b10000 ##
#570
b101 5
b101 S"
b101 X"
b101 =#
b101 I#
b1100 l
b1100 $"
b1100 &"
b10000 k
b10000 #"
b10000 )"
b11000 ?
b11000 3#
b11000 5#
b1100 >
b1100 7#
#580
1j"
1}"
b11100 o
b11100 p
b11000 B
b11000 /#
b11000 2#
b11000000000000000000 v
b10000 n
06"
1@
#590
b11100 h
b11100 %"
b11100 B"
b11100 1#
b1010 B
b1010 /#
b1010 2#
b11111111111111111111111111111100 q
b11100 !"
b10 N
b10 <"
b10 >#
0b
b0 d
b0 ="
b0 d"
b1 8
b1 9"
b1 k"
#600
b11100 B
b11100 /#
b11100 2#
b1100 w
b1100 x
b11000000 |
0)
#620
b1000100000000001010010011 "
b1000100000000001010010011 L
b1000100000000001010010011 !#
b1000100000000001010010011 S#
#650
1)
#660
b0 O
b0 o"
b0 D#
b0 C#
b0 B#
b0 A#
b0 @#
b0 g"
b0 ["
b0 8"
b0 9#
b11100 !
b11100 C
b11100 ~"
b11100 0#
b11100 4#
b11100 R#
b0 M
b0 "#
b0 ?#
b0 D
b0 n"
b0 ##
b0 9
b0 C"
b0 {"
b0 e
b0 ,"
b0 q"
b0 P
b0 *"
b0 u"
b0 E
b0 '"
b0 E"
b0 x"
0_
0c
04
b11 7
b11 O"
b11 '#
b11100 '
b11100 -
b11100 J#
b11100 g
b11100 I"
b11100 P"
b11100 U"
b11100 $#
b1100 A
b1100 M"
b1100 &#
b1100 6#
b0 ;
b0 J"
b0 _"
b0 %#
b10 :
b10 *#
b10 <#
b1010 f
b1010 )#
b1010 F#
b1000 =
b1000 ,#
b1000 G#
#670
b1010 5
b1010 S"
b1010 X"
b1010 =#
b1010 I#
b0 k
b0 #"
b0 )"
b0 l
b0 $"
b0 &"
b100000 ?
b100000 3#
b100000 5#
b10000 >
b10000 7#
#680
0j"
0}"
b0 t
b0 u
b0 o
b0 p
b0 n
b0 v
0@
#690
b0 h
b0 %"
b0 B"
b0 1#
b100000 B
b100000 /#
b100000 2#
b0 q
b0 !"
b0xxx N
b0xxx <"
b0xxx >#
0^
03
#700
b0 w
b0 x
b0 |
0)
#720
b100001000101001100011 "
b100001000101001100011 L
b100001000101001100011 !#
b100001000101001100011 S#
#750
1)
#760
b100001000 C#
b1 B#
b10100 A#
b1 @#
b10100 g"
b1 ["
b1 Z"
b1100011 8"
b1 9#
b1 8#
b100000 !
b100000 C
b100000 ~"
b100000 0#
b100000 4#
b100000 R#
b11 6
b11 -#
b11 H#
b0 :
b0 *#
b0 <#
b11100 f
b11100 )#
b11100 F#
b1100 =
b1100 ,#
b1100 G#
b0 7
b0 O"
b0 '#
b0 '
b0 -
b0 J#
b0 g
b0 I"
b0 P"
b0 U"
b0 $#
b0 A
b0 M"
b0 &#
b0 6#
02
b1 9
b1 C"
b1 {"
b100001000101001100011 M
b100001000101001100011 "#
b100001000101001100011 ?#
b11100 D
b11100 n"
b11100 ##
#770
b1100 5
b1100 S"
b1100 X"
b1100 =#
b1100 I#
b101 \
b101 l"
b101 ;#
b101 `
b101 m"
b101 :#
b100100 ?
b100100 3#
b100100 5#
b100 >
b100 7#
#780
b100100 B
b100100 /#
b100100 2#
16"
#790
b10100 O
b10100 o"
b10100 D#
b11 N
b11 <"
b11 >#
b1000 d
b1000 ="
b1000 d"
1b
1^
#800
0)
#820
b1011000000000001000010011 "
b1011000000000001000010011 L
b1011000000000001000010011 !#
b1011000000000001000010011 S#
#850
1)
#860
b100 O
b100 o"
b100 D#
b1011000000000 C#
b10110 B#
b100 A#
b10110 @#
b100 g"
b10110 ["
b0 Z"
b10011 8"
b10110 9#
b0 8#
b100100 !
b100100 C
b100100 ~"
b100100 0#
b100100 4#
b100100 R#
b1011000000000001000010011 M
b1011000000000001000010011 "#
b1011000000000001000010011 ?#
b100000 D
b100000 n"
b100000 ##
b1000 e
b1000 ,"
b1000 q"
b10100 <
b10100 H"
b10100 `"
b10100 t"
b10100 P
b10100 *"
b10100 u"
b101 ]
b101 Y"
b101 z"
b101 a
b101 T"
b101 y"
b11100 E
b11100 '"
b11100 E"
b11100 x"
1_
1c
b1 7
b1 O"
b1 '#
b0 6
b0 -#
b0 H#
b0 f
b0 )#
b0 F#
b0 =
b0 ,#
b0 G#
01
#870
b10100 k
b10100 #"
b10100 )"
b11100 l
b11100 $"
b11100 &"
b0 \
b0 l"
b0 ;#
b0 `
b0 m"
b0 :#
b101 U
b101 +"
b101 -"
b101 D"
b101 W"
0/"
14"
b101 X
b101 ("
b101 ."
b101 R"
bx 5
bx S"
bx X"
bx =#
bx I#
b101000 ?
b101000 3#
b101000 5#
#880
1j"
1}"
b10100 m
b11100 o
b1000 p
b101000 B
b101000 /#
b101000 2#
b10100 n
b1110000000000000000000000 v
06"
1@
#890
b110000 h
b110000 %"
b110000 B"
b110000 1#
b10110 O
b10110 o"
b10110 D#
b0 B
b0 /#
b0 2#
b1000 q
b110000 !"
b10 N
b10 <"
b10 >#
13
b0 d
b0 ="
b0 d"
0b
#900
b110000 B
b110000 /#
b110000 2#
b1000 w
b1000 x
b1 }
b1 ~
b1000110000 |
0)
#920
b10010100000000001010010011 "
b10010100000000001010010011 L
b10010100000000001010010011 !#
b10010100000000001010010011 S#
#950
1)
#960
b0 O
b0 o"
b0 D#
b0 C#
b0 B#
b0 A#
b0 @#
b0 g"
b0 ["
b0 8"
b0 9#
b110000 !
b110000 C
b110000 ~"
b110000 0#
b110000 4#
b110000 R#
b1 6
b1 -#
b1 H#
b101 %
b101 .
b101 M#
b101 [
b101 N"
b110000 '
b110000 -
b110000 J#
b110000 g
b110000 I"
b110000 P"
b110000 U"
b110000 $#
b11100 A
b11100 M"
b11100 &#
b11100 6#
b10100 ;
b10100 J"
b10100 _"
b10100 %#
b0 9
b0 C"
b0 {"
b0 e
b0 ,"
b0 q"
b0 <
b0 H"
b0 `"
b0 t"
b0 P
b0 *"
b0 u"
b0 ]
b0 Y"
b0 z"
b0 a
b0 T"
b0 y"
b0 E
b0 '"
b0 E"
b0 x"
0_
0c
b0 M
b0 "#
b0 ?#
b0 D
b0 n"
b0 ##
#970
b0 5
b0 S"
b0 X"
b0 =#
b0 I#
b101 k
b101 #"
b101 )"
b0 U
b0 +"
b0 -"
b0 D"
b0 W"
12"
00"
13"
01"
0/"
14"
b0 X
b0 ("
b0 ."
b0 R"
b101 l
b101 $"
b101 &"
b110100 ?
b110100 3#
b110100 5#
b100000 >
b100000 7#
#980
0j"
0}"
b0 k
b0 #"
b0 )"
b0 l
b0 $"
b0 &"
b101 m
b101 o
b0 p
b101 n
b10100000 v
0@
#990
b110100 B
b110100 /#
b110100 2#
b0 m
b0 o
b0 n
b0 v
b0xxx N
b0xxx <"
b0xxx >#
0^
03
#1000
b0 h
b0 %"
b0 B"
b0 1#
b0 q
b0 !"
b0 w
b0 x
0)
#1010
b0 }
b0 ~
b0 |
#1020
b1011000000000001000010011 "
b1011000000000001000010011 L
b1011000000000001000010011 !#
b1011000000000001000010011 S#
#1050
1)
