cpu/cpu_tb.vcd
$date
	Sun May 11 19:29:38 2025
$end
$version
	Icarus Verilog
$end
$timescale
	100ps
$end
$scope module cpu_tb $end
$var wire 32 ! PC [31:0] $end
$var wire 32 " INST [31:0] $end
$var wire 3 # DMEM_WRITE [2:0] $end
$var wire 4 $ DMEM_READ [3:0] $end
$var wire 32 % DMEM_DATA_WRITE [31:0] $end
$var wire 32 & DMEM_DATA_READ [31:0] $end
$var wire 32 ' DMEM_ADDR [31:0] $end
$var wire 1 ( BUSYWAIT $end
$var reg 1 ) CLK $end
$var reg 1 * RST $end
$scope module cpu_inst $end
$var wire 1 + BUSYWAIT $end
$var wire 1 , BUSYWAIT_OUT $end
$var wire 1 ) CLK $end
$var wire 32 - DMEM_ADDR_MA [31:0] $end
$var wire 32 . DMEM_DATA_WRITE_MA [31:0] $end
$var wire 4 / DMEM_READ_MA [3:0] $end
$var wire 3 0 DMEM_WRITE_MA [2:0] $end
$var wire 1 * RST $end
$var wire 1 1 WRITE_EN_WB $end
$var wire 1 2 WRITE_EN_MA $end
$var wire 1 3 WRITE_EN_ID $end
$var wire 1 4 WRITE_EN_EX $end
$var wire 32 5 WRITE_DATA_WB [31:0] $end
$var wire 2 6 WB_SEL_WB [1:0] $end
$var wire 2 7 WB_SEL_MA [1:0] $end
$var wire 2 8 WB_SEL_ID [1:0] $end
$var wire 2 9 WB_SEL_EX [1:0] $end
$var wire 5 : WADDR_WB [4:0] $end
$var wire 5 ; WADDR_MA [4:0] $end
$var wire 5 < WADDR_EX [4:0] $end
$var wire 32 = PC_WB [31:0] $end
$var wire 32 > PC_PLUS_4_MA [31:0] $end
$var wire 32 ? PC_PLUS_4_IF [31:0] $end
$var wire 1 @ PC_MUX_SEL_EX $end
$var wire 32 A PC_MA [31:0] $end
$var wire 32 B PC_INT_IF [31:0] $end
$var wire 32 C PC_IF [31:0] $end
$var wire 32 D PC_ID [31:0] $end
$var wire 32 E PC_EX [31:0] $end
$var wire 3 F MEM_WRITE_MA [2:0] $end
$var wire 3 G MEM_WRITE_ID [2:0] $end
$var wire 3 H MEM_WRITE_EX [2:0] $end
$var wire 4 I MEM_READ_MA [3:0] $end
$var wire 4 J MEM_READ_ID [3:0] $end
$var wire 4 K MEM_READ_EX [3:0] $end
$var wire 32 L INST_IF [31:0] $end
$var wire 32 M INST_ID [31:0] $end
$var wire 4 N IMM_SEL_ID [3:0] $end
$var wire 32 O IMM_ID [31:0] $end
$var wire 32 P IMM_EX [31:0] $end
$var wire 1 Q HAZARD_STALL $end
$var wire 1 R HAZARD_BUBBLE $end
$var wire 2 S FORWARDING_DATA2_SEL_ID [1:0] $end
$var wire 2 T FORWARDING_DATA2_SEL_EX [1:0] $end
$var wire 32 U FORWARDING_DATA2 [31:0] $end
$var wire 2 V FORWARDING_DATA1_SEL_ID [1:0] $end
$var wire 2 W FORWARDING_DATA1_SEL_EX [1:0] $end
$var wire 32 X FORWARDING_DATA1 [31:0] $end
$var wire 32 Y DMEM_DATA_READ_WB [31:0] $end
$var wire 32 Z DMEM_DATA_READ_MA [31:0] $end
$var wire 32 [ DATA2_MA [31:0] $end
$var wire 32 \ DATA2_ID [31:0] $end
$var wire 32 ] DATA2_EX [31:0] $end
$var wire 1 ^ DATA2_ALU_SEL_ID $end
$var wire 1 _ DATA2_ALU_SEL_EX $end
$var wire 32 ` DATA1_ID [31:0] $end
$var wire 32 a DATA1_EX [31:0] $end
$var wire 1 b DATA1_ALU_SEL_ID $end
$var wire 1 c DATA1_ALU_SEL_EX $end
$var wire 1 ( BUSYWAIT_IN $end
$var wire 4 d BRANCH_JUMP_ID [3:0] $end
$var wire 4 e BRANCH_JUMP_EX [3:0] $end
$var wire 32 f ALU_OUT_WB [31:0] $end
$var wire 32 g ALU_OUT_MA [31:0] $end
$var wire 32 h ALU_OUT_EX [31:0] $end
$var wire 5 i ALU_OP_ID [4:0] $end
$var wire 5 j ALU_OP_EX [4:0] $end
$var wire 32 k ALU_DATA2_EX [31:0] $end
$var wire 32 l ALU_DATA1_EX [31:0] $end
$scope module alu_inst $end
$var wire 32 m andData [31:0] $end
$var wire 32 n forwardData [31:0] $end
$var wire 32 o orData [31:0] $end
$var wire 32 p xorData [31:0] $end
$var wire 32 q subData [31:0] $end
$var wire 32 r srlData [31:0] $end
$var wire 32 s sraData [31:0] $end
$var wire 32 t sltuData [31:0] $end
$var wire 32 u sltData [31:0] $end
$var wire 32 v sllData [31:0] $end
$var wire 32 w remuData [31:0] $end
$var wire 32 x remData [31:0] $end
$var wire 32 y mulhuData [31:0] $end
$var wire 32 z mulhsuData [31:0] $end
$var wire 32 { mulhData [31:0] $end
$var wire 32 | mulData [31:0] $end
$var wire 32 } divuData [31:0] $end
$var wire 32 ~ divData [31:0] $end
$var wire 32 !" addData [31:0] $end
$var wire 5 "" SELECT [4:0] $end
$var wire 32 #" DATA2 [31:0] $end
$var wire 32 $" DATA1 [31:0] $end
$var reg 32 %" RESULT [31:0] $end
$upscope $end
$scope module alu_mux_1 $end
$var wire 1 c sel $end
$var wire 32 &" out [31:0] $end
$var wire 32 '" data2 [31:0] $end
$var wire 32 (" data1 [31:0] $end
$upscope $end
$scope module alu_mux_2 $end
$var wire 1 _ sel $end
$var wire 32 )" out [31:0] $end
$var wire 32 *" data2 [31:0] $end
$var wire 32 +" data1 [31:0] $end
$upscope $end
$scope module branch_logic_inst $end
$var wire 4 ," op [3:0] $end
$var wire 32 -" data2 [31:0] $end
$var wire 32 ." data1 [31:0] $end
$var wire 1 /" BNE $end
$var wire 1 0" BLTU $end
$var wire 1 1" BLT $end
$var wire 1 2" BGEU $end
$var wire 1 3" BGE $end
$var wire 1 4" BEQ $end
$var reg 1 @ out $end
$upscope $end
$scope module control_unit_inst $end
$var wire 1 b data1_alu_sel $end
$var wire 1 ^ data2_alu_sel $end
$var wire 3 5" funct3 [2:0] $end
$var wire 1 6" funct3_mux_select $end
$var wire 7 7" funct7 [6:0] $end
$var wire 7 8" opcode [6:0] $end
$var wire 1 3 reg_write_en $end
$var wire 1 * reset $end
$var wire 2 9" wb_sel [1:0] $end
$var wire 3 :" mem_write [2:0] $end
$var wire 4 ;" mem_read [3:0] $end
$var wire 4 <" imm_sel [3:0] $end
$var wire 4 =" branch_jump [3:0] $end
$var wire 5 >" alu_op [4:0] $end
$scope module funct3_mux $end
$var wire 3 ?" data1 [2:0] $end
$var wire 3 @" data2 [2:0] $end
$var wire 1 6" sel $end
$var wire 3 A" out [2:0] $end
$upscope $end
$upscope $end
$scope module ex_mem_pipeline_reg_inst $end
$var wire 32 B" alu_result_in [31:0] $end
$var wire 1 + busywait $end
$var wire 1 ) clk $end
$var wire 1 * rst $end
$var wire 2 C" wb_sel_in [1:0] $end
$var wire 1 4 reg_write_in $end
$var wire 32 D" read_data2_in [31:0] $end
$var wire 32 E" pc_in [31:0] $end
$var wire 3 F" mem_write_in [2:0] $end
$var wire 4 G" mem_read_in [3:0] $end
$var wire 5 H" dest_addr_in [4:0] $end
$var reg 32 I" alu_result_out [31:0] $end
$var reg 5 J" dest_addr_out [4:0] $end
$var reg 4 K" mem_read_out [3:0] $end
$var reg 3 L" mem_write_out [2:0] $end
$var reg 32 M" pc_out [31:0] $end
$var reg 32 N" read_data2_out [31:0] $end
$var reg 1 2 reg_write_out $end
$var reg 2 O" wb_sel_out [1:0] $end
$upscope $end
$scope module forwarding_mux_1 $end
$var wire 32 P" data2 [31:0] $end
$var wire 2 Q" sel [1:0] $end
$var wire 32 R" out [31:0] $end
$var wire 32 S" data3 [31:0] $end
$var wire 32 T" data1 [31:0] $end
$upscope $end
$scope module forwarding_mux_2 $end
$var wire 32 U" data2 [31:0] $end
$var wire 2 V" sel [1:0] $end
$var wire 32 W" out [31:0] $end
$var wire 32 X" data3 [31:0] $end
$var wire 32 Y" data1 [31:0] $end
$upscope $end
$scope module hazard_unit_inst $end
$var wire 5 Z" addr1 [4:0] $end
$var wire 5 [" addr2 [4:0] $end
$var wire 1 \" ex_memr $end
$var wire 1 ]" load_use_hazard $end
$var wire 1 ^" mem_memr $end
$var wire 5 _" mem_rd [4:0] $end
$var wire 1 2 mem_we $end
$var wire 1 4 ex_we $end
$var wire 5 `" ex_rd [4:0] $end
$var reg 1 R bubble $end
$var reg 2 a" forwarding_data1sel [1:0] $end
$var reg 2 b" forwarding_data2sel [1:0] $end
$var reg 1 Q stall $end
$upscope $end
$scope module id_ex_pipeline_reg_inst $end
$var wire 5 c" aluop_in [4:0] $end
$var wire 4 d" branch_jump_in [3:0] $end
$var wire 1 + busywait $end
$var wire 1 ) clk $end
$var wire 1 b data1_alu_sel_in $end
$var wire 2 e" data1sel_in [1:0] $end
$var wire 1 ^ data2_alu_sel_in $end
$var wire 2 f" data2sel_in [1:0] $end
$var wire 5 g" dest_addr_in [4:0] $end
$var wire 4 h" mem_read_in [3:0] $end
$var wire 3 i" mem_write_in [2:0] $end
$var wire 1 3 reg_write_en_in $end
$var wire 1 j" rst $end
$var wire 2 k" wb_sel_in [1:0] $end
$var wire 32 l" read_data2_in [31:0] $end
$var wire 32 m" read_data1_in [31:0] $end
$var wire 32 n" pc_in [31:0] $end
$var wire 32 o" imm_in [31:0] $end
$var reg 5 p" aluop_out [4:0] $end
$var reg 4 q" branch_jump_out [3:0] $end
$var reg 1 c data1_alu_sel_out $end
$var reg 2 r" data1sel_out [1:0] $end
$var reg 1 _ data2_alu_sel_out $end
$var reg 2 s" data2sel_out [1:0] $end
$var reg 5 t" dest_addr_out [4:0] $end
$var reg 32 u" imm_out [31:0] $end
$var reg 4 v" mem_read_out [3:0] $end
$var reg 3 w" mem_write_out [2:0] $end
$var reg 32 x" pc_out [31:0] $end
$var reg 32 y" read_data1_out [31:0] $end
$var reg 32 z" read_data2_out [31:0] $end
$var reg 1 4 reg_write_en_out $end
$var reg 2 {" wb_sel_out [1:0] $end
$upscope $end
$scope module if_id_pipeline_reg_inst $end
$var wire 1 |" busywait $end
$var wire 1 ) clk $end
$var wire 1 }" rst $end
$var wire 32 ~" pc_in [31:0] $end
$var wire 32 !# instr_in [31:0] $end
$var reg 32 "# instr_out [31:0] $end
$var reg 32 ## pc_out [31:0] $end
$upscope $end
$scope module mem_wb_pipeline_reg_inst $end
$var wire 32 $# alu_result_in [31:0] $end
$var wire 1 + busywait $end
$var wire 1 ) clk $end
$var wire 5 %# dest_addr_in [4:0] $end
$var wire 32 &# pc_in [31:0] $end
$var wire 1 2 reg_write_in $end
$var wire 1 * rst $end
$var wire 2 '# wb_sel_in [1:0] $end
$var wire 32 (# mem_data_in [31:0] $end
$var reg 32 )# alu_result_out [31:0] $end
$var reg 5 *# dest_addr_out [4:0] $end
$var reg 32 +# mem_data_out [31:0] $end
$var reg 32 ,# pc_out [31:0] $end
$var reg 1 1 reg_write_out $end
$var reg 2 -# wb_sel_out [1:0] $end
$upscope $end
$scope module pc_inst $end
$var wire 1 .# busywait $end
$var wire 1 ) clk $end
$var wire 1 * rst $end
$var wire 32 /# pc_in [31:0] $end
$var reg 32 0# pc_out [31:0] $end
$upscope $end
$scope module pc_mux $end
$var wire 32 1# data2 [31:0] $end
$var wire 1 @ sel $end
$var wire 32 2# out [31:0] $end
$var wire 32 3# data1 [31:0] $end
$upscope $end
$scope module pc_plus_4 $end
$var wire 32 4# data [31:0] $end
$var wire 32 5# out [31:0] $end
$upscope $end
$scope module pc_plus_4_ma $end
$var wire 32 6# data [31:0] $end
$var wire 32 7# out [31:0] $end
$upscope $end
$scope module reg_files_inst $end
$var wire 5 8# addr1 [4:0] $end
$var wire 5 9# addr2 [4:0] $end
$var wire 1 ) clk $end
$var wire 32 :# data1 [31:0] $end
$var wire 32 ;# data2 [31:0] $end
$var wire 1 * rst $end
$var wire 5 <# waddr [4:0] $end
$var wire 1 1 we $end
$var wire 32 =# wd [31:0] $end
$upscope $end
$scope module sign_extender_inst $end
$var wire 4 ># imm_sel [3:0] $end
$var wire 32 ?# inst [31:0] $end
$var wire 5 @# TYPE6 [4:0] $end
$var wire 12 A# TYPE5 [11:0] $end
$var wire 12 B# TYPE3 [11:0] $end
$var wire 20 C# TYPE1 [19:0] $end
$var reg 32 D# imm_ext [31:0] $end
$upscope $end
$scope module wb_mux $end
$var wire 32 E# data1 [31:0] $end
$var wire 32 F# data2 [31:0] $end
$var wire 32 G# data3 [31:0] $end
$var wire 2 H# sel [1:0] $end
$var wire 32 I# out [31:0] $end
$upscope $end
$upscope $end
$scope module dmem_inst $end
$var wire 32 J# address [31:0] $end
$var wire 1 ) clock $end
$var wire 4 K# read [3:0] $end
$var wire 1 * reset $end
$var wire 3 L# write [2:0] $end
$var wire 32 M# writedata [31:0] $end
$var reg 1 ( busywait $end
$var reg 1 N# readaccess $end
$var reg 32 O# readdata [31:0] $end
$var reg 1 P# writeaccess $end
$var integer 32 Q# i [31:0] $end
$upscope $end
$scope module imem_inst $end
$var wire 1 ) clk $end
$var wire 32 R# pc [31:0] $end
$var wire 1 * rst $end
$var reg 32 S# instr [31:0] $end
$upscope $end
$upscope $end
$enddefinitions $end
$comment Show the parameter values. $end
$dumpall
$end
#0
$dumpvars
b0 S#
bx R#
b100000000 Q#
0P#
bx O#
0N#
bx M#
bx L#
bx K#
bx J#
bx I#
bx H#
bx G#
bx F#
bx E#
bx D#
bx C#
bx B#
bx A#
bx @#
bx ?#
bx >#
bx =#
bx <#
bx ;#
bx :#
bx 9#
bx 8#
bx 7#
bx 6#
bx 5#
bx 4#
bx 3#
bx 2#
bx 1#
bx 0#
bx /#
x.#
bx -#
bx ,#
bx +#
bx *#
bx )#
bx (#
bx '#
bx &#
bx %#
bx $#
bx ##
bx "#
b0 !#
bx ~"
1}"
x|"
bx {"
bx z"
bx y"
bx x"
bx w"
bx v"
bx u"
bx t"
bx s"
bx r"
bx q"
bx p"
bx o"
bx n"
bx m"
bx l"
bx k"
1j"
bx i"
bx h"
bx g"
bx f"
bx e"
bx d"
bx c"
bx b"
bx a"
bx `"
bx _"
x^"
x]"
x\"
bx ["
bx Z"
bx Y"
bx X"
bx W"
bx V"
bx U"
bx T"
bx S"
bx R"
bx Q"
bx P"
bx O"
bx N"
bx M"
bx L"
bx K"
bx J"
bx I"
bx H"
bx G"
bx F"
bx E"
bx D"
bx C"
bx B"
bx A"
b0 @"
bx ?"
bx >"
bx ="
bx <"
bx ;"
bx :"
bx 9"
bx 8"
bx 7"
x6"
bx 5"
x4"
x3"
x2"
x1"
x0"
x/"
bx ."
bx -"
bx ,"
bx +"
bx *"
bx )"
bx ("
bx '"
bx &"
bx %"
bx $"
bx #"
bx ""
bx !"
bx ~
bx }
bx |
bx {
bx z
bx y
bx x
bx w
bx v
bx u
bx t
bx s
bx r
bx q
bx p
bx o
bx n
bx m
bx l
bx k
bx j
bx i
bx h
bx g
bx f
bx e
bx d
xc
xb
bx a
bx `
x_
x^
bx ]
bx \
bx [
bx Z
bx Y
bx X
bx W
bx V
bx U
bx T
bx S
xR
xQ
bx P
bx O
bx N
bx M
b0 L
bx K
bx J
bx I
bx H
bx G
bx F
bx E
bx D
bx C
bx B
bx A
x@
bx ?
bx >
bx =
bx <
bx ;
bx :
bx 9
bx 8
bx 7
bx 6
bx 5
x4
x3
x2
x1
bx 0
bx /
bx .
bx -
z,
0+
1*
0)
0(
bx '
bx &
bx %
bx $
bx #
b0 "
bx !
$end
#10
b0 h
b0 %"
b0 B"
b0 1#
b0x t
b0x u
#30
03
#50
b0 !
b0 C
b0 ~"
b0 0#
b0 4#
b0 R#
1)
#60
0]"
0|"
0.#
b0 O
b0 o"
b0 D#
b0 C#
b0 B#
b0 A#
b0 @#
b0 g"
b0 ["
b0 Z"
b0 7"
b0 5"
b0 ?"
b0 8"
b0 9#
b0 8#
0\"
bx h
bx %"
bx B"
bx 1#
0^"
0Q
0R
b0 S
b0 b"
b0 f"
b0 V
b0 a"
b0 e"
b0 M
b0 "#
b0 ?#
b0 D
b0 n"
b0 ##
b0 T
b0 V"
b0 s"
b0 W
b0 Q"
b0 r"
b0 9
b0 C"
b0 {"
b0 K
b0 G"
b0 v"
b0 e
b0 ,"
b0 q"
b0 H
b0 F"
b0 w"
b0 j
b0 ""
b0 p"
b0 <
b0 H"
b0 `"
b0 t"
b0 P
b0 *"
b0 u"
b0 ]
b0 Y"
b0 z"
b0 a
b0 T"
b0 y"
b0 E
b0 '"
b0 E"
b0 x"
0_
0c
04
b0 7
b0 O"
b0 '#
b0 $
b0 /
b0 K#
b0 I
b0 K"
b0 #
b0 0
b0 L#
b0 F
b0 L"
b0 %
b0 .
b0 M#
b0 [
b0 N"
b0 '
b0 -
b0 J#
b0 g
b0 I"
b0 P"
b0 U"
b0 $#
b0 A
b0 M"
b0 &#
b0 6#
b0 ;
b0 J"
b0 _"
b0 %#
02
b0 6
b0 -#
b0 H#
b0 :
b0 *#
b0 <#
b0 f
b0 )#
b0 F#
b0 Y
b0 +#
b0 E#
b0 =
b0 ,#
b0 G#
01
b100 ?
b100 3#
b100 5#
#70
bx000 i
bx000 >"
bx000 c"
b0 A"
b0 \
b0 l"
b0 ;#
b0 `
b0 m"
b0 :#
12"
00"
13"
01"
0/"
14"
b0 U
b0 +"
b0 -"
b0 D"
b0 W"
b0 X
b0 ("
b0 ."
b0 R"
b0 5
b0 S"
b0 X"
b0 =#
b0 I#
b100 >
b100 7#
#80
b0 k
b0 #"
b0 )"
b0 l
b0 $"
b0 &"
06"
0@
#90
b100 B
b100 /#
b100 2#
b0 s
b0 r
b0 v
b0 t
b0 u
b0 m
b0 o
b0 p
b0 n
0^
b0xxx N
b0xxx <"
b0xxx >#
0b
b0 d
b0 ="
b0 d"
b0 i
b0 >"
b0 c"
b1 8
b1 9"
b1 k"
b0 G
b0 :"
b0 i"
b0 J
b0 ;"
b0 h"
#100
b0 h
b0 %"
b0 B"
b0 1#
b100000000 Q#
b0 q
b0 !"
0)
#110
b0 {
b0 z
b0 y
b0 w
b0 x
b0 }
b0 ~
b0 |
#150
0j"
0}"
1)
0*
#160
b100 !
b100 C
b100 ~"
b100 0#
b100 4#
b100 R#
bx Y
bx +#
bx E#
#170
bx 5
bx S"
bx X"
bx =#
bx I#
b1000 ?
b1000 3#
b1000 5#
#180
b1000 B
b1000 /#
b1000 2#
#200
0)
#220
b110100001000000010010011 "
b110100001000000010010011 L
b110100001000000010010011 !#
b110100001000000010010011 S#
#250
1)
#260
b110100001000 C#
b1101 B#
b1 A#
b1101 @#
b1 g"
b1101 ["
b1 Z"
b10011 8"
b1101 9#
b1 8#
b1000 !
b1000 C
b1000 ~"
b1000 0#
b1000 4#
b1000 R#
b110100001000000010010011 M
b110100001000000010010011 "#
b110100001000000010010011 ?#
b100 D
b100 n"
b100 ##
b1 9
b1 C"
b1 {"
#270
b1100 ?
b1100 3#
b1100 5#
#280
b1100 B
b1100 /#
b1100 2#
#290
b1101 O
b1101 o"
b1101 D#
b10 N
b10 <"
b10 >#
1^
13
#300
0)
#320
b100010000000100010011 "
b100010000000100010011 L
b100010000000100010011 !#
b100010000000100010011 S#
#350
1)
#360
b1 S
b1 b"
b1 f"
b1 O
b1 o"
b1 D#
b100010000 C#
b1 B#
b10 A#
b1 @#
b10 g"
b1 ["
b10 Z"
b1 9#
b10 8#
b1100 !
b1100 C
b1100 ~"
b1100 0#
b1100 4#
b1100 R#
b1 7
b1 O"
b1 '#
b1 <
b1 H"
b1 `"
b1 t"
b1101 P
b1101 *"
b1101 u"
b100 E
b100 '"
b100 E"
b100 x"
1_
14
b100010000000100010011 M
b100010000000100010011 "#
b100010000000100010011 ?#
b1000 D
b1000 n"
b1000 ##
#370
b1101 k
b1101 #"
b1101 )"
b10000 ?
b10000 3#
b10000 5#
#380
b1 t
b1 u
b1101 o
b1101 p
b10000 B
b10000 /#
b10000 2#
b1101 n
#390
b1101 h
b1101 %"
b1101 B"
b1101 1#
b11111111111111111111111111110011 q
b1101 !"
#400
0)
#420
b11111110001000001001111011100011 "
b11111110001000001001111011100011 L
b11111110001000001001111011100011 !#
b11111110001000001001111011100011 S#
#450
1)
#460
b11111111111111111111111111100010 O
b11111111111111111111111111100010 o"
b11111111111111111111111111100010 D#
b11111110001000001001 C#
b111111100010 B#
b111111111101 A#
b10 @#
b11101 g"
b10 ["
b1 Z"
b1111111 7"
b1 5"
b1 ?"
b1100011 8"
b10 9#
b1 8#
b10 V
b10 a"
b10 e"
b1 S
b1 b"
b1 f"
b10000 !
b10000 C
b10000 ~"
b10000 0#
b10000 4#
b10000 R#
b11111110001000001001111011100011 M
b11111110001000001001111011100011 "#
b11111110001000001001111011100011 ?#
b1100 D
b1100 n"
b1100 ##
b1 T
b1 V"
b1 s"
b10 <
b10 H"
b10 `"
b10 t"
b1 P
b1 *"
b1 u"
b1000 E
b1000 '"
b1000 E"
b1000 x"
b1101 '
b1101 -
b1101 J#
b1101 g
b1101 I"
b1101 P"
b1101 U"
b1101 $#
b100 A
b100 M"
b100 &#
b100 6#
b1 ;
b1 J"
b1 _"
b1 %#
12
b1 6
b1 -#
b1 H#
#470
b1 i
b1 >"
b1 c"
b1 A"
02"
10"
03"
11"
1/"
04"
b1101 U
b1101 +"
b1101 -"
b1101 D"
b1101 W"
b1 k
b1 #"
b1 )"
b0 5
b0 S"
b0 X"
b0 =#
b0 I#
b10100 ?
b10100 3#
b10100 5#
b1000 >
b1000 7#
#480
b1 o
b1 p
b10100 B
b10100 /#
b10100 2#
b1 n
16"
#490
b1 h
b1 %"
b1 B"
b1 1#
b11111111111111111111111111111100 O
b11111111111111111111111111111100 o"
b11111111111111111111111111111100 D#
b0 i
b0 >"
b0 c"
b0 A"
b11111111111111111111111111111111 q
b1 !"
b11 N
b11 <"
b11 >#
03
b1 G
b1 :"
b1 i"
b1001 d
b1001 ="
b1001 d"
1b
b1 J
b1 ;"
b1 h"
#500
0)
#520
bx "
bx L
bx !#
bx S#
#550
1)
#560
b0 S
b0 b"
b0 f"
b0 V
b0 a"
b0 e"
bx0 O
bx0 o"
bx0 D#
bx C#
bx B#
bx A#
bx @#
bx g"
bx ["
bx Z"
bx 7"
bx 5"
bx ?"
bx 8"
bx 9#
bx 8#
b10100 !
b10100 C
b10100 ~"
b10100 0#
b10100 4#
b10100 R#
b1 :
b1 *#
b1 <#
b1101 f
b1101 )#
b1101 F#
b100 =
b100 ,#
b100 G#
11
b1101 %
b1101 .
b1101 M#
b1101 [
b1101 N"
b1 '
b1 -
b1 J#
b1 g
b1 I"
b1 P"
b1 U"
b1 $#
b1000 A
b1000 M"
b1000 &#
b1000 6#
b10 ;
b10 J"
b10 _"
b10 %#
b10 W
b10 Q"
b10 r"
b1 K
b1 G"
b1 v"
b1001 e
b1001 ,"
b1001 q"
b1 H
b1 F"
b1 w"
b11101 <
b11101 H"
b11101 `"
b11101 t"
b11111111111111111111111111111100 P
b11111111111111111111111111111100 *"
b11111111111111111111111111111100 u"
b1100 E
b1100 '"
b1100 E"
b1100 x"
1c
04
bx M
bx "#
bx ?#
b10000 D
b10000 n"
b10000 ##
#570
b1101 5
b1101 S"
b1101 X"
b1101 =#
b1101 I#
b1 U
b1 +"
b1 -"
b1 D"
b1 W"
b1100 l
b1100 $"
b1100 &"
b11111111111111111111111111111100 k
b11111111111111111111111111111100 #"
b11111111111111111111111111111100 )"
bx \
bx l"
bx ;#
bx `
bx m"
bx :#
b11000 ?
b11000 3#
b11000 5#
b1100 >
b1100 7#
#580
1j"
1}"
12"
00"
13"
01"
b1101 X
b1101 ("
b1101 ."
b1101 R"
b0 u
b1100 m
b11111111111111111111111111111100 o
b11111111111111111111111111110000 p
b11000 B
b11000 /#
b11000 2#
b11000000000000000000000000000000 v
b11111111111111111111111111111100 n
x6"
1@
#590
b1000 h
b1000 %"
b1000 B"
b1000 1#
b0 O
b0 o"
b0 D#
bx A"
b1 B
b1 /#
b1 2#
b10000 q
b1000 !"
x3
bx i
bx >"
bx c"
bx d
bx ="
bx d"
bx N
bx <"
bx >#
xb
x^
bx 8
bx 9"
bx k"
bx G
bx :"
bx i"
bx J
bx ;"
bx h"
#600
b1000 B
b1000 /#
b1000 2#
b1011 y
b1011 z
b11111111111111111111111111111111 {
b1100 w
b1100 x
b11111111111111111111111111010000 |
0)
#650
1)
#660
b0 C#
b0 B#
b0 A#
b0 @#
b0 g"
b0 ["
b0 Z"
b0 7"
b0 5"
b0 ?"
b0 8"
b0 9#
b0 8#
b1000 !
b1000 C
b1000 ~"
b1000 0#
b1000 4#
b1000 R#
b0 M
b0 "#
b0 ?#
b0 D
b0 n"
b0 ##
b0 T
b0 V"
b0 s"
b0 W
b0 Q"
b0 r"
b0 9
b0 C"
b0 {"
b0 K
b0 G"
b0 v"
b0 e
b0 ,"
b0 q"
b0 H
b0 F"
b0 w"
b0 <
b0 H"
b0 `"
b0 t"
b0 P
b0 *"
b0 u"
b0 E
b0 '"
b0 E"
b0 x"
0_
0c
b1 #
b1 0
b1 L#
b1 F
b1 L"
b1 $
b1 /
b1 K#
b1 I
b1 K"
b1 %
b1 .
b1 M#
b1 [
b1 N"
b1000 '
b1000 -
b1000 J#
b1000 g
b1000 I"
b1000 P"
b1000 U"
b1000 $#
b1100 A
b1100 M"
b1100 &#
b1100 6#
b11101 ;
b11101 J"
b11101 _"
b11101 %#
02
b10 :
b10 *#
b10 <#
b1 f
b1 )#
b1 F#
b1000 =
b1000 ,#
b1000 G#
#670
bx000 i
bx000 >"
bx000 c"
b0 A"
b1 5
b1 S"
b1 X"
b1 =#
b1 I#
b0 \
b0 l"
b0 ;#
b0 `
b0 m"
b0 :#
0/"
14"
b0 U
b0 +"
b0 -"
b0 D"
b0 W"
12"
00"
13"
01"
b0 X
b0 ("
b0 ."
b0 R"
b1 k
b1 #"
b1 )"
b1101 l
b1101 $"
b1101 &"
b1100 ?
b1100 3#
b1100 5#
b10000 >
b10000 7#
#680
0j"
0}"
b0 k
b0 #"
b0 )"
b0 l
b0 $"
b0 &"
b110 s
b110 r
b0 t
b1 m
b1101 o
b1100 p
b1 n
b11010 v
06"
0@
#690
b1100 B
b1100 /#
b1100 2#
b0 m
b0 o
b0 p
b0 n
b0 s
b0 r
b0 v
0^
b0xxx N
b0xxx <"
b0xxx >#
03
0b
b0 d
b0 ="
b0 d"
b0 i
b0 >"
b0 c"
b1 8
b1 9"
b1 k"
b0 G
b0 :"
b0 i"
b0 J
b0 ;"
b0 h"
#700
b0 h
b0 %"
b0 B"
b0 1#
b0 q
b0 !"
b0 {
b0 y
b0 z
b0 w
b0 x
0)
#710
b0 |
#720
b100010000000100010011 "
b100010000000100010011 L
b100010000000100010011 !#
b100010000000100010011 S#
#750
1)
#760
b100010000 C#
b1 B#
b10 A#
b1 @#
b10 g"
b1 ["
b10 Z"
b10011 8"
b1 9#
b10 8#
b1100 !
b1100 C
b1100 ~"
b1100 0#
b1100 4#
b1100 R#
b11101 :
b11101 *#
b11101 <#
b1000 f
b1000 )#
b1000 F#
b1100 =
b1100 ,#
b1100 G#
01
b0 7
b0 O"
b0 '#
b0 #
b0 0
b0 L#
b0 F
b0 L"
b0 $
b0 /
b0 K#
b0 I
b0 K"
b0 %
b0 .
b0 M#
b0 [
b0 N"
b0 '
b0 -
b0 J#
b0 g
b0 I"
b0 P"
b0 U"
b0 $#
b0 A
b0 M"
b0 &#
b0 6#
b0 ;
b0 J"
b0 _"
b0 %#
b1 9
b1 C"
b1 {"
b100010000000100010011 M
b100010000000100010011 "#
b100010000000100010011 ?#
b1000 D
b1000 n"
b1000 ##
#770
b1000 5
b1000 S"
b1000 X"
b1000 =#
b1000 I#
b1101 \
b1101 l"
b1101 ;#
b1 `
b1 m"
b1 :#
b10000 ?
b10000 3#
b10000 5#
b100 >
b100 7#
#780
b10000 B
b10000 /#
b10000 2#
#790
b1 O
b1 o"
b1 D#
b10 N
b10 <"
b10 >#
1^
13
#800
0)
#820
b11111110001000001001111011100011 "
b11111110001000001001111011100011 L
b11111110001000001001111011100011 !#
b11111110001000001001111011100011 S#
#850
1)
#860
b1 S
b1 b"
b1 f"
b11111111111111111111111111100010 O
b11111111111111111111111111100010 o"
b11111111111111111111111111100010 D#
b11111110001000001001 C#
b111111100010 B#
b111111111101 A#
b10 @#
b11101 g"
b10 ["
b1 Z"
b1111111 7"
b1 5"
b1 ?"
b1100011 8"
b10 9#
b1 8#
b0 V
b0 a"
b0 e"
b10000 !
b10000 C
b10000 ~"
b10000 0#
b10000 4#
b10000 R#
b11111110001000001001111011100011 M
b11111110001000001001111011100011 "#
b11111110001000001001111011100011 ?#
b1100 D
b1100 n"
b1100 ##
b10 <
b10 H"
b10 `"
b10 t"
b1 P
b1 *"
b1 u"
b1101 ]
b1101 Y"
b1101 z"
b1 a
b1 T"
b1 y"
b1000 E
b1000 '"
b1000 E"
b1000 x"
1_
14
b1 7
b1 O"
b1 '#
b0 6
b0 -#
b0 H#
b0 :
b0 *#
b0 <#
b0 f
b0 )#
b0 F#
b0 =
b0 ,#
b0 G#
#870
b1 i
b1 >"
b1 c"
b1 A"
b1 k
b1 #"
b1 )"
b1 \
b1 l"
b1 ;#
b1101 `
b1101 m"
b1101 :#
02"
10"
03"
11"
b1101 U
b1101 +"
b1101 -"
b1101 D"
b1101 W"
1/"
04"
b1 X
b1 ("
b1 ."
b1 R"
bx 5
bx S"
bx X"
bx =#
bx I#
b10100 ?
b10100 3#
b10100 5#
#880
b1 t
b1 u
b1 o
b1 p
b1 l
b1 $"
b1 &"
b10100 B
b10100 /#
b10100 2#
b1 n
16"
