cpu/cpu_tb.vcd
$date
	Fri May 02 00:15:20 2025
$end
$version
	Icarus Verilog
$end
$timescale
	100ps
$end
$scope module cpu_tb $end
$var wire 32 ! PC [31:0] $end
$var wire 32 " INST [31:0] $end
$var wire 3 # DMEM_WRITE [2:0] $end
$var wire 4 $ DMEM_READ [3:0] $end
$var wire 32 % DMEM_DATA_WRITE [31:0] $end
$var wire 32 & DMEM_DATA_READ [31:0] $end
$var wire 32 ' DMEM_ADDR [31:0] $end
$var wire 1 ( BUSYWAIT $end
$var reg 1 ) CLK $end
$var reg 1 * RST $end
$scope module cpu_inst $end
$var wire 1 + BUSYWAIT $end
$var wire 1 , BUSYWAIT_OUT $end
$var wire 1 ) CLK $end
$var wire 32 - DMEM_ADDR_MA [31:0] $end
$var wire 32 . DMEM_DATA_WRITE_MA [31:0] $end
$var wire 4 / DMEM_READ_MA [3:0] $end
$var wire 3 0 DMEM_WRITE_MA [2:0] $end
$var wire 32 1 NEXT_PC_EX [31:0] $end
$var wire 1 * RST $end
$var wire 1 2 WRITE_EN_WB $end
$var wire 1 3 WRITE_EN_MA $end
$var wire 1 4 WRITE_EN_ID $end
$var wire 1 5 WRITE_EN_EX $end
$var wire 32 6 WRITE_DATA_WB [31:0] $end
$var wire 2 7 WB_SEL_WB [1:0] $end
$var wire 2 8 WB_SEL_MA [1:0] $end
$var wire 2 9 WB_SEL_ID [1:0] $end
$var wire 2 : WB_SEL_EX [1:0] $end
$var wire 5 ; WADDR_WB [4:0] $end
$var wire 5 < WADDR_MA [4:0] $end
$var wire 5 = WADDR_EX [4:0] $end
$var wire 32 > PC_WB [31:0] $end
$var wire 32 ? PC_PLUS_4_MA [31:0] $end
$var wire 32 @ PC_PLUS_4_IF [31:0] $end
$var wire 1 A PC_MUX_SEL_EX $end
$var wire 32 B PC_MA [31:0] $end
$var wire 32 C PC_INT_IF [31:0] $end
$var wire 32 D PC_IF [31:0] $end
$var wire 32 E PC_ID [31:0] $end
$var wire 32 F PC_EX [31:0] $end
$var wire 3 G MEM_WRITE_MA [2:0] $end
$var wire 3 H MEM_WRITE_ID [2:0] $end
$var wire 3 I MEM_WRITE_EX [2:0] $end
$var wire 4 J MEM_READ_MA [3:0] $end
$var wire 4 K MEM_READ_ID [3:0] $end
$var wire 4 L MEM_READ_EX [3:0] $end
$var wire 32 M INST_IF [31:0] $end
$var wire 32 N INST_ID [31:0] $end
$var wire 32 O IMM_WB [31:0] $end
$var wire 4 P IMM_SEL_ID [3:0] $end
$var wire 32 Q IMM_MA [31:0] $end
$var wire 32 R IMM_ID [31:0] $end
$var wire 32 S IMM_EX [31:0] $end
$var wire 32 T DMEM_DATA_READ_WB [31:0] $end
$var wire 32 U DMEM_DATA_READ_MA [31:0] $end
$var wire 32 V DATA2_MA [31:0] $end
$var wire 32 W DATA2_ID [31:0] $end
$var wire 32 X DATA2_EX [31:0] $end
$var wire 1 Y DATA2_ALU_SEL_ID $end
$var wire 1 Z DATA2_ALU_SEL_EX $end
$var wire 32 [ DATA1_ID [31:0] $end
$var wire 32 \ DATA1_EX [31:0] $end
$var wire 1 ] DATA1_ALU_SEL_ID $end
$var wire 1 ^ DATA1_ALU_SEL_EX $end
$var wire 1 ( BUSYWAIT_IN $end
$var wire 4 _ BRANCH_JUMP_ID [3:0] $end
$var wire 4 ` BRANCH_JUMP_EX [3:0] $end
$var wire 32 a ALU_OUT_WB [31:0] $end
$var wire 32 b ALU_OUT_MA [31:0] $end
$var wire 32 c ALU_OUT_EX [31:0] $end
$var wire 5 d ALU_OP_ID [4:0] $end
$var wire 5 e ALU_OP_EX [4:0] $end
$var wire 32 f ALU_DATA2_EX [31:0] $end
$var wire 32 g ALU_DATA1_EX [31:0] $end
$scope module alu_inst $end
$var wire 32 h andData [31:0] $end
$var wire 32 i mulhData [31:0] $end
$var wire 32 j mulhsuData [31:0] $end
$var wire 32 k mulhuData [31:0] $end
$var wire 32 l orData [31:0] $end
$var wire 32 m xorData [31:0] $end
$var wire 32 n subData [31:0] $end
$var wire 32 o srlData [31:0] $end
$var wire 32 p sraData [31:0] $end
$var wire 32 q sltuData [31:0] $end
$var wire 32 r sltData [31:0] $end
$var wire 32 s sllData [31:0] $end
$var wire 32 t remuData [31:0] $end
$var wire 32 u remData [31:0] $end
$var wire 32 v mulData [31:0] $end
$var wire 32 w divuData [31:0] $end
$var wire 32 x divData [31:0] $end
$var wire 32 y addData [31:0] $end
$var wire 5 z SELECT [4:0] $end
$var wire 32 { DATA2 [31:0] $end
$var wire 32 | DATA1 [31:0] $end
$var reg 32 } RESULT [31:0] $end
$upscope $end
$scope module alu_mux_1 $end
$var wire 1 ^ sel $end
$var wire 32 ~ out [31:0] $end
$var wire 32 !" data2 [31:0] $end
$var wire 32 "" data1 [31:0] $end
$upscope $end
$scope module alu_mux_2 $end
$var wire 1 Z sel $end
$var wire 32 #" out [31:0] $end
$var wire 32 $" data2 [31:0] $end
$var wire 32 %" data1 [31:0] $end
$upscope $end
$scope module branch_logic_inst $end
$var wire 4 &" op [3:0] $end
$var wire 32 '" data2 [31:0] $end
$var wire 32 (" data1 [31:0] $end
$var wire 1 )" BNE $end
$var wire 1 *" BLTU $end
$var wire 1 +" BLT $end
$var wire 1 ," BGEU $end
$var wire 1 -" BGE $end
$var wire 1 ." BEQ $end
$var reg 1 A out $end
$upscope $end
$scope module control_unit_inst $end
$var wire 1 ] data1_alu_sel $end
$var wire 1 Y data2_alu_sel $end
$var wire 3 /" funct3 [2:0] $end
$var wire 1 0" funct3_mux_select $end
$var wire 7 1" funct7 [6:0] $end
$var wire 7 2" opcode [6:0] $end
$var wire 1 4 reg_write_en $end
$var wire 1 * reset $end
$var wire 2 3" wb_sel [1:0] $end
$var wire 3 4" mem_write [2:0] $end
$var wire 4 5" mem_read [3:0] $end
$var wire 4 6" imm_sel [3:0] $end
$var wire 4 7" branch_jump [3:0] $end
$var wire 5 8" alu_op [4:0] $end
$scope module funct3_mux $end
$var wire 3 9" data1 [2:0] $end
$var wire 3 :" data2 [2:0] $end
$var wire 1 0" sel $end
$var wire 3 ;" out [2:0] $end
$upscope $end
$upscope $end
$scope module ex_mem_pipeline_reg_inst $end
$var wire 32 <" alu_result_in [31:0] $end
$var wire 1 + busywait $end
$var wire 1 ) clk $end
$var wire 1 * rst $end
$var wire 2 =" wb_sel_in [1:0] $end
$var wire 1 5 reg_write_in $end
$var wire 32 >" read_data2_in [31:0] $end
$var wire 32 ?" pc_in [31:0] $end
$var wire 3 @" mem_write_in [2:0] $end
$var wire 4 A" mem_read_in [3:0] $end
$var wire 32 B" imm_in [31:0] $end
$var wire 5 C" dest_addr_in [4:0] $end
$var reg 32 D" alu_result_out [31:0] $end
$var reg 5 E" dest_addr_out [4:0] $end
$var reg 32 F" imm_out [31:0] $end
$var reg 4 G" mem_read_out [3:0] $end
$var reg 3 H" mem_write_out [2:0] $end
$var reg 32 I" pc_out [31:0] $end
$var reg 32 J" read_data2_out [31:0] $end
$var reg 1 3 reg_write_out $end
$var reg 2 K" wb_sel_out [1:0] $end
$upscope $end
$scope module id_ex_pipeline_reg_inst $end
$var wire 5 L" aluop_in [4:0] $end
$var wire 4 M" branch_jump_in [3:0] $end
$var wire 1 + busywait $end
$var wire 1 ) clk $end
$var wire 1 ] data1_alu_sel_in $end
$var wire 1 Y data2_alu_sel_in $end
$var wire 5 N" dest_addr_in [4:0] $end
$var wire 4 O" mem_read_in [3:0] $end
$var wire 3 P" mem_write_in [2:0] $end
$var wire 1 4 reg_write_en_in $end
$var wire 1 * rst $end
$var wire 2 Q" wb_sel_in [1:0] $end
$var wire 32 R" read_data2_in [31:0] $end
$var wire 32 S" read_data1_in [31:0] $end
$var wire 32 T" pc_in [31:0] $end
$var wire 32 U" imm_in [31:0] $end
$var reg 5 V" aluop_out [4:0] $end
$var reg 4 W" branch_jump_out [3:0] $end
$var reg 1 ^ data1_alu_sel_out $end
$var reg 1 Z data2_alu_sel_out $end
$var reg 5 X" dest_addr_out [4:0] $end
$var reg 32 Y" imm_out [31:0] $end
$var reg 4 Z" mem_read_out [3:0] $end
$var reg 3 [" mem_write_out [2:0] $end
$var reg 32 \" pc_out [31:0] $end
$var reg 32 ]" read_data1_out [31:0] $end
$var reg 32 ^" read_data2_out [31:0] $end
$var reg 1 5 reg_write_en_out $end
$var reg 2 _" wb_sel_out [1:0] $end
$upscope $end
$scope module if_id_pipeline_reg_inst $end
$var wire 1 + busywait $end
$var wire 1 ) clk $end
$var wire 1 * rst $end
$var wire 32 `" pc_in [31:0] $end
$var wire 32 a" instr_in [31:0] $end
$var reg 32 b" instr_out [31:0] $end
$var reg 32 c" pc_out [31:0] $end
$upscope $end
$scope module mem_wb_pipeline_reg_inst $end
$var wire 32 d" alu_result_in [31:0] $end
$var wire 1 + busywait $end
$var wire 1 ) clk $end
$var wire 5 e" dest_addr_in [4:0] $end
$var wire 32 f" imm_in [31:0] $end
$var wire 32 g" pc_in [31:0] $end
$var wire 1 3 reg_write_in $end
$var wire 1 * rst $end
$var wire 2 h" wb_sel_in [1:0] $end
$var wire 32 i" mem_data_in [31:0] $end
$var reg 32 j" alu_result_out [31:0] $end
$var reg 5 k" dest_addr_out [4:0] $end
$var reg 32 l" imm_out [31:0] $end
$var reg 32 m" mem_data_out [31:0] $end
$var reg 32 n" pc_out [31:0] $end
$var reg 1 2 reg_write_out $end
$var reg 2 o" wb_sel_out [1:0] $end
$upscope $end
$scope module pc_inst $end
$var wire 1 + busywait $end
$var wire 1 ) clk $end
$var wire 1 * rst $end
$var wire 32 p" pc_in [31:0] $end
$var reg 32 q" pc_out [31:0] $end
$upscope $end
$scope module pc_mux $end
$var wire 32 r" data2 [31:0] $end
$var wire 1 A sel $end
$var wire 32 s" out [31:0] $end
$var wire 32 t" data1 [31:0] $end
$upscope $end
$scope module pc_plus_4 $end
$var wire 32 u" data [31:0] $end
$var wire 32 v" out [31:0] $end
$upscope $end
$scope module pc_plus_4_ma $end
$var wire 32 w" data [31:0] $end
$var wire 32 x" out [31:0] $end
$upscope $end
$scope module reg_files_inst $end
$var wire 5 y" addr1 [4:0] $end
$var wire 5 z" addr2 [4:0] $end
$var wire 1 ) clk $end
$var wire 32 {" data1 [31:0] $end
$var wire 32 |" data2 [31:0] $end
$var wire 1 * rst $end
$var wire 5 }" waddr [4:0] $end
$var wire 1 2 we $end
$var wire 32 ~" wd [31:0] $end
$upscope $end
$scope module sign_extender_inst $end
$var wire 4 !# imm_sel [3:0] $end
$var wire 32 "# inst [31:0] $end
$var wire 5 ## TYPE6 [4:0] $end
$var wire 12 $# TYPE5 [11:0] $end
$var wire 12 %# TYPE3 [11:0] $end
$var wire 20 &# TYPE1 [19:0] $end
$var reg 32 '# imm_ext [31:0] $end
$upscope $end
$scope module wb_mux $end
$var wire 32 (# data1 [31:0] $end
$var wire 32 )# data2 [31:0] $end
$var wire 32 *# data3 [31:0] $end
$var wire 32 +# data4 [31:0] $end
$var wire 2 ,# sel [1:0] $end
$var wire 32 -# out [31:0] $end
$upscope $end
$upscope $end
$scope module dmem_inst $end
$var wire 32 .# address [31:0] $end
$var wire 1 ) clock $end
$var wire 4 /# read [3:0] $end
$var wire 1 * reset $end
$var wire 3 0# write [2:0] $end
$var wire 32 1# writedata [31:0] $end
$var reg 1 ( busywait $end
$var reg 1 2# readaccess $end
$var reg 32 3# readdata [31:0] $end
$var reg 1 4# writeaccess $end
$var integer 32 5# i [31:0] $end
$upscope $end
$scope module imem_inst $end
$var wire 1 ) clk $end
$var wire 32 6# pc [31:0] $end
$var wire 1 * rst $end
$var reg 32 7# instr [31:0] $end
$upscope $end
$upscope $end
$enddefinitions $end
$comment Show the parameter values. $end
$dumpall
$end
#0
$dumpvars
bx 7#
bx 6#
b100000000 5#
04#
bx 3#
02#
b0 1#
b0 0#
b0 /#
b0 .#
bx -#
b0 ,#
b0 +#
b0 *#
b0 )#
b0 (#
bx '#
bx &#
bx %#
bx $#
bx ##
bx "#
bx !#
bx ~"
b0 }"
bx |"
bx {"
bx z"
bx y"
bx x"
b0 w"
bx v"
bx u"
bx t"
bx s"
bz r"
bx q"
bx p"
b0 o"
b0 n"
b0 m"
b0 l"
b0 k"
b0 j"
bx i"
b0 h"
b0 g"
b0 f"
b0 e"
b0 d"
bx c"
bx b"
bx a"
bx `"
b0 _"
b0 ^"
b0 ]"
b0 \"
b0 ["
b0 Z"
b0 Y"
b0 X"
b0 W"
b0 V"
bx U"
bx T"
bx S"
bx R"
bx Q"
bx P"
bx O"
bx N"
bx M"
bx L"
b0 K"
b0 J"
b0 I"
b0 H"
b0 G"
b0 F"
b0 E"
b0 D"
b0 C"
b0 B"
b0 A"
b0 @"
b0 ?"
b0 >"
b0 ="
bx <"
bx ;"
b0 :"
bx 9"
bx 8"
bx 7"
bx 6"
bx 5"
bx 4"
bx 3"
bx 2"
bx 1"
x0"
bx /"
1."
1-"
1,"
0+"
0*"
0)"
b0 ("
b0 '"
b0 &"
b0 %"
b0 $"
bx #"
b0 ""
b0 !"
bx ~
bx }
bx |
bx {
b0 z
bx y
bx x
bx w
bx v
bx u
bx t
bx s
bx r
bx q
bx p
bx o
bx n
bx m
bx l
bx k
bx j
bx i
bx h
bx g
bx f
b0 e
bx d
bx c
b0 b
b0 a
b0 `
bx _
0^
x]
b0 \
bx [
0Z
xY
b0 X
bx W
b0 V
bx U
b0 T
b0 S
bx R
b0 Q
bx P
b0 O
bx N
bx M
b0 L
bx K
b0 J
b0 I
bx H
b0 G
b0 F
bx E
bx D
bx C
b0 B
xA
bx @
bx ?
b0 >
b0 =
b0 <
b0 ;
b0 :
bx 9
b0 8
b0 7
bx 6
05
x4
03
02
bz 1
b0 0
b0 /
b0 .
b0 -
z,
0+
1*
0)
0(
b0 '
bx &
b0 %
b0 $
b0 #
bx "
bx !
$end
#10
b0 f
b0 {
b0 #"
b0 g
b0 |
b0 ~
b0 6
b0 ~"
b0 -#
b100 ?
b100 x"
b0x q
b0x r
#20
b0 p
b0 o
b0 s
b0 q
b0 r
b0 h
b0 l
b0 m
0A
#30
b0 c
b0 }
b0 <"
b0 n
b0 y
04
b0 k
b0 j
b0 i
#40
b0 t
b0 u
b0 w
b0 x
b0 v
#50
1)
#60
b0 !
b0 D
b0 `"
b0 q"
b0 u"
b0 6#
#70
b100 @
b100 t"
b100 v"
#80
b100 C
b100 p"
b100 s"
#100
0)
0*
#130
x4
#150
bx :
bx ="
bx _"
bx L
bx A"
bx Z"
bx `
bx &"
bx W"
bx I
bx @"
bx ["
bx e
bx z
bx V"
bx =
bx C"
bx X"
bx S
bx $"
bx B"
bx Y"
bx X
bx %"
bx '"
bx >"
bx ^"
x,"
x*"
x-"
x+"
x)"
x."
bx \
bx ""
bx ("
bx ]"
bx F
bx !"
bx ?"
bx \"
xZ
x^
x5
bx T
bx m"
bx (#
b0 E
b0 T"
b0 c"
1)
#160
bx f
bx {
bx #"
bx g
bx |
bx ~
bx 6
bx ~"
bx -#
#170
b100 !
b100 D
b100 `"
b100 q"
b100 u"
b100 6#
b10100000000000010010011 "
b10100000000000010010011 M
b10100000000000010010011 a"
b10100000000000010010011 7#
b0x q
b0x r
bx h
bx l
bx m
bx p
bx o
bx s
#180
b1000 @
b1000 t"
b1000 v"
bx n
bx y
#190
b1000 C
b1000 p"
b1000 s"
bx t
bx u
bx w
bx x
bx v
#200
0)
#250
b0 R
b0 U"
b0 '#
b10100000000 &#
b101 %#
b1 $#
b101 ##
b1 N"
b0 1"
b0 /"
b0 9"
b10011 2"
b101 z"
b0 y"
bx 8
bx K"
bx h"
bx #
bx 0
bx 0#
bx G
bx H"
bx $
bx /
bx /#
bx J
bx G"
bx Q
bx F"
bx f"
bx %
bx .
bx 1#
bx V
bx J"
bx B
bx I"
bx g"
bx w"
bx <
bx E"
bx e"
x3
b0 F
b0 !"
b0 ?"
b0 \"
b10100000000000010010011 N
b10100000000000010010011 b"
b10100000000000010010011 "#
b100 E
b100 T"
b100 c"
1)
#260
bx000 d
bx000 8"
bx000 L"
b0 ;"
b0 W
b0 R"
b0 |"
b0 [
b0 S"
b0 {"
bx ?
bx x"
#270
b1000 !
b1000 D
b1000 `"
b1000 q"
b1000 u"
b1000 6#
b101000000000000100010011 "
b101000000000000100010011 M
b101000000000000100010011 a"
b101000000000000100010011 7#
00"
#280
b101 R
b101 U"
b101 '#
b1100 @
b1100 t"
b1100 v"
1Y
b10 P
b10 6"
b10 !#
14
0]
b1 9
b1 3"
b1 Q"
b0 _
b0 7"
b0 M"
b0 d
b0 8"
b0 L"
b0 H
b0 4"
b0 P"
b0 K
b0 5"
b0 O"
#290
b1100 C
b1100 p"
b1100 s"
#300
x4#
x2#
0)
#350
bx c
bx }
bx <"
b1010 R
b1010 U"
b1010 '#
b101000000000 &#
b1010 %#
b10 $#
b1010 ##
b10 N"
b1010 z"
b1 :
b1 ="
b1 _"
b0 L
b0 A"
b0 Z"
b0 `
b0 &"
b0 W"
b0 I
b0 @"
b0 ["
b0 e
b0 z
b0 V"
b1 =
b1 C"
b1 X"
b101 S
b101 $"
b101 B"
b101 Y"
1,"
0*"
1-"
0+"
0)"
1."
b0 X
b0 %"
b0 '"
b0 >"
b0 ^"
b0 \
b0 ""
b0 ("
b0 ]"
b100 F
b100 !"
b100 ?"
b100 \"
1Z
0^
15
b0 B
b0 I"
b0 g"
b0 w"
bx 7
bx o"
bx ,#
bx ;
bx k"
bx }"
bx O
bx l"
bx *#
bx >
bx n"
bx +#
x2
b101000000000000100010011 N
b101000000000000100010011 b"
b101000000000000100010011 "#
b1000 E
b1000 T"
b1000 c"
1)
#360
b101 f
b101 {
b101 #"
b0 g
b0 |
b0 ~
b100 ?
b100 x"
#370
b1100 !
b1100 D
b1100 `"
b1100 q"
b1100 u"
b1100 6#
b0 p
b0 o
b0 s
b1 q
b1 r
b0 h
b101 l
b101 m
#380
b101 c
b101 }
b101 <"
b10000 @
b10000 t"
b10000 v"
b11111111111111111111111111111011 n
b101 y
#390
b10000 C
b10000 p"
b10000 s"
b0 t
b0 u
b0 w
b0 x
b0 v
#400
0)
#450
b0 >
b0 n"
b0 +#
b1 8
b1 K"
b1 h"
b0 #
b0 0
b0 0#
b0 G
b0 H"
b0 $
b0 /
b0 /#
b0 J
b0 G"
b101 Q
b101 F"
b101 f"
b0 %
b0 .
b0 1#
b0 V
b0 J"
b101 '
b101 -
b101 .#
b101 b
b101 D"
b101 d"
b100 B
b100 I"
b100 g"
b100 w"
b1 <
b1 E"
b1 e"
13
b10 =
b10 C"
b10 X"
b1010 S
b1010 $"
b1010 B"
b1010 Y"
b1000 F
b1000 !"
b1000 ?"
b1000 \"
b1100 E
b1100 T"
b1100 c"
1)
#460
b1010 f
b1010 {
b1010 #"
b1000 ?
b1000 x"
#470
b10000 !
b10000 D
b10000 `"
b10000 q"
b10000 u"
b10000 6#
b1010 l
b1010 m
#480
b1010 c
b1010 }
b1010 <"
b10100 @
b10100 t"
b10100 v"
b11111111111111111111111111110110 n
b1010 y
#490
b10100 C
b10100 p"
b10100 s"
#500
04#
02#
0)
#550
b1100 F
b1100 !"
b1100 ?"
b1100 \"
b1010 Q
b1010 F"
b1010 f"
b1010 '
b1010 -
b1010 .#
b1010 b
b1010 D"
b1010 d"
b1000 B
b1000 I"
b1000 g"
b1000 w"
b10 <
b10 E"
b10 e"
b1 7
b1 o"
b1 ,#
b1 ;
b1 k"
b1 }"
b101 O
b101 l"
b101 *#
b101 a
b101 j"
b101 )#
b100 >
b100 n"
b100 +#
12
b10000 E
b10000 T"
b10000 c"
1)
#560
b101 6
b101 ~"
b101 -#
b1100 ?
b1100 x"
#570
b10100 !
b10100 D
b10100 `"
b10100 q"
b10100 u"
b10100 6#
b1000001000000110110011 "
b1000001000000110110011 M
b1000001000000110110011 a"
b1000001000000110110011 7#
#580
b11000 @
b11000 t"
b11000 v"
#590
b11000 C
b11000 p"
b11000 s"
#600
0)
#650
b10 R
b10 U"
b10 '#
b1000001000 &#
b10 %#
b11 $#
b10 ##
b11 N"
b110011 2"
b10 z"
b1 y"
b10 ;
b10 k"
b10 }"
b1010 O
b1010 l"
b1010 *#
b1010 a
b1010 j"
b1010 )#
b1000 >
b1000 n"
b1000 +#
b1100 B
b1100 I"
b1100 g"
b1100 w"
b10000 F
b10000 !"
b10000 ?"
b10000 \"
b1000001000000110110011 N
b1000001000000110110011 b"
b1000001000000110110011 "#
b10100 E
b10100 T"
b10100 c"
1)
#660
b1010 6
b1010 ~"
b1010 -#
b101 [
b101 S"
b101 {"
b10000 ?
b10000 x"
#670
b11000 !
b11000 D
b11000 `"
b11000 q"
b11000 u"
b11000 6#
#680
b0 R
b0 U"
b0 '#
b11100 @
b11100 t"
b11100 v"
b0xxx P
b0xxx 6"
b0xxx !#
0Y
#690
b11100 C
b11100 p"
b11100 s"
#700
0)
#730
b1010 W
b1010 R"
b1010 |"
#750
b11 =
b11 C"
b11 X"
b0 S
b0 $"
b0 B"
b0 Y"
0,"
1*"
0-"
1+"
b1010 X
b1010 %"
b1010 '"
b1010 >"
b1010 ^"
1)"
0."
b101 \
b101 ""
b101 ("
b101 ]"
b10100 F
b10100 !"
b10100 ?"
b10100 \"
0Z
b10000 B
b10000 I"
b10000 g"
b10000 w"
b1100 >
b1100 n"
b1100 +#
b11000 E
b11000 T"
b11000 c"
1)
#760
b101 g
b101 |
b101 ~
b10100 ?
b10100 x"
#770
b11100 !
b11100 D
b11100 `"
b11100 q"
b11100 u"
b11100 6#
b1111 l
b1111 m
b1010000000000 s
#780
b1111 c
b1111 }
b1111 <"
b100000 @
b100000 t"
b100000 v"
b11111111111111111111111111111011 n
b1111 y
#790
b100000 C
b100000 p"
b100000 s"
b101 t
b101 u
b110010 v
#800
0)
#850
b10000 >
b10000 n"
b10000 +#
b0 Q
b0 F"
b0 f"
b1010 %
b1010 .
b1010 1#
b1010 V
b1010 J"
b1111 '
b1111 -
b1111 .#
b1111 b
b1111 D"
b1111 d"
b10100 B
b10100 I"
b10100 g"
b10100 w"
b11 <
b11 E"
b11 e"
b11000 F
b11000 !"
b11000 ?"
b11000 \"
b11100 E
b11100 T"
b11100 c"
1)
#860
b11000 ?
b11000 x"
#870
b100000 !
b100000 D
b100000 `"
b100000 q"
b100000 u"
b100000 6#
b1100000010000000100011 "
b1100000010000000100011 M
b1100000010000000100011 a"
b1100000010000000100011 7#
#880
b100100 @
b100100 t"
b100100 v"
#890
b100100 C
b100100 p"
b100100 s"
#900
0)
#950
b1100000010 &#
b11 %#
b0 $#
b11 ##
b0 N"
b10 /"
b10 9"
b100011 2"
b11 z"
b0 y"
b11100 F
b11100 !"
b11100 ?"
b11100 \"
b11000 B
b11000 I"
b11000 g"
b11000 w"
b11 ;
b11 k"
b11 }"
b0 O
b0 l"
b0 *#
b1111 a
b1111 j"
b1111 )#
b10100 >
b10100 n"
b10100 +#
b1100000010000000100011 N
b1100000010000000100011 b"
b1100000010000000100011 "#
b100000 E
b100000 T"
b100000 c"
1)
#960
b1111 6
b1111 ~"
b1111 -#
b10 d
b10 8"
b10 L"
b10 ;"
b0 W
b0 R"
b0 |"
b0 [
b0 S"
b0 {"
b11100 ?
b11100 x"
#970
b100100 !
b100100 D
b100100 `"
b100100 q"
b100100 u"
b100100 6#
b10001000000011 "
b10001000000011 M
b10001000000011 a"
b10001000000011 7#
10"
#980
b101000 @
b101000 t"
b101000 v"
b0 d
b0 8"
b0 L"
b0 ;"
1Y
04
b100 P
b100 6"
b100 !#
b10 _
b10 7"
b10 M"
b10 K
b10 5"
b10 O"
b110 H
b110 4"
b110 P"
#990
b101000 C
b101000 p"
b101000 s"
#1000
0)
#1030
b1111 W
b1111 R"
b1111 |"
#1050
b100 R
b100 U"
b100 '#
b10 &#
b0 %#
b100 $#
b0 ##
b100 N"
b11 2"
b0 z"
b11000 >
b11000 n"
b11000 +#
b11100 B
b11100 I"
b11100 g"
b11100 w"
b10 L
b10 A"
b10 Z"
b10 `
b10 &"
b10 W"
b110 I
b110 @"
b110 ["
b0 =
b0 C"
b0 X"
b1111 X
b1111 %"
b1111 '"
b1111 >"
b1111 ^"
b0 \
b0 ""
b0 ("
b0 ]"
b100000 F
b100000 !"
b100000 ?"
b100000 \"
1Z
05
b10001000000011 N
b10001000000011 b"
b10001000000011 "#
b100100 E
b100100 T"
b100100 c"
1)
#1060
b0 f
b0 {
b0 #"
b0 g
b0 |
b0 ~
b0 W
b0 R"
b0 |"
b100000 ?
b100000 x"
#1070
b101000 !
b101000 D
b101000 `"
b101000 q"
b101000 u"
b101000 6#
bx "
bx M
bx a"
bx 7#
b0 q
b0 r
b0 l
b0 m
b0 s
#1080
b0 c
b0 }
b0 <"
b0 R
b0 U"
b0 '#
b101100 @
b101100 t"
b101100 v"
b0 n
b0 y
14
b0 9
b0 3"
b0 Q"
b10 P
b10 6"
b10 !#
b10 H
b10 4"
b10 P"
b1010 K
b1010 5"
b1010 O"
#1090
b101100 C
b101100 p"
b101100 s"
b0 t
b0 u
b0 v
#1100
0)
#1150
bx R
bx U"
bx '#
bx &#
bx %#
bx $#
bx ##
bx N"
bx 1"
bx /"
bx 9"
bx 2"
bx z"
bx y"
b0 :
b0 ="
b0 _"
b1010 L
b1010 A"
b1010 Z"
b10 I
b10 @"
b10 ["
b100 =
b100 C"
b100 X"
1,"
0*"
1-"
0+"
0)"
1."
b0 X
b0 %"
b0 '"
b0 >"
b0 ^"
b100100 F
b100100 !"
b100100 ?"
b100100 \"
15
b110 #
b110 0
b110 0#
b110 G
b110 H"
b10 $
b10 /
b10 /#
b10 J
b10 G"
b1111 %
b1111 .
b1111 1#
b1111 V
b1111 J"
b0 '
b0 -
b0 .#
b0 b
b0 D"
b0 d"
b100000 B
b100000 I"
b100000 g"
b100000 w"
b0 <
b0 E"
b0 e"
03
b11100 >
b11100 n"
b11100 +#
bx N
bx b"
bx "#
b101000 E
b101000 T"
b101000 c"
1)
#1160
bx W
bx R"
bx |"
bx [
bx S"
bx {"
b100100 ?
b100100 x"
#1170
b101100 !
b101100 D
b101100 `"
b101100 q"
b101100 u"
b101100 6#
x0"
#1180
b0 R
b0 U"
b0 '#
b110000 @
b110000 t"
b110000 v"
bx ;"
xY
x4
bx d
bx 8"
bx L"
bx _
bx 7"
bx M"
bx P
bx 6"
bx !#
x]
bx 9
bx 3"
bx Q"
bx H
bx 4"
bx P"
bx K
bx 5"
bx O"
#1190
b110000 C
b110000 p"
b110000 s"
#1200
14#
0)
#1250
b0 ;
b0 k"
b0 }"
b0 a
b0 j"
b0 )#
b100000 >
b100000 n"
b100000 +#
02
b0 8
b0 K"
b0 h"
b10 #
b10 0
b10 0#
b10 G
b10 H"
b1010 $
b1010 /
b1010 /#
b1010 J
b1010 G"
b0 %
b0 .
b0 1#
b0 V
b0 J"
b100100 B
b100100 I"
b100100 g"
b100100 w"
b100 <
b100 E"
b100 e"
13
bx :
bx ="
bx _"
bx L
bx A"
bx Z"
bx `
bx &"
bx W"
bx I
bx @"
bx ["
bx e
bx z
bx V"
bx =
bx C"
bx X"
bx X
bx %"
bx '"
bx >"
bx ^"
x,"
x*"
x-"
x+"
x)"
x."
bx \
bx ""
bx ("
bx ]"
b101000 F
b101000 !"
b101000 ?"
b101000 \"
xZ
x^
x5
b101100 E
b101100 T"
b101100 c"
1)
#1260
b0 6
b0 ~"
b0 -#
bx f
bx {
bx #"
bx g
bx |
bx ~
b101000 ?
b101000 x"
#1270
b110000 !
b110000 D
b110000 `"
b110000 q"
b110000 u"
b110000 6#
b0x q
b0x r
bx h
bx l
bx m
bx p
bx o
bx s
#1280
b110100 @
b110100 t"
b110100 v"
bx n
bx y
#1290
b110100 C
b110100 p"
b110100 s"
bx t
bx u
bx w
bx x
bx v
#1300
04#
12#
0)
#1320
b1111 &
b1111 U
b1111 i"
b1111 3#
#1350
b101100 F
b101100 !"
b101100 ?"
b101100 \"
bx 8
bx K"
bx h"
bx #
bx 0
bx 0#
bx G
bx H"
bx $
bx /
bx /#
bx J
bx G"
bx %
bx .
bx 1#
bx V
bx J"
b101000 B
b101000 I"
b101000 g"
b101000 w"
bx <
bx E"
bx e"
x3
b0 7
b0 o"
b0 ,#
b100 ;
b100 k"
b100 }"
b1111 T
b1111 m"
b1111 (#
b100100 >
b100100 n"
b100100 +#
12
b110000 E
b110000 T"
b110000 c"
1)
#1360
b1111 6
b1111 ~"
b1111 -#
b101100 ?
b101100 x"
#1370
b110100 !
b110100 D
b110100 `"
b110100 q"
b110100 u"
b110100 6#
#1380
b111000 @
b111000 t"
b111000 v"
#1390
b111000 C
b111000 p"
b111000 s"
#1400
x4#
x2#
0)
#1450
bx 7
bx o"
bx ,#
bx ;
bx k"
bx }"
b101000 >
b101000 n"
b101000 +#
x2
b101100 B
b101100 I"
b101100 g"
b101100 w"
b110000 F
b110000 !"
b110000 ?"
b110000 \"
b110100 E
b110100 T"
b110100 c"
1)
#1460
b0x0xxxx 6
b0x0xxxx ~"
b0x0xxxx -#
b110000 ?
b110000 x"
#1470
b111000 !
b111000 D
b111000 `"
b111000 q"
b111000 u"
b111000 6#
#1480
b111100 @
b111100 t"
b111100 v"
#1490
b111100 C
b111100 p"
b111100 s"
#1500
0)
#1550
b110100 F
b110100 !"
b110100 ?"
b110100 \"
b110000 B
b110000 I"
b110000 g"
b110000 w"
b101100 >
b101100 n"
b101100 +#
b111000 E
b111000 T"
b111000 c"
1)
#1560
b110100 ?
b110100 x"
#1570
b111100 !
b111100 D
b111100 `"
b111100 q"
b111100 u"
b111100 6#
#1580
b1000000 @
b1000000 t"
b1000000 v"
#1590
b1000000 C
b1000000 p"
b1000000 s"
#1600
0)
