cpu/cpu_tb.vcd
$date
	Sun May 11 08:31:23 2025
$end
$version
	Icarus Verilog
$end
$timescale
	100ps
$end
$scope module cpu_tb $end
$var wire 32 ! PC [31:0] $end
$var wire 32 " INST [31:0] $end
$var wire 3 # DMEM_WRITE [2:0] $end
$var wire 4 $ DMEM_READ [3:0] $end
$var wire 32 % DMEM_DATA_WRITE [31:0] $end
$var wire 32 & DMEM_DATA_READ [31:0] $end
$var wire 32 ' DMEM_ADDR [31:0] $end
$var wire 1 ( BUSYWAIT $end
$var reg 1 ) CLK $end
$var reg 1 * RST $end
$scope module cpu_inst $end
$var wire 1 + BUSYWAIT $end
$var wire 1 , BUSYWAIT_OUT $end
$var wire 1 ) CLK $end
$var wire 32 - DMEM_ADDR_MA [31:0] $end
$var wire 32 . DMEM_DATA_WRITE_MA [31:0] $end
$var wire 4 / DMEM_READ_MA [3:0] $end
$var wire 3 0 DMEM_WRITE_MA [2:0] $end
$var wire 32 1 NEXT_PC_EX [31:0] $end
$var wire 1 * RST $end
$var wire 1 2 WRITE_EN_WB $end
$var wire 1 3 WRITE_EN_MA $end
$var wire 1 4 WRITE_EN_ID $end
$var wire 1 5 WRITE_EN_EX $end
$var wire 32 6 WRITE_DATA_WB [31:0] $end
$var wire 2 7 WB_SEL_WB [1:0] $end
$var wire 2 8 WB_SEL_MA [1:0] $end
$var wire 2 9 WB_SEL_ID [1:0] $end
$var wire 2 : WB_SEL_EX [1:0] $end
$var wire 5 ; WADDR_WB [4:0] $end
$var wire 5 < WADDR_MA [4:0] $end
$var wire 5 = WADDR_EX [4:0] $end
$var wire 32 > PC_WB [31:0] $end
$var wire 32 ? PC_PLUS_4_MA [31:0] $end
$var wire 32 @ PC_PLUS_4_IF [31:0] $end
$var wire 1 A PC_MUX_SEL_EX $end
$var wire 32 B PC_MA [31:0] $end
$var wire 32 C PC_INT_IF [31:0] $end
$var wire 32 D PC_IF [31:0] $end
$var wire 32 E PC_ID [31:0] $end
$var wire 32 F PC_EX [31:0] $end
$var wire 3 G MEM_WRITE_MA [2:0] $end
$var wire 3 H MEM_WRITE_ID [2:0] $end
$var wire 3 I MEM_WRITE_EX [2:0] $end
$var wire 4 J MEM_READ_MA [3:0] $end
$var wire 4 K MEM_READ_ID [3:0] $end
$var wire 4 L MEM_READ_EX [3:0] $end
$var wire 32 M INST_IF [31:0] $end
$var wire 32 N INST_ID [31:0] $end
$var wire 4 O IMM_SEL_ID [3:0] $end
$var wire 32 P IMM_ID [31:0] $end
$var wire 32 Q IMM_EX [31:0] $end
$var wire 32 R DMEM_DATA_READ_WB [31:0] $end
$var wire 32 S DMEM_DATA_READ_MA [31:0] $end
$var wire 32 T DATA2_MA [31:0] $end
$var wire 32 U DATA2_ID [31:0] $end
$var wire 32 V DATA2_EX [31:0] $end
$var wire 1 W DATA2_ALU_SEL_ID $end
$var wire 1 X DATA2_ALU_SEL_EX $end
$var wire 32 Y DATA1_ID [31:0] $end
$var wire 32 Z DATA1_EX [31:0] $end
$var wire 1 [ DATA1_ALU_SEL_ID $end
$var wire 1 \ DATA1_ALU_SEL_EX $end
$var wire 1 ( BUSYWAIT_IN $end
$var wire 4 ] BRANCH_JUMP_ID [3:0] $end
$var wire 4 ^ BRANCH_JUMP_EX [3:0] $end
$var wire 32 _ ALU_OUT_WB [31:0] $end
$var wire 32 ` ALU_OUT_MA [31:0] $end
$var wire 32 a ALU_OUT_EX [31:0] $end
$var wire 5 b ALU_OP_ID [4:0] $end
$var wire 5 c ALU_OP_EX [4:0] $end
$var wire 32 d ALU_DATA2_EX [31:0] $end
$var wire 32 e ALU_DATA1_EX [31:0] $end
$scope module alu_inst $end
$var wire 32 f andData [31:0] $end
$var wire 32 g forwardData [31:0] $end
$var wire 32 h orData [31:0] $end
$var wire 32 i xorData [31:0] $end
$var wire 32 j subData [31:0] $end
$var wire 32 k srlData [31:0] $end
$var wire 32 l sraData [31:0] $end
$var wire 32 m sltuData [31:0] $end
$var wire 32 n sltData [31:0] $end
$var wire 32 o sllData [31:0] $end
$var wire 32 p remuData [31:0] $end
$var wire 32 q remData [31:0] $end
$var wire 32 r mulhuData [31:0] $end
$var wire 32 s mulhsuData [31:0] $end
$var wire 32 t mulhData [31:0] $end
$var wire 32 u mulData [31:0] $end
$var wire 32 v divuData [31:0] $end
$var wire 32 w divData [31:0] $end
$var wire 32 x addData [31:0] $end
$var wire 5 y SELECT [4:0] $end
$var wire 32 z DATA2 [31:0] $end
$var wire 32 { DATA1 [31:0] $end
$var reg 32 | RESULT [31:0] $end
$upscope $end
$scope module alu_mux_1 $end
$var wire 1 \ sel $end
$var wire 32 } out [31:0] $end
$var wire 32 ~ data2 [31:0] $end
$var wire 32 !" data1 [31:0] $end
$upscope $end
$scope module alu_mux_2 $end
$var wire 1 X sel $end
$var wire 32 "" out [31:0] $end
$var wire 32 #" data2 [31:0] $end
$var wire 32 $" data1 [31:0] $end
$upscope $end
$scope module branch_logic_inst $end
$var wire 4 %" op [3:0] $end
$var wire 32 &" data2 [31:0] $end
$var wire 32 '" data1 [31:0] $end
$var wire 1 (" BNE $end
$var wire 1 )" BLTU $end
$var wire 1 *" BLT $end
$var wire 1 +" BGEU $end
$var wire 1 ," BGE $end
$var wire 1 -" BEQ $end
$var reg 1 A out $end
$upscope $end
$scope module control_unit_inst $end
$var wire 1 [ data1_alu_sel $end
$var wire 1 W data2_alu_sel $end
$var wire 3 ." funct3 [2:0] $end
$var wire 1 /" funct3_mux_select $end
$var wire 7 0" funct7 [6:0] $end
$var wire 7 1" opcode [6:0] $end
$var wire 1 4 reg_write_en $end
$var wire 1 * reset $end
$var wire 2 2" wb_sel [1:0] $end
$var wire 3 3" mem_write [2:0] $end
$var wire 4 4" mem_read [3:0] $end
$var wire 4 5" imm_sel [3:0] $end
$var wire 4 6" branch_jump [3:0] $end
$var wire 5 7" alu_op [4:0] $end
$scope module funct3_mux $end
$var wire 3 8" data1 [2:0] $end
$var wire 3 9" data2 [2:0] $end
$var wire 1 /" sel $end
$var wire 3 :" out [2:0] $end
$upscope $end
$upscope $end
$scope module ex_mem_pipeline_reg_inst $end
$var wire 32 ;" alu_result_in [31:0] $end
$var wire 1 + busywait $end
$var wire 1 ) clk $end
$var wire 1 * rst $end
$var wire 2 <" wb_sel_in [1:0] $end
$var wire 1 5 reg_write_in $end
$var wire 32 =" read_data2_in [31:0] $end
$var wire 32 >" pc_in [31:0] $end
$var wire 3 ?" mem_write_in [2:0] $end
$var wire 4 @" mem_read_in [3:0] $end
$var wire 5 A" dest_addr_in [4:0] $end
$var reg 32 B" alu_result_out [31:0] $end
$var reg 5 C" dest_addr_out [4:0] $end
$var reg 4 D" mem_read_out [3:0] $end
$var reg 3 E" mem_write_out [2:0] $end
$var reg 32 F" pc_out [31:0] $end
$var reg 32 G" read_data2_out [31:0] $end
$var reg 1 3 reg_write_out $end
$var reg 2 H" wb_sel_out [1:0] $end
$upscope $end
$scope module id_ex_pipeline_reg_inst $end
$var wire 5 I" aluop_in [4:0] $end
$var wire 4 J" branch_jump_in [3:0] $end
$var wire 1 + busywait $end
$var wire 1 ) clk $end
$var wire 1 [ data1_alu_sel_in $end
$var wire 1 W data2_alu_sel_in $end
$var wire 5 K" dest_addr_in [4:0] $end
$var wire 4 L" mem_read_in [3:0] $end
$var wire 3 M" mem_write_in [2:0] $end
$var wire 1 4 reg_write_en_in $end
$var wire 1 N" rst $end
$var wire 2 O" wb_sel_in [1:0] $end
$var wire 32 P" read_data2_in [31:0] $end
$var wire 32 Q" read_data1_in [31:0] $end
$var wire 32 R" pc_in [31:0] $end
$var wire 32 S" imm_in [31:0] $end
$var reg 5 T" aluop_out [4:0] $end
$var reg 4 U" branch_jump_out [3:0] $end
$var reg 1 \ data1_alu_sel_out $end
$var reg 1 X data2_alu_sel_out $end
$var reg 5 V" dest_addr_out [4:0] $end
$var reg 32 W" imm_out [31:0] $end
$var reg 4 X" mem_read_out [3:0] $end
$var reg 3 Y" mem_write_out [2:0] $end
$var reg 32 Z" pc_out [31:0] $end
$var reg 32 [" read_data1_out [31:0] $end
$var reg 32 \" read_data2_out [31:0] $end
$var reg 1 5 reg_write_en_out $end
$var reg 2 ]" wb_sel_out [1:0] $end
$upscope $end
$scope module if_id_pipeline_reg_inst $end
$var wire 1 + busywait $end
$var wire 1 ) clk $end
$var wire 1 ^" rst $end
$var wire 32 _" pc_in [31:0] $end
$var wire 32 `" instr_in [31:0] $end
$var reg 32 a" instr_out [31:0] $end
$var reg 32 b" pc_out [31:0] $end
$upscope $end
$scope module mem_wb_pipeline_reg_inst $end
$var wire 32 c" alu_result_in [31:0] $end
$var wire 1 + busywait $end
$var wire 1 ) clk $end
$var wire 5 d" dest_addr_in [4:0] $end
$var wire 32 e" pc_in [31:0] $end
$var wire 1 3 reg_write_in $end
$var wire 1 * rst $end
$var wire 2 f" wb_sel_in [1:0] $end
$var wire 32 g" mem_data_in [31:0] $end
$var reg 32 h" alu_result_out [31:0] $end
$var reg 5 i" dest_addr_out [4:0] $end
$var reg 32 j" mem_data_out [31:0] $end
$var reg 32 k" pc_out [31:0] $end
$var reg 1 2 reg_write_out $end
$var reg 2 l" wb_sel_out [1:0] $end
$upscope $end
$scope module pc_inst $end
$var wire 1 + busywait $end
$var wire 1 ) clk $end
$var wire 1 * rst $end
$var wire 32 m" pc_in [31:0] $end
$var reg 32 n" pc_out [31:0] $end
$upscope $end
$scope module pc_mux $end
$var wire 32 o" data2 [31:0] $end
$var wire 1 A sel $end
$var wire 32 p" out [31:0] $end
$var wire 32 q" data1 [31:0] $end
$upscope $end
$scope module pc_plus_4 $end
$var wire 32 r" data [31:0] $end
$var wire 32 s" out [31:0] $end
$upscope $end
$scope module pc_plus_4_ma $end
$var wire 32 t" data [31:0] $end
$var wire 32 u" out [31:0] $end
$upscope $end
$scope module reg_files_inst $end
$var wire 5 v" addr1 [4:0] $end
$var wire 5 w" addr2 [4:0] $end
$var wire 1 ) clk $end
$var wire 32 x" data1 [31:0] $end
$var wire 32 y" data2 [31:0] $end
$var wire 1 * rst $end
$var wire 5 z" waddr [4:0] $end
$var wire 1 2 we $end
$var wire 32 {" wd [31:0] $end
$upscope $end
$scope module sign_extender_inst $end
$var wire 4 |" imm_sel [3:0] $end
$var wire 32 }" inst [31:0] $end
$var wire 5 ~" TYPE6 [4:0] $end
$var wire 12 !# TYPE5 [11:0] $end
$var wire 12 "# TYPE3 [11:0] $end
$var wire 20 ## TYPE1 [19:0] $end
$var reg 32 $# imm_ext [31:0] $end
$upscope $end
$scope module wb_mux $end
$var wire 32 %# data1 [31:0] $end
$var wire 32 &# data2 [31:0] $end
$var wire 32 '# data3 [31:0] $end
$var wire 2 (# sel [1:0] $end
$var wire 32 )# out [31:0] $end
$upscope $end
$upscope $end
$scope module dmem_inst $end
$var wire 32 *# address [31:0] $end
$var wire 1 ) clock $end
$var wire 4 +# read [3:0] $end
$var wire 1 * reset $end
$var wire 3 ,# write [2:0] $end
$var wire 32 -# writedata [31:0] $end
$var reg 1 ( busywait $end
$var reg 1 .# readaccess $end
$var reg 32 /# readdata [31:0] $end
$var reg 1 0# writeaccess $end
$var integer 32 1# i [31:0] $end
$upscope $end
$scope module imem_inst $end
$var wire 1 ) clk $end
$var wire 32 2# pc [31:0] $end
$var wire 1 * rst $end
$var reg 32 3# instr [31:0] $end
$upscope $end
$upscope $end
$enddefinitions $end
$comment Show the parameter values. $end
$dumpall
$end
#0
$dumpvars
bx 3#
bx 2#
b100000000 1#
00#
bx /#
0.#
b0 -#
b0 ,#
b0 +#
b0 *#
bx )#
b0 (#
b0 '#
b0 &#
b0 %#
bx $#
bx ##
bx "#
bx !#
bx ~"
bx }"
bx |"
bx {"
b0 z"
bx y"
bx x"
bx w"
bx v"
bx u"
b0 t"
bx s"
bx r"
bx q"
bx p"
bz o"
bx n"
bx m"
b0 l"
b0 k"
b0 j"
b0 i"
b0 h"
bx g"
b0 f"
b0 e"
b0 d"
b0 c"
bx b"
bx a"
bx `"
bx _"
1^"
b0 ]"
b0 \"
b0 ["
b0 Z"
b0 Y"
b0 X"
b0 W"
b0 V"
b0 U"
b0 T"
bx S"
bx R"
bx Q"
bx P"
bx O"
1N"
bx M"
bx L"
bx K"
bx J"
bx I"
b0 H"
b0 G"
b0 F"
b0 E"
b0 D"
b0 C"
b0 B"
b0 A"
b0 @"
b0 ?"
b0 >"
b0 ="
b0 <"
bx ;"
bx :"
b0 9"
bx 8"
bx 7"
bx 6"
bx 5"
bx 4"
bx 3"
bx 2"
bx 1"
bx 0"
x/"
bx ."
1-"
1,"
1+"
0*"
0)"
0("
b0 '"
b0 &"
b0 %"
b0 $"
b0 #"
bx ""
b0 !"
b0 ~
bx }
bx |
bx {
bx z
b0 y
bx x
bx w
bx v
bx u
bx t
bx s
bx r
bx q
bx p
bx o
bx n
bx m
bx l
bx k
bx j
bx i
bx h
bx g
bx f
bx e
bx d
b0 c
bx b
bx a
b0 `
b0 _
b0 ^
bx ]
0\
x[
b0 Z
bx Y
0X
xW
b0 V
bx U
b0 T
bx S
b0 R
b0 Q
bx P
bx O
bx N
bx M
b0 L
bx K
b0 J
b0 I
bx H
b0 G
b0 F
bx E
bx D
bx C
b0 B
xA
bx @
bx ?
b0 >
b0 =
b0 <
b0 ;
b0 :
bx 9
b0 8
b0 7
bx 6
05
x4
03
02
bz 1
b0 0
b0 /
b0 .
b0 -
z,
0+
1*
0)
0(
b0 '
bx &
b0 %
b0 $
b0 #
bx "
bx !
$end
#10
b0 d
b0 z
b0 ""
b0 e
b0 {
b0 }
b0 6
b0 {"
b0 )#
b100 ?
b100 u"
b0x m
b0x n
#20
b0 l
b0 k
b0 o
b0 m
b0 n
b0 f
b0 h
b0 i
b0 g
0A
#30
b0 a
b0 |
b0 ;"
b0 j
b0 x
04
#40
b0 t
b0 s
b0 r
b0 p
b0 q
b0 v
b0 w
b0 u
#50
b0 P
b0 S"
b0 $#
b0 ##
b0 "#
b0 !#
b0 ~"
b0 K"
b0 0"
b0 ."
b0 8"
b0 1"
b0 w"
b0 v"
b0 N
b0 a"
b0 }"
b0 E
b0 R"
b0 b"
1)
#60
b0 !
b0 D
b0 _"
b0 n"
b0 r"
b0 2#
bx000 b
bx000 7"
bx000 I"
b0 :"
b0 U
b0 P"
b0 y"
b0 Y
b0 Q"
b0 x"
#70
b100 @
b100 q"
b100 s"
0/"
#80
b100 C
b100 m"
b100 p"
0W
b0xxx O
b0xxx 5"
b0xxx |"
0[
b0 ]
b0 6"
b0 J"
b0 b
b0 7"
b0 I"
b1 9
b1 2"
b1 O"
b0 H
b0 3"
b0 M"
b0 K
b0 4"
b0 L"
#100
0^"
0N"
0)
0*
#150
bx ##
bx "#
bx !#
bx ~"
bx K"
bx 0"
bx ."
bx 8"
bx 1"
bx w"
bx v"
bx R
bx j"
bx %#
b1 :
b1 <"
b1 ]"
bx N
bx a"
bx }"
1)
#160
b0xxx b
b0xxx 7"
b0xxx I"
bx :"
bx 6
bx {"
bx )#
bx U
bx P"
bx y"
bx Y
bx Q"
bx x"
#170
b100 !
b100 D
b100 _"
b100 n"
b100 r"
b100 2#
b10100000000000010010011 "
b10100000000000010010011 M
b10100000000000010010011 `"
b10100000000000010010011 3#
x/"
#180
b1000 @
b1000 q"
b1000 s"
x4
bx O
bx 5"
bx |"
bx b
bx 7"
bx I"
bx ]
bx 6"
bx J"
x[
xW
bx 9
bx 2"
bx O"
bx H
bx 3"
bx M"
bx K
bx 4"
bx L"
#190
b1000 C
b1000 m"
b1000 p"
#200
0)
#250
b10100000000 ##
b101 "#
b1 !#
b101 ~"
b1 K"
b0 0"
b0 ."
b0 8"
b10011 1"
b101 w"
b0 v"
b1 8
b1 H"
b1 f"
bx :
bx <"
bx ]"
bx L
bx @"
bx X"
bx ^
bx %"
bx U"
bx I
bx ?"
bx Y"
bx c
bx y
bx T"
bx =
bx A"
bx V"
bx V
bx $"
bx &"
bx ="
bx \"
x+"
x)"
x,"
x*"
x("
x-"
bx Z
bx !"
bx '"
bx ["
xX
x\
x5
b10100000000000010010011 N
b10100000000000010010011 a"
b10100000000000010010011 }"
b100 E
b100 R"
b100 b"
1)
#260
bx000 b
bx000 7"
bx000 I"
b0 :"
bx d
bx z
bx ""
bx e
bx {
bx }
b0 U
b0 P"
b0 y"
b0 Y
b0 Q"
b0 x"
#270
b1000 !
b1000 D
b1000 _"
b1000 n"
b1000 r"
b1000 2#
b101000000000000100010011 "
b101000000000000100010011 M
b101000000000000100010011 `"
b101000000000000100010011 3#
b0x m
b0x n
bx f
bx h
bx i
bx g
bx l
bx k
bx o
0/"
#280
b101 P
b101 S"
b101 $#
b1100 @
b1100 q"
b1100 s"
bx j
bx x
1W
b10 O
b10 5"
b10 |"
14
0[
b0 ]
b0 6"
b0 J"
b0 b
b0 7"
b0 I"
b1 9
b1 2"
b1 O"
b0 H
b0 3"
b0 M"
b0 K
b0 4"
b0 L"
#290
b1100 C
b1100 m"
b1100 p"
bx r
bx s
bx t
bx p
bx q
bx v
bx w
bx u
#300
0)
#350
bx a
bx |
bx ;"
b1010 P
b1010 S"
b1010 $#
b101000000000 ##
b1010 "#
b10 !#
b1010 ~"
b10 K"
b1010 w"
bx 8
bx H"
bx f"
bx #
bx 0
bx ,#
bx G
bx E"
bx $
bx /
bx +#
bx J
bx D"
bx %
bx .
bx -#
bx T
bx G"
bx <
bx C"
bx d"
x3
b1 7
b1 l"
b1 (#
b1 :
b1 <"
b1 ]"
b0 L
b0 @"
b0 X"
b0 ^
b0 %"
b0 U"
b0 I
b0 ?"
b0 Y"
b0 c
b0 y
b0 T"
b1 =
b1 A"
b1 V"
b101 Q
b101 #"
b101 W"
1+"
0)"
1,"
0*"
0("
1-"
b0 V
b0 $"
b0 &"
b0 ="
b0 \"
b0 Z
b0 !"
b0 '"
b0 ["
b100 F
b100 ~
b100 >"
b100 Z"
1X
0\
15
b101000000000000100010011 N
b101000000000000100010011 a"
b101000000000000100010011 }"
b1000 E
b1000 R"
b1000 b"
1)
#360
b0 6
b0 {"
b0 )#
b101 d
b101 z
b101 ""
b0 e
b0 {
b0 }
#370
b1100 !
b1100 D
b1100 _"
b1100 n"
b1100 r"
b1100 2#
b0 l
b0 k
b0 o
b1 m
b1 n
b0 f
b101 h
b101 i
b101 g
#380
b101 a
b101 |
b101 ;"
b10000 @
b10000 q"
b10000 s"
b11111111111111111111111111111011 j
b101 x
#390
b10000 C
b10000 m"
b10000 p"
b0 t
b0 s
b0 r
b0 p
b0 q
b0 v
b0 w
b0 u
#400
x0#
x.#
0)
#450
bx 7
bx l"
bx (#
bx ;
bx i"
bx z"
x2
b1 8
b1 H"
b1 f"
b0 #
b0 0
b0 ,#
b0 G
b0 E"
b0 $
b0 /
b0 +#
b0 J
b0 D"
b0 %
b0 .
b0 -#
b0 T
b0 G"
b101 '
b101 -
b101 *#
b101 `
b101 B"
b101 c"
b100 B
b100 F"
b100 e"
b100 t"
b1 <
b1 C"
b1 d"
13
b10 =
b10 A"
b10 V"
b1010 Q
b1010 #"
b1010 W"
b1000 F
b1000 ~
b1000 >"
b1000 Z"
b1100 E
b1100 R"
b1100 b"
1)
#460
bx 6
bx {"
bx )#
b1010 d
b1010 z
b1010 ""
b1000 ?
b1000 u"
#470
b10000 !
b10000 D
b10000 _"
b10000 n"
b10000 r"
b10000 2#
b1010 h
b1010 i
b1010 g
#480
b1010 a
b1010 |
b1010 ;"
b10100 @
b10100 q"
b10100 s"
b11111111111111111111111111110110 j
b1010 x
#490
b10100 C
b10100 m"
b10100 p"
#500
00#
0.#
0)
#550
b1010 '
b1010 -
b1010 *#
b1010 `
b1010 B"
b1010 c"
b1000 B
b1000 F"
b1000 e"
b1000 t"
b10 <
b10 C"
b10 d"
b1 7
b1 l"
b1 (#
b1 ;
b1 i"
b1 z"
b101 _
b101 h"
b101 &#
b100 >
b100 k"
b100 '#
12
b1100 F
b1100 ~
b1100 >"
b1100 Z"
b10000 E
b10000 R"
b10000 b"
1)
#560
b101 6
b101 {"
b101 )#
b1100 ?
b1100 u"
#570
b10100 !
b10100 D
b10100 _"
b10100 n"
b10100 r"
b10100 2#
b1000001000000110110011 "
b1000001000000110110011 M
b1000001000000110110011 `"
b1000001000000110110011 3#
#580
b11000 @
b11000 q"
b11000 s"
#590
b11000 C
b11000 m"
b11000 p"
#600
0)
#650
b10 P
b10 S"
b10 $#
b1000001000 ##
b10 "#
b11 !#
b10 ~"
b11 K"
b110011 1"
b10 w"
b1 v"
b10 ;
b10 i"
b10 z"
b1010 _
b1010 h"
b1010 &#
b1000 >
b1000 k"
b1000 '#
b1100 B
b1100 F"
b1100 e"
b1100 t"
b10000 F
b10000 ~
b10000 >"
b10000 Z"
b1000001000000110110011 N
b1000001000000110110011 a"
b1000001000000110110011 }"
b10100 E
b10100 R"
b10100 b"
1)
#660
b1010 6
b1010 {"
b1010 )#
b101 Y
b101 Q"
b101 x"
b10000 ?
b10000 u"
#670
b11000 !
b11000 D
b11000 _"
b11000 n"
b11000 r"
b11000 2#
#680
b0 P
b0 S"
b0 $#
b11100 @
b11100 q"
b11100 s"
b0xxx O
b0xxx 5"
b0xxx |"
0W
#690
b11100 C
b11100 m"
b11100 p"
#700
0)
#730
b1010 U
b1010 P"
b1010 y"
#750
b10000 B
b10000 F"
b10000 e"
b10000 t"
b1100 >
b1100 k"
b1100 '#
b11 =
b11 A"
b11 V"
b0 Q
b0 #"
b0 W"
0+"
1)"
0,"
1*"
b1010 V
b1010 $"
b1010 &"
b1010 ="
b1010 \"
1("
0-"
b101 Z
b101 !"
b101 '"
b101 ["
b10100 F
b10100 ~
b10100 >"
b10100 Z"
0X
b11000 E
b11000 R"
b11000 b"
1)
#760
b101 e
b101 {
b101 }
b10100 ?
b10100 u"
#770
b11100 !
b11100 D
b11100 _"
b11100 n"
b11100 r"
b11100 2#
b1111 h
b1111 i
b1010000000000 o
#780
b1111 a
b1111 |
b1111 ;"
b100000 @
b100000 q"
b100000 s"
b11111111111111111111111111111011 j
b1111 x
#790
b100000 C
b100000 m"
b100000 p"
b101 p
b101 q
b110010 u
#800
0)
#850
b10000 >
b10000 k"
b10000 '#
b1010 %
b1010 .
b1010 -#
b1010 T
b1010 G"
b1111 '
b1111 -
b1111 *#
b1111 `
b1111 B"
b1111 c"
b10100 B
b10100 F"
b10100 e"
b10100 t"
b11 <
b11 C"
b11 d"
b11000 F
b11000 ~
b11000 >"
b11000 Z"
b11100 E
b11100 R"
b11100 b"
1)
#860
b11000 ?
b11000 u"
#870
b100000 !
b100000 D
b100000 _"
b100000 n"
b100000 r"
b100000 2#
b1100000010000000100011 "
b1100000010000000100011 M
b1100000010000000100011 `"
b1100000010000000100011 3#
#880
b100100 @
b100100 q"
b100100 s"
#890
b100100 C
b100100 m"
b100100 p"
#900
0)
#950
b1100000010 ##
b11 "#
b0 !#
b11 ~"
b0 K"
b10 ."
b10 8"
b100011 1"
b11 w"
b0 v"
b11000 B
b11000 F"
b11000 e"
b11000 t"
b11 ;
b11 i"
b11 z"
b1111 _
b1111 h"
b1111 &#
b10100 >
b10100 k"
b10100 '#
b11100 F
b11100 ~
b11100 >"
b11100 Z"
b1100000010000000100011 N
b1100000010000000100011 a"
b1100000010000000100011 }"
b100000 E
b100000 R"
b100000 b"
1)
#960
b1111 6
b1111 {"
b1111 )#
b10 b
b10 7"
b10 I"
b10 :"
b0 U
b0 P"
b0 y"
b0 Y
b0 Q"
b0 x"
b11100 ?
b11100 u"
#970
b100100 !
b100100 D
b100100 _"
b100100 n"
b100100 r"
b100100 2#
b10001000000011 "
b10001000000011 M
b10001000000011 `"
b10001000000011 3#
1/"
#980
b101000 @
b101000 q"
b101000 s"
b0 b
b0 7"
b0 I"
b0 :"
1W
04
b100 O
b100 5"
b100 |"
b10 ]
b10 6"
b10 J"
b10 K
b10 4"
b10 L"
b110 H
b110 3"
b110 M"
#990
b101000 C
b101000 m"
b101000 p"
#1000
0)
#1030
b1111 U
b1111 P"
b1111 y"
#1050
b100 P
b100 S"
b100 $#
b10 ##
b0 "#
b100 !#
b0 ~"
b100 K"
b11 1"
b0 w"
b11000 >
b11000 k"
b11000 '#
b11100 B
b11100 F"
b11100 e"
b11100 t"
b10 L
b10 @"
b10 X"
b10 ^
b10 %"
b10 U"
b110 I
b110 ?"
b110 Y"
b0 =
b0 A"
b0 V"
b1111 V
b1111 $"
b1111 &"
b1111 ="
b1111 \"
b0 Z
b0 !"
b0 '"
b0 ["
b100000 F
b100000 ~
b100000 >"
b100000 Z"
1X
05
b10001000000011 N
b10001000000011 a"
b10001000000011 }"
b100100 E
b100100 R"
b100100 b"
1)
#1060
b0 d
b0 z
b0 ""
b0 e
b0 {
b0 }
b0 U
b0 P"
b0 y"
b100000 ?
b100000 u"
#1070
b101000 !
b101000 D
b101000 _"
b101000 n"
b101000 r"
b101000 2#
bx "
bx M
bx `"
bx 3#
b0 m
b0 n
b0 h
b0 i
b0 g
b0 o
#1080
b0 a
b0 |
b0 ;"
b0 P
b0 S"
b0 $#
b101100 @
b101100 q"
b101100 s"
b0 j
b0 x
14
b10 O
b10 5"
b10 |"
b0 9
b0 2"
b0 O"
b10 H
b10 3"
b10 M"
b1010 K
b1010 4"
b1010 L"
#1090
b101100 C
b101100 m"
b101100 p"
b0 p
b0 q
b0 u
#1100
0)
#1150
bx P
bx S"
bx $#
bx ##
bx "#
bx !#
bx ~"
bx K"
bx 0"
bx ."
bx 8"
bx 1"
bx w"
bx v"
b110 #
b110 0
b110 ,#
b110 G
b110 E"
b10 $
b10 /
b10 +#
b10 J
b10 D"
b1111 %
b1111 .
b1111 -#
b1111 T
b1111 G"
b0 '
b0 -
b0 *#
b0 `
b0 B"
b0 c"
b100000 B
b100000 F"
b100000 e"
b100000 t"
b0 <
b0 C"
b0 d"
03
b11100 >
b11100 k"
b11100 '#
b0 :
b0 <"
b0 ]"
b1010 L
b1010 @"
b1010 X"
b10 I
b10 ?"
b10 Y"
b100 =
b100 A"
b100 V"
1+"
0)"
1,"
0*"
0("
1-"
b0 V
b0 $"
b0 &"
b0 ="
b0 \"
b100100 F
b100100 ~
b100100 >"
b100100 Z"
15
bx N
bx a"
bx }"
b101000 E
b101000 R"
b101000 b"
1)
#1160
bx U
bx P"
bx y"
bx Y
bx Q"
bx x"
b100100 ?
b100100 u"
#1170
b101100 !
b101100 D
b101100 _"
b101100 n"
b101100 r"
b101100 2#
x/"
#1180
b0 P
b0 S"
b0 $#
b110000 @
b110000 q"
b110000 s"
bx :"
xW
x4
bx b
bx 7"
bx I"
bx ]
bx 6"
bx J"
bx O
bx 5"
bx |"
x[
bx 9
bx 2"
bx O"
bx H
bx 3"
bx M"
bx K
bx 4"
bx L"
#1190
b110000 C
b110000 m"
b110000 p"
#1200
10#
0)
#1250
b0 ;
b0 i"
b0 z"
b0 _
b0 h"
b0 &#
b100000 >
b100000 k"
b100000 '#
02
b0 8
b0 H"
b0 f"
b10 #
b10 0
b10 ,#
b10 G
b10 E"
b1010 $
b1010 /
b1010 +#
b1010 J
b1010 D"
b0 %
b0 .
b0 -#
b0 T
b0 G"
b100100 B
b100100 F"
b100100 e"
b100100 t"
b100 <
b100 C"
b100 d"
13
bx :
bx <"
bx ]"
bx L
bx @"
bx X"
bx ^
bx %"
bx U"
bx I
bx ?"
bx Y"
bx c
bx y
bx T"
bx =
bx A"
bx V"
bx V
bx $"
bx &"
bx ="
bx \"
x+"
x)"
x,"
x*"
x("
x-"
bx Z
bx !"
bx '"
bx ["
b101000 F
b101000 ~
b101000 >"
b101000 Z"
xX
x\
x5
b101100 E
b101100 R"
b101100 b"
1)
#1260
b0 6
b0 {"
b0 )#
bx d
bx z
bx ""
bx e
bx {
bx }
b101000 ?
b101000 u"
#1270
b110000 !
b110000 D
b110000 _"
b110000 n"
b110000 r"
b110000 2#
b0x m
b0x n
bx f
bx h
bx i
bx g
bx l
bx k
bx o
#1280
b110100 @
b110100 q"
b110100 s"
bx j
bx x
#1290
b110100 C
b110100 m"
b110100 p"
bx r
bx s
bx t
bx p
bx q
bx v
bx w
bx u
#1300
00#
1.#
0)
#1320
b1111 &
b1111 S
b1111 g"
b1111 /#
#1350
bx 8
bx H"
bx f"
bx #
bx 0
bx ,#
bx G
bx E"
bx $
bx /
bx +#
bx J
bx D"
bx %
bx .
bx -#
bx T
bx G"
b101000 B
b101000 F"
b101000 e"
b101000 t"
bx <
bx C"
bx d"
x3
b0 7
b0 l"
b0 (#
b100 ;
b100 i"
b100 z"
b1111 R
b1111 j"
b1111 %#
b100100 >
b100100 k"
b100100 '#
12
b101100 F
b101100 ~
b101100 >"
b101100 Z"
b110000 E
b110000 R"
b110000 b"
1)
#1360
b1111 6
b1111 {"
b1111 )#
b101100 ?
b101100 u"
#1370
b110100 !
b110100 D
b110100 _"
b110100 n"
b110100 r"
b110100 2#
#1380
b111000 @
b111000 q"
b111000 s"
#1390
b111000 C
b111000 m"
b111000 p"
#1400
x0#
x.#
0)
#1450
bx 7
bx l"
bx (#
bx ;
bx i"
bx z"
b101000 >
b101000 k"
b101000 '#
x2
b101100 B
b101100 F"
b101100 e"
b101100 t"
b110000 F
b110000 ~
b110000 >"
b110000 Z"
b110100 E
b110100 R"
b110100 b"
1)
#1460
b0x0xxxx 6
b0x0xxxx {"
b0x0xxxx )#
b110000 ?
b110000 u"
#1470
b111000 !
b111000 D
b111000 _"
b111000 n"
b111000 r"
b111000 2#
#1480
b111100 @
b111100 q"
b111100 s"
#1490
b111100 C
b111100 m"
b111100 p"
#1500
0)
#1550
b110000 B
b110000 F"
b110000 e"
b110000 t"
b101100 >
b101100 k"
b101100 '#
b110100 F
b110100 ~
b110100 >"
b110100 Z"
b111000 E
b111000 R"
b111000 b"
1)
