cpu/cpu_tb.vcd
$date
	Mon May 12 08:20:18 2025
$end
$version
	Icarus Verilog
$end
$timescale
	100ps
$end
$scope module cpu_tb $end
$var wire 32 ! PC [31:0] $end
$var wire 32 " INST [31:0] $end
$var wire 3 # DMEM_WRITE [2:0] $end
$var wire 4 $ DMEM_READ [3:0] $end
$var wire 32 % DMEM_DATA_WRITE [31:0] $end
$var wire 32 & DMEM_DATA_READ [31:0] $end
$var wire 32 ' DMEM_ADDR [31:0] $end
$var wire 1 ( BUSYWAIT $end
$var reg 1 ) CLK $end
$var reg 1 * RST $end
$scope module cpu_inst $end
$var wire 1 + BUSYWAIT $end
$var wire 1 , BUSYWAIT_OUT $end
$var wire 1 ) CLK $end
$var wire 32 - DMEM_ADDR_MA [31:0] $end
$var wire 32 . DMEM_DATA_WRITE_MA [31:0] $end
$var wire 4 / DMEM_READ_MA [3:0] $end
$var wire 3 0 DMEM_WRITE_MA [2:0] $end
$var wire 1 * RST $end
$var wire 1 1 WRITE_EN_WB $end
$var wire 1 2 WRITE_EN_MA $end
$var wire 1 3 WRITE_EN_ID $end
$var wire 1 4 WRITE_EN_EX $end
$var wire 32 5 WRITE_DATA_WB [31:0] $end
$var wire 2 6 WB_SEL_WB [1:0] $end
$var wire 2 7 WB_SEL_MA [1:0] $end
$var wire 2 8 WB_SEL_ID [1:0] $end
$var wire 2 9 WB_SEL_EX [1:0] $end
$var wire 5 : WADDR_WB [4:0] $end
$var wire 5 ; WADDR_MA [4:0] $end
$var wire 5 < WADDR_EX [4:0] $end
$var wire 32 = PC_WB [31:0] $end
$var wire 32 > PC_PLUS_4_MA [31:0] $end
$var wire 32 ? PC_PLUS_4_IF [31:0] $end
$var wire 1 @ PC_MUX_SEL_EX $end
$var wire 32 A PC_MA [31:0] $end
$var wire 32 B PC_INT_IF [31:0] $end
$var wire 32 C PC_IF [31:0] $end
$var wire 32 D PC_ID [31:0] $end
$var wire 32 E PC_EX [31:0] $end
$var wire 3 F MEM_WRITE_MA [2:0] $end
$var wire 3 G MEM_WRITE_ID [2:0] $end
$var wire 3 H MEM_WRITE_EX [2:0] $end
$var wire 4 I MEM_READ_MA [3:0] $end
$var wire 4 J MEM_READ_ID [3:0] $end
$var wire 4 K MEM_READ_EX [3:0] $end
$var wire 32 L INST_IF [31:0] $end
$var wire 32 M INST_ID [31:0] $end
$var wire 4 N IMM_SEL_ID [3:0] $end
$var wire 32 O IMM_ID [31:0] $end
$var wire 32 P IMM_EX [31:0] $end
$var wire 1 Q HAZARD_STALL $end
$var wire 1 R HAZARD_BUBBLE $end
$var wire 2 S FORWARDING_DATA2_SEL_ID [1:0] $end
$var wire 2 T FORWARDING_DATA2_SEL_EX [1:0] $end
$var wire 32 U FORWARDING_DATA2 [31:0] $end
$var wire 2 V FORWARDING_DATA1_SEL_ID [1:0] $end
$var wire 2 W FORWARDING_DATA1_SEL_EX [1:0] $end
$var wire 32 X FORWARDING_DATA1 [31:0] $end
$var wire 32 Y DMEM_DATA_READ_WB [31:0] $end
$var wire 32 Z DMEM_DATA_READ_MA [31:0] $end
$var wire 32 [ DATA2_MA [31:0] $end
$var wire 32 \ DATA2_ID [31:0] $end
$var wire 32 ] DATA2_EX [31:0] $end
$var wire 1 ^ DATA2_ALU_SEL_ID $end
$var wire 1 _ DATA2_ALU_SEL_EX $end
$var wire 32 ` DATA1_ID [31:0] $end
$var wire 32 a DATA1_EX [31:0] $end
$var wire 1 b DATA1_ALU_SEL_ID $end
$var wire 1 c DATA1_ALU_SEL_EX $end
$var wire 1 ( BUSYWAIT_IN $end
$var wire 4 d BRANCH_JUMP_ID [3:0] $end
$var wire 4 e BRANCH_JUMP_EX [3:0] $end
$var wire 32 f ALU_OUT_WB [31:0] $end
$var wire 32 g ALU_OUT_MA [31:0] $end
$var wire 32 h ALU_OUT_EX [31:0] $end
$var wire 5 i ALU_OP_ID [4:0] $end
$var wire 5 j ALU_OP_EX [4:0] $end
$var wire 32 k ALU_DATA2_EX [31:0] $end
$var wire 32 l ALU_DATA1_EX [31:0] $end
$scope module alu_inst $end
$var wire 32 m andData [31:0] $end
$var wire 32 n forwardData [31:0] $end
$var wire 32 o orData [31:0] $end
$var wire 32 p xorData [31:0] $end
$var wire 32 q subData [31:0] $end
$var wire 32 r srlData [31:0] $end
$var wire 32 s sraData [31:0] $end
$var wire 32 t sltuData [31:0] $end
$var wire 32 u sltData [31:0] $end
$var wire 32 v sllData [31:0] $end
$var wire 32 w remuData [31:0] $end
$var wire 32 x remData [31:0] $end
$var wire 32 y mulhuData [31:0] $end
$var wire 32 z mulhsuData [31:0] $end
$var wire 32 { mulhData [31:0] $end
$var wire 32 | mulData [31:0] $end
$var wire 32 } divuData [31:0] $end
$var wire 32 ~ divData [31:0] $end
$var wire 32 !" addData [31:0] $end
$var wire 5 "" SELECT [4:0] $end
$var wire 32 #" DATA2 [31:0] $end
$var wire 32 $" DATA1 [31:0] $end
$var reg 32 %" RESULT [31:0] $end
$upscope $end
$scope module alu_mux_1 $end
$var wire 1 c sel $end
$var wire 32 &" out [31:0] $end
$var wire 32 '" data2 [31:0] $end
$var wire 32 (" data1 [31:0] $end
$upscope $end
$scope module alu_mux_2 $end
$var wire 1 _ sel $end
$var wire 32 )" out [31:0] $end
$var wire 32 *" data2 [31:0] $end
$var wire 32 +" data1 [31:0] $end
$upscope $end
$scope module branch_logic_inst $end
$var wire 4 ," op [3:0] $end
$var wire 32 -" data2 [31:0] $end
$var wire 32 ." data1 [31:0] $end
$var wire 1 /" BNE $end
$var wire 1 0" BLTU $end
$var wire 1 1" BLT $end
$var wire 1 2" BGEU $end
$var wire 1 3" BGE $end
$var wire 1 4" BEQ $end
$var reg 1 @ out $end
$upscope $end
$scope module control_unit_inst $end
$var wire 1 b data1_alu_sel $end
$var wire 1 ^ data2_alu_sel $end
$var wire 3 5" funct3 [2:0] $end
$var wire 1 6" funct3_mux_select $end
$var wire 7 7" funct7 [6:0] $end
$var wire 7 8" opcode [6:0] $end
$var wire 1 3 reg_write_en $end
$var wire 1 * reset $end
$var wire 2 9" wb_sel [1:0] $end
$var wire 3 :" mem_write [2:0] $end
$var wire 4 ;" mem_read [3:0] $end
$var wire 4 <" imm_sel [3:0] $end
$var wire 4 =" branch_jump [3:0] $end
$var wire 5 >" alu_op [4:0] $end
$scope module funct3_mux $end
$var wire 3 ?" data1 [2:0] $end
$var wire 3 @" data2 [2:0] $end
$var wire 1 6" sel $end
$var wire 3 A" out [2:0] $end
$upscope $end
$upscope $end
$scope module ex_mem_pipeline_reg_inst $end
$var wire 32 B" alu_result_in [31:0] $end
$var wire 1 + busywait $end
$var wire 1 ) clk $end
$var wire 1 * rst $end
$var wire 2 C" wb_sel_in [1:0] $end
$var wire 1 4 reg_write_in $end
$var wire 32 D" read_data2_in [31:0] $end
$var wire 32 E" pc_in [31:0] $end
$var wire 3 F" mem_write_in [2:0] $end
$var wire 4 G" mem_read_in [3:0] $end
$var wire 5 H" dest_addr_in [4:0] $end
$var reg 32 I" alu_result_out [31:0] $end
$var reg 5 J" dest_addr_out [4:0] $end
$var reg 4 K" mem_read_out [3:0] $end
$var reg 3 L" mem_write_out [2:0] $end
$var reg 32 M" pc_out [31:0] $end
$var reg 32 N" read_data2_out [31:0] $end
$var reg 1 2 reg_write_out $end
$var reg 2 O" wb_sel_out [1:0] $end
$upscope $end
$scope module forwarding_mux_1 $end
$var wire 32 P" data2 [31:0] $end
$var wire 2 Q" sel [1:0] $end
$var wire 32 R" out [31:0] $end
$var wire 32 S" data3 [31:0] $end
$var wire 32 T" data1 [31:0] $end
$upscope $end
$scope module forwarding_mux_2 $end
$var wire 32 U" data2 [31:0] $end
$var wire 2 V" sel [1:0] $end
$var wire 32 W" out [31:0] $end
$var wire 32 X" data3 [31:0] $end
$var wire 32 Y" data1 [31:0] $end
$upscope $end
$scope module hazard_unit_inst $end
$var wire 5 Z" addr1 [4:0] $end
$var wire 5 [" addr2 [4:0] $end
$var wire 1 \" ex_hazard_rs1 $end
$var wire 1 ]" ex_hazard_rs2 $end
$var wire 1 ^" ex_memr $end
$var wire 1 _" load_use_hazard $end
$var wire 1 `" mem_hazard_rs1 $end
$var wire 1 a" mem_hazard_rs2 $end
$var wire 1 b" mem_memr $end
$var wire 5 c" mem_rd [4:0] $end
$var wire 1 2 mem_we $end
$var wire 1 d" rs2_used $end
$var wire 1 e" rs1_used $end
$var wire 1 4 ex_we $end
$var wire 5 f" ex_rd [4:0] $end
$var reg 1 R bubble $end
$var reg 2 g" forwarding_data1sel [1:0] $end
$var reg 2 h" forwarding_data2sel [1:0] $end
$var reg 1 Q stall $end
$upscope $end
$scope module id_ex_pipeline_reg_inst $end
$var wire 5 i" aluop_in [4:0] $end
$var wire 4 j" branch_jump_in [3:0] $end
$var wire 1 + busywait $end
$var wire 1 ) clk $end
$var wire 1 b data1_alu_sel_in $end
$var wire 2 k" data1sel_in [1:0] $end
$var wire 1 ^ data2_alu_sel_in $end
$var wire 2 l" data2sel_in [1:0] $end
$var wire 5 m" dest_addr_in [4:0] $end
$var wire 4 n" mem_read_in [3:0] $end
$var wire 3 o" mem_write_in [2:0] $end
$var wire 1 3 reg_write_en_in $end
$var wire 1 p" rst $end
$var wire 2 q" wb_sel_in [1:0] $end
$var wire 32 r" read_data2_in [31:0] $end
$var wire 32 s" read_data1_in [31:0] $end
$var wire 32 t" pc_in [31:0] $end
$var wire 32 u" imm_in [31:0] $end
$var reg 5 v" aluop_out [4:0] $end
$var reg 4 w" branch_jump_out [3:0] $end
$var reg 1 c data1_alu_sel_out $end
$var reg 2 x" data1sel_out [1:0] $end
$var reg 1 _ data2_alu_sel_out $end
$var reg 2 y" data2sel_out [1:0] $end
$var reg 5 z" dest_addr_out [4:0] $end
$var reg 32 {" imm_out [31:0] $end
$var reg 4 |" mem_read_out [3:0] $end
$var reg 3 }" mem_write_out [2:0] $end
$var reg 32 ~" pc_out [31:0] $end
$var reg 32 !# read_data1_out [31:0] $end
$var reg 32 "# read_data2_out [31:0] $end
$var reg 1 4 reg_write_en_out $end
$var reg 2 ## wb_sel_out [1:0] $end
$upscope $end
$scope module if_id_pipeline_reg_inst $end
$var wire 1 $# busywait $end
$var wire 1 ) clk $end
$var wire 1 %# rst $end
$var wire 32 &# pc_in [31:0] $end
$var wire 32 '# instr_in [31:0] $end
$var reg 32 (# instr_out [31:0] $end
$var reg 32 )# pc_out [31:0] $end
$upscope $end
$scope module mem_wb_pipeline_reg_inst $end
$var wire 32 *# alu_result_in [31:0] $end
$var wire 1 + busywait $end
$var wire 1 ) clk $end
$var wire 5 +# dest_addr_in [4:0] $end
$var wire 32 ,# pc_in [31:0] $end
$var wire 1 2 reg_write_in $end
$var wire 1 * rst $end
$var wire 2 -# wb_sel_in [1:0] $end
$var wire 32 .# mem_data_in [31:0] $end
$var reg 32 /# alu_result_out [31:0] $end
$var reg 5 0# dest_addr_out [4:0] $end
$var reg 32 1# mem_data_out [31:0] $end
$var reg 32 2# pc_out [31:0] $end
$var reg 1 1 reg_write_out $end
$var reg 2 3# wb_sel_out [1:0] $end
$upscope $end
$scope module pc_inst $end
$var wire 1 4# busywait $end
$var wire 1 ) clk $end
$var wire 1 * rst $end
$var wire 32 5# pc_in [31:0] $end
$var reg 32 6# pc_out [31:0] $end
$upscope $end
$scope module pc_mux $end
$var wire 32 7# data2 [31:0] $end
$var wire 1 @ sel $end
$var wire 32 8# out [31:0] $end
$var wire 32 9# data1 [31:0] $end
$upscope $end
$scope module pc_plus_4 $end
$var wire 32 :# data [31:0] $end
$var wire 32 ;# out [31:0] $end
$upscope $end
$scope module pc_plus_4_ma $end
$var wire 32 <# data [31:0] $end
$var wire 32 =# out [31:0] $end
$upscope $end
$scope module reg_files_inst $end
$var wire 5 ># addr1 [4:0] $end
$var wire 5 ?# addr2 [4:0] $end
$var wire 1 ) clk $end
$var wire 32 @# data1 [31:0] $end
$var wire 32 A# data2 [31:0] $end
$var wire 1 * rst $end
$var wire 5 B# waddr [4:0] $end
$var wire 1 1 we $end
$var wire 32 C# wd [31:0] $end
$upscope $end
$scope module sign_extender_inst $end
$var wire 4 D# imm_sel [3:0] $end
$var wire 32 E# inst [31:0] $end
$var wire 5 F# TYPE6 [4:0] $end
$var wire 12 G# TYPE5 [11:0] $end
$var wire 12 H# TYPE3 [11:0] $end
$var wire 20 I# TYPE1 [19:0] $end
$var reg 32 J# imm_ext [31:0] $end
$upscope $end
$scope module wb_mux $end
$var wire 32 K# data1 [31:0] $end
$var wire 32 L# data2 [31:0] $end
$var wire 32 M# data3 [31:0] $end
$var wire 2 N# sel [1:0] $end
$var wire 32 O# out [31:0] $end
$upscope $end
$upscope $end
$scope module dmem_inst $end
$var wire 32 P# address [31:0] $end
$var wire 1 ) clock $end
$var wire 4 Q# read [3:0] $end
$var wire 1 * reset $end
$var wire 3 R# write [2:0] $end
$var wire 32 S# writedata [31:0] $end
$var reg 1 ( busywait $end
$var reg 1 T# readaccess $end
$var reg 32 U# readdata [31:0] $end
$var reg 1 V# writeaccess $end
$var integer 32 W# i [31:0] $end
$upscope $end
$scope module imem_inst $end
$var wire 1 ) clk $end
$var wire 32 X# pc [31:0] $end
$var wire 1 * rst $end
$var reg 32 Y# instr [31:0] $end
$upscope $end
$upscope $end
$enddefinitions $end
$comment Show the parameter values. $end
$dumpall
$end
#0
$dumpvars
b0 Y#
bx X#
b100000000 W#
0V#
bx U#
0T#
bx S#
bx R#
bx Q#
bx P#
bx O#
bx N#
bx M#
bx L#
bx K#
bx J#
bx I#
bx H#
bx G#
bx F#
bx E#
bx D#
bx C#
bx B#
bx A#
bx @#
bx ?#
bx >#
bx =#
bx <#
bx ;#
bx :#
bx 9#
bx 8#
bx 7#
bx 6#
bx 5#
x4#
bx 3#
bx 2#
bx 1#
bx 0#
bx /#
bx .#
bx -#
bx ,#
bx +#
bx *#
bx )#
bx (#
b0 '#
bx &#
1%#
x$#
bx ##
bx "#
bx !#
bx ~"
bx }"
bx |"
bx {"
bx z"
bx y"
bx x"
bx w"
bx v"
bx u"
bx t"
bx s"
bx r"
bx q"
1p"
bx o"
bx n"
bx m"
bx l"
bx k"
bx j"
bx i"
bx h"
bx g"
bx f"
xe"
xd"
bx c"
xb"
xa"
x`"
x_"
x^"
x]"
x\"
bx ["
bx Z"
bx Y"
bx X"
bx W"
bx V"
bx U"
bx T"
bx S"
bx R"
bx Q"
bx P"
bx O"
bx N"
bx M"
bx L"
bx K"
bx J"
bx I"
bx H"
bx G"
bx F"
bx E"
bx D"
bx C"
bx B"
bx A"
b0 @"
bx ?"
bx >"
bx ="
bx <"
bx ;"
bx :"
bx 9"
bx 8"
bx 7"
x6"
bx 5"
x4"
x3"
x2"
x1"
x0"
x/"
bx ."
bx -"
bx ,"
bx +"
bx *"
bx )"
bx ("
bx '"
bx &"
bx %"
bx $"
bx #"
bx ""
bx !"
bx ~
bx }
bx |
bx {
bx z
bx y
bx x
bx w
bx v
bx u
bx t
bx s
bx r
bx q
bx p
bx o
bx n
bx m
bx l
bx k
bx j
bx i
bx h
bx g
bx f
bx e
bx d
xc
xb
bx a
bx `
x_
x^
bx ]
bx \
bx [
bx Z
bx Y
bx X
bx W
bx V
bx U
bx T
bx S
xR
xQ
bx P
bx O
bx N
bx M
b0 L
bx K
bx J
bx I
bx H
bx G
bx F
bx E
bx D
bx C
bx B
bx A
x@
bx ?
bx >
bx =
bx <
bx ;
bx :
bx 9
bx 8
bx 7
bx 6
bx 5
x4
x3
x2
x1
bx 0
bx /
bx .
bx -
z,
0+
1*
0)
0(
bx '
bx &
bx %
bx $
bx #
b0 "
bx !
$end
#10
b0 h
b0 %"
b0 B"
b0 7#
b0x t
b0x u
#30
03
#50
b0 !
b0 C
b0 &#
b0 6#
b0 :#
b0 X#
1)
#60
0$#
04#
0Q
0R
b0 S
b0 h"
b0 l"
b0 V
b0 g"
b0 k"
0_"
0]"
0\"
0`"
0a"
b0 O
b0 u"
b0 J#
b0 I#
b0 H#
b0 G#
b0 F#
b0 m"
0d"
b0 ["
0e"
b0 Z"
b0 7"
b0 5"
b0 ?"
b0 8"
b0 ?#
b0 >#
0^"
bx h
bx %"
bx B"
bx 7#
0b"
b0 M
b0 (#
b0 E#
b0 D
b0 t"
b0 )#
b0 T
b0 V"
b0 y"
b0 W
b0 Q"
b0 x"
b0 9
b0 C"
b0 ##
b0 K
b0 G"
b0 |"
b0 e
b0 ,"
b0 w"
b0 H
b0 F"
b0 }"
b0 j
b0 ""
b0 v"
b0 <
b0 H"
b0 f"
b0 z"
b0 P
b0 *"
b0 {"
b0 ]
b0 Y"
b0 "#
b0 a
b0 T"
b0 !#
b0 E
b0 '"
b0 E"
b0 ~"
0_
0c
04
b0 7
b0 O"
b0 -#
b0 $
b0 /
b0 Q#
b0 I
b0 K"
b0 #
b0 0
b0 R#
b0 F
b0 L"
b0 %
b0 .
b0 S#
b0 [
b0 N"
b0 '
b0 -
b0 P#
b0 g
b0 I"
b0 P"
b0 U"
b0 *#
b0 A
b0 M"
b0 ,#
b0 <#
b0 ;
b0 J"
b0 c"
b0 +#
02
b0 6
b0 3#
b0 N#
b0 :
b0 0#
b0 B#
b0 f
b0 /#
b0 L#
b0 Y
b0 1#
b0 K#
b0 =
b0 2#
b0 M#
01
b100 ?
b100 9#
b100 ;#
#70
bx000 i
bx000 >"
bx000 i"
b0 A"
b0 \
b0 r"
b0 A#
b0 `
b0 s"
b0 @#
12"
00"
13"
01"
0/"
14"
b0 U
b0 +"
b0 -"
b0 D"
b0 W"
b0 X
b0 ("
b0 ."
b0 R"
b0 5
b0 S"
b0 X"
b0 C#
b0 O#
b100 >
b100 =#
#80
b0 k
b0 #"
b0 )"
b0 l
b0 $"
b0 &"
06"
0@
#90
b100 B
b100 5#
b100 8#
b0 s
b0 r
b0 v
b0 t
b0 u
b0 m
b0 o
b0 p
b0 n
0^
b0xxx N
b0xxx <"
b0xxx D#
0b
b0 d
b0 ="
b0 j"
b0 i
b0 >"
b0 i"
b1 8
b1 9"
b1 q"
b0 G
b0 :"
b0 o"
b0 J
b0 ;"
b0 n"
#100
b0 h
b0 %"
b0 B"
b0 7#
b100000000 W#
b0 q
b0 !"
0)
#110
b0 {
b0 z
b0 y
b0 w
b0 x
b0 }
b0 ~
b0 |
#150
0p"
0%#
1)
0*
#160
b100 !
b100 C
b100 &#
b100 6#
b100 :#
b100 X#
bx Y
bx 1#
bx K#
#170
bx 5
bx S"
bx X"
bx C#
bx O#
b1000 ?
b1000 9#
b1000 ;#
#180
b1000 B
b1000 5#
b1000 8#
#200
0)
#220
b100000000000010010011 "
b100000000000010010011 L
b100000000000010010011 '#
b100000000000010010011 Y#
#250
1)
#260
b100000000 I#
b1 H#
b1 G#
b1 F#
b1 m"
1d"
b1 ["
b10011 8"
b1 ?#
b1000 !
b1000 C
b1000 &#
b1000 6#
b1000 :#
b1000 X#
b100000000000010010011 M
b100000000000010010011 (#
b100000000000010010011 E#
b100 D
b100 t"
b100 )#
b1 9
b1 C"
b1 ##
#270
b1100 ?
b1100 9#
b1100 ;#
#280
b1100 B
b1100 5#
b1100 8#
#290
b1 O
b1 u"
b1 J#
b10 N
b10 <"
b10 D#
1^
13
#300
0)
#320
b100010011 "
b100010011 L
b100010011 '#
b100010011 Y#
#350
1)
#360
b0 O
b0 u"
b0 J#
b0 I#
b0 H#
b10 G#
b0 F#
b10 m"
0d"
b0 ["
b0 ?#
b1100 !
b1100 C
b1100 &#
b1100 6#
b1100 :#
b1100 X#
b1 7
b1 O"
b1 -#
b1 <
b1 H"
b1 f"
b1 z"
b1 P
b1 *"
b1 {"
b100 E
b100 '"
b100 E"
b100 ~"
1_
14
b100010011 M
b100010011 (#
b100010011 E#
b1000 D
b1000 t"
b1000 )#
#370
b1 k
b1 #"
b1 )"
b10000 ?
b10000 9#
b10000 ;#
#380
b1 t
b1 u
b1 o
b1 p
b10000 B
b10000 5#
b10000 8#
b1 n
#390
b1 h
b1 %"
b1 B"
b1 7#
b11111111111111111111111111111111 q
b1 !"
#400
0)
#420
b1010010011 "
b1010010011 L
b1010010011 '#
b1010010011 Y#
#450
1)
#460
b101 G#
b101 m"
b10000 !
b10000 C
b10000 &#
b10000 6#
b10000 :#
b10000 X#
b1010010011 M
b1010010011 (#
b1010010011 E#
b1100 D
b1100 t"
b1100 )#
b10 <
b10 H"
b10 f"
b10 z"
b0 P
b0 *"
b0 {"
b1000 E
b1000 '"
b1000 E"
b1000 ~"
b1 '
b1 -
b1 P#
b1 g
b1 I"
b1 P"
b1 U"
b1 *#
b100 A
b100 M"
b100 ,#
b100 <#
b1 ;
b1 J"
b1 c"
b1 +#
12
b1 6
b1 3#
b1 N#
#470
b0 k
b0 #"
b0 )"
b0 5
b0 S"
b0 X"
b0 C#
b0 O#
b10100 ?
b10100 9#
b10100 ;#
b1000 >
b1000 =#
#480
b0 t
b0 u
b0 o
b0 p
b10100 B
b10100 5#
b10100 8#
b0 n
#490
b0 h
b0 %"
b0 B"
b0 7#
b0 q
b0 !"
#500
0)
#520
b11000000000001110010011 "
b11000000000001110010011 L
b11000000000001110010011 '#
b11000000000001110010011 Y#
#550
1)
#560
b110 O
b110 u"
b110 J#
b11000000000 I#
b110 H#
b111 G#
b110 F#
b111 m"
1d"
b110 ["
b110 ?#
b10100 !
b10100 C
b10100 &#
b10100 6#
b10100 :#
b10100 X#
b1 :
b1 0#
b1 B#
b1 f
b1 /#
b1 L#
b100 =
b100 2#
b100 M#
11
b0 '
b0 -
b0 P#
b0 g
b0 I"
b0 P"
b0 U"
b0 *#
b1000 A
b1000 M"
b1000 ,#
b1000 <#
b10 ;
b10 J"
b10 c"
b10 +#
b101 <
b101 H"
b101 f"
b101 z"
b1100 E
b1100 '"
b1100 E"
b1100 ~"
b11000000000001110010011 M
b11000000000001110010011 (#
b11000000000001110010011 E#
b10000 D
b10000 t"
b10000 )#
#570
b1 5
b1 S"
b1 X"
b1 C#
b1 O#
b11000 ?
b11000 9#
b11000 ;#
b1100 >
b1100 =#
#580
b11000 B
b11000 5#
b11000 8#
#600
0)
#620
b1000001000000110110011 "
b1000001000000110110011 L
b1000001000000110110011 '#
b1000001000000110110011 Y#
#650
1)
#660
b10 O
b10 u"
b10 J#
b1000001000 I#
b10 H#
b11 G#
b10 F#
b11 m"
b10 ["
1e"
b1 Z"
b110011 8"
b10 ?#
b1 >#
b11000 !
b11000 C
b11000 &#
b11000 6#
b11000 :#
b11000 X#
b1000001000000110110011 M
b1000001000000110110011 (#
b1000001000000110110011 E#
b10100 D
b10100 t"
b10100 )#
b111 <
b111 H"
b111 f"
b111 z"
b110 P
b110 *"
b110 {"
b10000 E
b10000 '"
b10000 E"
b10000 ~"
b1100 A
b1100 M"
b1100 ,#
b1100 <#
b101 ;
b101 J"
b101 c"
b101 +#
b10 :
b10 0#
b10 B#
b0 f
b0 /#
b0 L#
b1000 =
b1000 2#
b1000 M#
#670
b0 5
b0 S"
b0 X"
b0 C#
b0 O#
b1 `
b1 s"
b1 @#
b110 k
b110 #"
b110 )"
b11100 ?
b11100 9#
b11100 ;#
b10000 >
b10000 =#
#680
b1 t
b1 u
b110 o
b110 p
b11100 B
b11100 5#
b11100 8#
b110 n
#690
b110 h
b110 %"
b110 B"
b110 7#
b0 O
b0 u"
b0 J#
b11111111111111111111111111111010 q
b110 !"
b0xxx N
b0xxx <"
b0xxx D#
0^
#700
0)
#720
b1000000100010011 "
b1000000100010011 L
b1000000100010011 '#
b1000000100010011 Y#
#750
1)
#760
b1000 I#
b0 H#
b10 G#
b0 F#
b10 m"
0d"
b0 ["
b10011 8"
b0 ?#
b11100 !
b11100 C
b11100 &#
b11100 6#
b11100 :#
b11100 X#
b101 :
b101 0#
b101 B#
b1100 =
b1100 2#
b1100 M#
b110 '
b110 -
b110 P#
b110 g
b110 I"
b110 P"
b110 U"
b110 *#
b10000 A
b10000 M"
b10000 ,#
b10000 <#
b111 ;
b111 J"
b111 c"
b111 +#
b11 <
b11 H"
b11 f"
b11 z"
b0 P
b0 *"
b0 {"
b1 a
b1 T"
b1 !#
b10100 E
b10100 '"
b10100 E"
b10100 ~"
0_
b1000000100010011 M
b1000000100010011 (#
b1000000100010011 E#
b11000 D
b11000 t"
b11000 )#
#770
b0 k
b0 #"
b0 )"
1/"
04"
b1 X
b1 ("
b1 ."
b1 R"
b100000 ?
b100000 9#
b100000 ;#
b10100 >
b10100 =#
#780
b0 t
b0 u
b0 o
b0 p
b1 l
b1 $"
b1 &"
b100000 B
b100000 5#
b100000 8#
b0 n
#790
b1 o
b1 p
b1 s
b1 r
b1 v
b10 N
b10 <"
b10 D#
1^
#800
b1 h
b1 %"
b1 B"
b1 7#
b1 q
b1 !"
0)
#820
b11000000010010011 "
b11000000010010011 L
b11000000010010011 '#
b11000000010010011 Y#
#850
1)
#860
b10 V
b10 g"
b10 k"
1`"
b11000 I#
b1 G#
b1 m"
b11 Z"
b11 >#
b100000 !
b100000 C
b100000 &#
b100000 6#
b100000 :#
b100000 X#
b11000000010010011 M
b11000000010010011 (#
b11000000010010011 E#
b11100 D
b11100 t"
b11100 )#
b10 <
b10 H"
b10 f"
b10 z"
b11000 E
b11000 '"
b11000 E"
b11000 ~"
1_
b1 '
b1 -
b1 P#
b1 g
b1 I"
b1 P"
b1 U"
b1 *#
b10100 A
b10100 M"
b10100 ,#
b10100 <#
b11 ;
b11 J"
b11 c"
b11 +#
b111 :
b111 0#
b111 B#
b110 f
b110 /#
b110 L#
b10000 =
b10000 2#
b10000 M#
#870
b110 5
b110 S"
b110 X"
b110 C#
b110 O#
b0 `
b0 s"
b0 @#
b100100 ?
b100100 9#
b100100 ;#
b11000 >
b11000 =#
#880
b100100 B
b100100 5#
b100100 8#
#900
0)
#920
b1100101010000000100011 "
b1100101010000000100011 L
b1100101010000000100011 '#
b1100101010000000100011 Y#
#950
1)
#960
b0 V
b0 g"
b0 k"
0`"
b11 O
b11 u"
b11 J#
b1100101010 I#
b11 H#
b0 G#
b11 F#
b0 m"
1d"
b11 ["
b101 Z"
b10 5"
b10 ?"
b100011 8"
b11 ?#
b101 >#
b100100 !
b100100 C
b100100 &#
b100100 6#
b100100 :#
b100100 X#
b11 :
b11 0#
b11 B#
b1 f
b1 /#
b1 L#
b10100 =
b10100 2#
b10100 M#
b11000 A
b11000 M"
b11000 ,#
b11000 <#
b10 ;
b10 J"
b10 c"
b10 +#
b10 W
b10 Q"
b10 x"
b1 <
b1 H"
b1 f"
b1 z"
b0 a
b0 T"
b0 !#
b11100 E
b11100 '"
b11100 E"
b11100 ~"
b1100101010000000100011 M
b1100101010000000100011 (#
b1100101010000000100011 E#
b100000 D
b100000 t"
b100000 )#
#970
b1 5
b1 S"
b1 X"
b1 C#
b1 O#
b10 i
b10 >"
b10 i"
b10 A"
b110 X
b110 ("
b110 ."
b110 R"
b101000 ?
b101000 9#
b101000 ;#
b11100 >
b11100 =#
#980
b1 X
b1 ("
b1 ."
b1 R"
b110 l
b110 $"
b110 &"
b101000 B
b101000 5#
b101000 8#
16"
#990
b0 O
b0 u"
b0 J#
b0 i
b0 >"
b0 i"
b0 A"
b1 l
b1 $"
b1 &"
b110 o
b110 p
b110 s
b110 r
b110 v
03
b100 N
b100 <"
b100 D#
b10 d
b10 ="
b10 j"
b10 J
b10 ;"
b10 n"
b110 G
b110 :"
b110 o"
#1000
b1 o
b1 p
b1 s
b1 r
b1 v
0)
#1020
b10000101000001010010011 "
b10000101000001010010011 L
b10000101000001010010011 '#
b10000101000001010010011 Y#
#1030
b1 \
b1 r"
b1 A#
#1050
1)
#1060
b101 O
b101 u"
b101 J#
b10000101000 I#
b100 H#
b101 G#
b100 F#
b101 m"
b100 ["
b0 5"
b0 ?"
b10011 8"
b100 ?#
b101000 !
b101000 C
b101000 &#
b101000 6#
b101000 :#
b101000 X#
b10000101000001010010011 M
b10000101000001010010011 (#
b10000101000001010010011 E#
b100100 D
b100100 t"
b100100 )#
b0 W
b0 Q"
b0 x"
b10 K
b10 G"
b10 |"
b10 e
b10 ,"
b10 w"
b110 H
b110 F"
b110 }"
b0 <
b0 H"
b0 f"
b0 z"
b1 ]
b1 Y"
b1 "#
b100000 E
b100000 '"
b100000 E"
b100000 ~"
04
b11100 A
b11100 M"
b11100 ,#
b11100 <#
b1 ;
b1 J"
b1 c"
b1 +#
b10 :
b10 0#
b10 B#
b11000 =
b11000 2#
b11000 M#
#1070
b0 \
b0 r"
b0 A#
02"
10"
03"
11"
b0 X
b0 ("
b0 ."
b0 R"
1/"
04"
b1 U
b1 +"
b1 -"
b1 D"
b1 W"
b101100 ?
b101100 9#
b101100 ;#
b100000 >
b100000 =#
#1080
b0 l
b0 $"
b0 &"
b101100 B
b101100 5#
b101100 8#
06"
#1090
b100 O
b100 u"
b100 J#
b0 o
b0 p
b0 s
b0 r
b0 v
13
b10 N
b10 <"
b10 D#
b0 d
b0 ="
b0 j"
b0 J
b0 ;"
b0 n"
b0 G
b0 :"
b0 o"
#1100
b0 h
b0 %"
b0 B"
b0 7#
b0 q
b0 !"
0)
#1120
b11111111111100111000001110010011 "
b11111111111100111000001110010011 L
b11111111111100111000001110010011 '#
b11111111111100111000001110010011 Y#
#1150
1)
