cpu/cpu_tb.vcd
$date
	Thu Jun 12 21:31:09 2025
$end
$version
	Icarus Verilog
$end
$timescale
	100ps
$end
$scope module cpu_tb $end
$var wire 32 ! PC [31:0] $end
$var wire 32 " INST [31:0] $end
$var wire 3 # DMEM_WRITE [2:0] $end
$var wire 4 $ DMEM_READ [3:0] $end
$var wire 32 % DMEM_DATA_WRITE [31:0] $end
$var wire 32 & DMEM_DATA_READ [31:0] $end
$var wire 32 ' DMEM_ADDR [31:0] $end
$var wire 1 ( BUSYWAIT $end
$var reg 1 ) CLK $end
$var reg 1 * RST $end
$scope module cpu_inst $end
$var wire 1 + BUSYWAIT $end
$var wire 1 , BUSYWAIT_OUT $end
$var wire 1 ) CLK $end
$var wire 32 - DMEM_ADDR_MA [31:0] $end
$var wire 32 . DMEM_DATA_WRITE_MA [31:0] $end
$var wire 4 / DMEM_READ_MA [3:0] $end
$var wire 3 0 DMEM_WRITE_MA [2:0] $end
$var wire 1 * RST $end
$var wire 1 1 WRITE_EN_WB $end
$var wire 1 2 WRITE_EN_MA $end
$var wire 1 3 WRITE_EN_ID $end
$var wire 1 4 WRITE_EN_EX $end
$var wire 32 5 WRITE_DATA_WB [31:0] $end
$var wire 2 6 WB_SEL_WB [1:0] $end
$var wire 2 7 WB_SEL_MA [1:0] $end
$var wire 2 8 WB_SEL_ID [1:0] $end
$var wire 2 9 WB_SEL_EX [1:0] $end
$var wire 5 : WADDR_WB [4:0] $end
$var wire 5 ; WADDR_MA [4:0] $end
$var wire 5 < WADDR_EX [4:0] $end
$var wire 32 = PC_WB [31:0] $end
$var wire 32 > PC_PLUS_4_MA [31:0] $end
$var wire 32 ? PC_PLUS_4_IF [31:0] $end
$var wire 1 @ PC_MUX_SEL_EX $end
$var wire 32 A PC_MA [31:0] $end
$var wire 32 B PC_INT_IF [31:0] $end
$var wire 32 C PC_IF [31:0] $end
$var wire 32 D PC_ID [31:0] $end
$var wire 32 E PC_EX [31:0] $end
$var wire 3 F MEM_WRITE_MA [2:0] $end
$var wire 3 G MEM_WRITE_ID [2:0] $end
$var wire 3 H MEM_WRITE_EX [2:0] $end
$var wire 4 I MEM_READ_MA [3:0] $end
$var wire 4 J MEM_READ_ID [3:0] $end
$var wire 4 K MEM_READ_EX [3:0] $end
$var wire 32 L INST_IF [31:0] $end
$var wire 32 M INST_ID [31:0] $end
$var wire 4 N IMM_SEL_ID [3:0] $end
$var wire 32 O IMM_ID [31:0] $end
$var wire 32 P IMM_EX [31:0] $end
$var wire 1 Q HAZARD_STALL $end
$var wire 1 R HAZARD_BUBBLE $end
$var wire 2 S FORWARDING_DATA2_SEL_ID [1:0] $end
$var wire 2 T FORWARDING_DATA2_SEL_EX [1:0] $end
$var wire 32 U FORWARDING_DATA2 [31:0] $end
$var wire 2 V FORWARDING_DATA1_SEL_ID [1:0] $end
$var wire 2 W FORWARDING_DATA1_SEL_EX [1:0] $end
$var wire 32 X FORWARDING_DATA1 [31:0] $end
$var wire 32 Y DMEM_DATA_READ_WB [31:0] $end
$var wire 32 Z DMEM_DATA_READ_MA [31:0] $end
$var wire 32 [ DATA2_MA [31:0] $end
$var wire 32 \ DATA2_ID [31:0] $end
$var wire 32 ] DATA2_EX [31:0] $end
$var wire 1 ^ DATA2_ALU_SEL_ID $end
$var wire 1 _ DATA2_ALU_SEL_EX $end
$var wire 32 ` DATA1_ID [31:0] $end
$var wire 32 a DATA1_EX [31:0] $end
$var wire 1 b DATA1_ALU_SEL_ID $end
$var wire 1 c DATA1_ALU_SEL_EX $end
$var wire 1 ( BUSYWAIT_IN $end
$var wire 4 d BRANCH_JUMP_ID [3:0] $end
$var wire 4 e BRANCH_JUMP_EX [3:0] $end
$var wire 32 f ALU_OUT_WB [31:0] $end
$var wire 32 g ALU_OUT_MA [31:0] $end
$var wire 32 h ALU_OUT_EX [31:0] $end
$var wire 5 i ALU_OP_ID [4:0] $end
$var wire 5 j ALU_OP_EX [4:0] $end
$var wire 32 k ALU_DATA2_EX [31:0] $end
$var wire 32 l ALU_DATA1_EX [31:0] $end
$scope module alu_inst $end
$var wire 1 m do_add_sub $end
$var wire 1 n do_compare $end
$var wire 1 o do_div $end
$var wire 1 p do_logic $end
$var wire 1 q do_mul $end
$var wire 1 r do_shifts $end
$var wire 32 s safe_div_op2 [31:0] $end
$var wire 64 t mulhu_prod [63:0] $end
$var wire 64 u mulhsu_prod [63:0] $end
$var wire 64 v mulh_prod [63:0] $end
$var wire 64 w mul_prod_ss [63:0] $end
$var wire 32 x mul_op2 [31:0] $end
$var wire 32 y mul_op1 [31:0] $end
$var wire 32 z divu_remainder [31:0] $end
$var wire 32 { divu_quotient [31:0] $end
$var wire 32 | div_remainder [31:0] $end
$var wire 32 } div_quotient [31:0] $end
$var wire 32 ~ div_op2 [31:0] $end
$var wire 32 !" div_op1 [31:0] $end
$var wire 5 "" SELECT [4:0] $end
$var wire 32 #" DATA2 [31:0] $end
$var wire 32 $" DATA1 [31:0] $end
$var reg 32 %" RESULT [31:0] $end
$var reg 32 &" addData [31:0] $end
$var reg 32 '" andData [31:0] $end
$var reg 32 (" divData [31:0] $end
$var reg 32 )" divuData [31:0] $end
$var reg 32 *" mulData [31:0] $end
$var reg 32 +" mulhData [31:0] $end
$var reg 32 ," mulhsuData [31:0] $end
$var reg 32 -" mulhuData [31:0] $end
$var reg 32 ." orData [31:0] $end
$var reg 32 /" remData [31:0] $end
$var reg 32 0" remuData [31:0] $end
$var reg 32 1" sllData [31:0] $end
$var reg 32 2" sltData [31:0] $end
$var reg 32 3" sltuData [31:0] $end
$var reg 32 4" sraData [31:0] $end
$var reg 32 5" srlData [31:0] $end
$var reg 32 6" subData [31:0] $end
$var reg 32 7" xorData [31:0] $end
$upscope $end
$scope module alu_mux_1 $end
$var wire 1 c sel $end
$var wire 32 8" out [31:0] $end
$var wire 32 9" data2 [31:0] $end
$var wire 32 :" data1 [31:0] $end
$upscope $end
$scope module alu_mux_2 $end
$var wire 1 _ sel $end
$var wire 32 ;" out [31:0] $end
$var wire 32 <" data2 [31:0] $end
$var wire 32 =" data1 [31:0] $end
$upscope $end
$scope module branch_logic_inst $end
$var wire 4 >" op [3:0] $end
$var wire 32 ?" data2 [31:0] $end
$var wire 32 @" data1 [31:0] $end
$var wire 1 A" BNE $end
$var wire 1 B" BLTU $end
$var wire 1 C" BLT $end
$var wire 1 D" BGEU $end
$var wire 1 E" BGE $end
$var wire 1 F" BEQ $end
$var reg 1 @ out $end
$upscope $end
$scope module control_unit_inst $end
$var wire 1 b data1_alu_sel $end
$var wire 1 ^ data2_alu_sel $end
$var wire 3 G" funct3 [2:0] $end
$var wire 1 H" funct3_mux_select $end
$var wire 7 I" funct7 [6:0] $end
$var wire 7 J" opcode [6:0] $end
$var wire 1 3 reg_write_en $end
$var wire 1 * reset $end
$var wire 2 K" wb_sel [1:0] $end
$var wire 3 L" mem_write [2:0] $end
$var wire 4 M" mem_read [3:0] $end
$var wire 4 N" imm_sel [3:0] $end
$var wire 4 O" branch_jump [3:0] $end
$var wire 5 P" alu_op [4:0] $end
$scope module funct3_mux $end
$var wire 3 Q" data1 [2:0] $end
$var wire 3 R" data2 [2:0] $end
$var wire 1 H" sel $end
$var wire 3 S" out [2:0] $end
$upscope $end
$upscope $end
$scope module ex_mem_pipeline_reg_inst $end
$var wire 32 T" alu_result_in [31:0] $end
$var wire 1 + busywait $end
$var wire 1 ) clk $end
$var wire 1 * rst $end
$var wire 2 U" wb_sel_in [1:0] $end
$var wire 1 4 reg_write_in $end
$var wire 32 V" read_data2_in [31:0] $end
$var wire 32 W" pc_in [31:0] $end
$var wire 3 X" mem_write_in [2:0] $end
$var wire 4 Y" mem_read_in [3:0] $end
$var wire 5 Z" dest_addr_in [4:0] $end
$var reg 32 [" alu_result_out [31:0] $end
$var reg 5 \" dest_addr_out [4:0] $end
$var reg 4 ]" mem_read_out [3:0] $end
$var reg 3 ^" mem_write_out [2:0] $end
$var reg 32 _" pc_out [31:0] $end
$var reg 32 `" read_data2_out [31:0] $end
$var reg 1 2 reg_write_out $end
$var reg 2 a" wb_sel_out [1:0] $end
$upscope $end
$scope module forwarding_mux_1 $end
$var wire 32 b" data2 [31:0] $end
$var wire 2 c" sel [1:0] $end
$var wire 32 d" out [31:0] $end
$var wire 32 e" data3 [31:0] $end
$var wire 32 f" data1 [31:0] $end
$upscope $end
$scope module forwarding_mux_2 $end
$var wire 32 g" data2 [31:0] $end
$var wire 2 h" sel [1:0] $end
$var wire 32 i" out [31:0] $end
$var wire 32 j" data3 [31:0] $end
$var wire 32 k" data1 [31:0] $end
$upscope $end
$scope module hazard_unit_inst $end
$var wire 5 l" addr1 [4:0] $end
$var wire 5 m" addr2 [4:0] $end
$var wire 1 n" ex_hazard_rs1 $end
$var wire 1 o" ex_hazard_rs2 $end
$var wire 1 p" ex_memr $end
$var wire 1 q" load_use_hazard $end
$var wire 1 r" mem_hazard_rs1 $end
$var wire 1 s" mem_hazard_rs2 $end
$var wire 5 t" mem_rd [4:0] $end
$var wire 1 2 mem_we $end
$var wire 1 u" rs2_used $end
$var wire 1 v" rs1_used $end
$var wire 1 4 ex_we $end
$var wire 5 w" ex_rd [4:0] $end
$var reg 1 R bubble $end
$var reg 2 x" forwarding_data1sel [1:0] $end
$var reg 2 y" forwarding_data2sel [1:0] $end
$var reg 1 Q stall $end
$upscope $end
$scope module id_ex_pipeline_reg_inst $end
$var wire 5 z" aluop_in [4:0] $end
$var wire 4 {" branch_jump_in [3:0] $end
$var wire 1 + busywait $end
$var wire 1 ) clk $end
$var wire 1 b data1_alu_sel_in $end
$var wire 2 |" data1sel_in [1:0] $end
$var wire 1 ^ data2_alu_sel_in $end
$var wire 2 }" data2sel_in [1:0] $end
$var wire 5 ~" dest_addr_in [4:0] $end
$var wire 4 !# mem_read_in [3:0] $end
$var wire 3 "# mem_write_in [2:0] $end
$var wire 1 3 reg_write_en_in $end
$var wire 1 ## rst $end
$var wire 2 $# wb_sel_in [1:0] $end
$var wire 32 %# read_data2_in [31:0] $end
$var wire 32 &# read_data1_in [31:0] $end
$var wire 32 '# pc_in [31:0] $end
$var wire 32 (# imm_in [31:0] $end
$var reg 5 )# aluop_out [4:0] $end
$var reg 4 *# branch_jump_out [3:0] $end
$var reg 1 c data1_alu_sel_out $end
$var reg 2 +# data1sel_out [1:0] $end
$var reg 1 _ data2_alu_sel_out $end
$var reg 2 ,# data2sel_out [1:0] $end
$var reg 5 -# dest_addr_out [4:0] $end
$var reg 32 .# imm_out [31:0] $end
$var reg 4 /# mem_read_out [3:0] $end
$var reg 3 0# mem_write_out [2:0] $end
$var reg 32 1# pc_out [31:0] $end
$var reg 32 2# read_data1_out [31:0] $end
$var reg 32 3# read_data2_out [31:0] $end
$var reg 1 4 reg_write_en_out $end
$var reg 2 4# wb_sel_out [1:0] $end
$upscope $end
$scope module if_id_pipeline_reg_inst $end
$var wire 1 5# busywait $end
$var wire 1 ) clk $end
$var wire 1 6# rst $end
$var wire 32 7# pc_in [31:0] $end
$var wire 32 8# instr_in [31:0] $end
$var reg 32 9# instr_out [31:0] $end
$var reg 32 :# pc_out [31:0] $end
$upscope $end
$scope module mem_wb_pipeline_reg_inst $end
$var wire 32 ;# alu_result_in [31:0] $end
$var wire 1 + busywait $end
$var wire 1 ) clk $end
$var wire 5 <# dest_addr_in [4:0] $end
$var wire 32 =# pc_in [31:0] $end
$var wire 1 2 reg_write_in $end
$var wire 1 * rst $end
$var wire 2 ># wb_sel_in [1:0] $end
$var wire 32 ?# mem_data_in [31:0] $end
$var reg 32 @# alu_result_out [31:0] $end
$var reg 5 A# dest_addr_out [4:0] $end
$var reg 32 B# mem_data_out [31:0] $end
$var reg 32 C# pc_out [31:0] $end
$var reg 1 1 reg_write_out $end
$var reg 2 D# wb_sel_out [1:0] $end
$upscope $end
$scope module pc_inst $end
$var wire 1 E# busywait $end
$var wire 1 ) clk $end
$var wire 1 * rst $end
$var wire 32 F# pc_in [31:0] $end
$var reg 32 G# pc_out [31:0] $end
$upscope $end
$scope module pc_mux $end
$var wire 32 H# data2 [31:0] $end
$var wire 1 @ sel $end
$var wire 32 I# out [31:0] $end
$var wire 32 J# data1 [31:0] $end
$upscope $end
$scope module pc_plus_4 $end
$var wire 32 K# data [31:0] $end
$var wire 32 L# out [31:0] $end
$upscope $end
$scope module pc_plus_4_ma $end
$var wire 32 M# data [31:0] $end
$var wire 32 N# out [31:0] $end
$upscope $end
$scope module reg_files_inst $end
$var wire 5 O# addr1 [4:0] $end
$var wire 5 P# addr2 [4:0] $end
$var wire 1 ) clk $end
$var wire 32 Q# data1 [31:0] $end
$var wire 32 R# data2 [31:0] $end
$var wire 1 * rst $end
$var wire 5 S# waddr [4:0] $end
$var wire 1 1 we $end
$var wire 32 T# wd [31:0] $end
$upscope $end
$scope module sign_extender_inst $end
$var wire 4 U# imm_sel [3:0] $end
$var wire 32 V# inst [31:0] $end
$var wire 5 W# TYPE6 [4:0] $end
$var wire 12 X# TYPE5 [11:0] $end
$var wire 12 Y# TYPE3 [11:0] $end
$var wire 20 Z# TYPE1 [19:0] $end
$var reg 32 [# imm_ext [31:0] $end
$upscope $end
$scope module wb_mux $end
$var wire 32 \# data1 [31:0] $end
$var wire 32 ]# data2 [31:0] $end
$var wire 32 ^# data3 [31:0] $end
$var wire 2 _# sel [1:0] $end
$var wire 32 `# out [31:0] $end
$upscope $end
$upscope $end
$scope module dmem_inst $end
$var wire 32 a# address [31:0] $end
$var wire 1 ) clock $end
$var wire 4 b# read [3:0] $end
$var wire 1 * reset $end
$var wire 3 c# write [2:0] $end
$var wire 32 d# writedata [31:0] $end
$var reg 1 ( busywait $end
$var reg 1 e# readaccess $end
$var reg 32 f# readdata [31:0] $end
$var reg 1 g# writeaccess $end
$var integer 32 h# i [31:0] $end
$upscope $end
$scope module imem_inst $end
$var wire 1 ) clk $end
$var wire 32 i# pc [31:0] $end
$var wire 1 * rst $end
$var reg 32 j# instr [31:0] $end
$upscope $end
$upscope $end
$enddefinitions $end
$comment Show the parameter values. $end
$dumpall
$end
#0
$dumpvars
b0 j#
bx i#
b100000000 h#
0g#
bx f#
0e#
bx d#
bx c#
bx b#
bx a#
bx `#
bx _#
bx ^#
bx ]#
bx \#
bx [#
bx Z#
bx Y#
bx X#
bx W#
bx V#
bx U#
bx T#
bx S#
bx R#
bx Q#
bx P#
bx O#
bx N#
bx M#
bx L#
bx K#
bx J#
bx I#
bx H#
bx G#
bx F#
xE#
bx D#
bx C#
bx B#
bx A#
bx @#
bx ?#
bx >#
bx =#
bx <#
bx ;#
bx :#
bx 9#
b0 8#
bx 7#
16#
x5#
bx 4#
bx 3#
bx 2#
bx 1#
bx 0#
bx /#
bx .#
bx -#
bx ,#
bx +#
bx *#
bx )#
bx (#
bx '#
bx &#
bx %#
bx $#
1##
bx "#
bx !#
bx ~"
bx }"
bx |"
bx {"
bx z"
bx y"
bx x"
bx w"
xv"
xu"
bx t"
xs"
xr"
xq"
xp"
xo"
xn"
bx m"
bx l"
bx k"
bx j"
bx i"
bx h"
bx g"
bx f"
bx e"
bx d"
bx c"
bx b"
bx a"
bx `"
bx _"
bx ^"
bx ]"
bx \"
bx ["
bx Z"
bx Y"
bx X"
bx W"
bx V"
bx U"
bx T"
bx S"
b0 R"
bx Q"
bx P"
bx O"
bx N"
bx M"
bx L"
bx K"
bx J"
bx I"
xH"
bx G"
xF"
xE"
xD"
xC"
xB"
xA"
bx @"
bx ?"
bx >"
bx ="
bx <"
bx ;"
bx :"
bx 9"
bx 8"
bx 7"
bx 6"
bx 5"
bx 4"
bx 3"
bx 2"
bx 1"
bx 0"
bx /"
bx ."
bx -"
bx ,"
bx +"
bx *"
bx )"
bx ("
bx '"
bx &"
bx %"
bx $"
bx #"
bx ""
bx !"
bx ~
bx }
bx |
bx {
bx z
bx y
bx x
bx w
bx v
bx u
bx t
bx s
xr
xq
xp
xo
xn
xm
bx l
bx k
bx j
bx i
bx h
bx g
bx f
bx e
bx d
xc
xb
bx a
bx `
x_
x^
bx ]
bx \
bx [
bx Z
bx Y
bx X
bx W
bx V
bx U
bx T
bx S
xR
xQ
bx P
bx O
bx N
bx M
b0 L
bx K
bx J
bx I
bx H
bx G
bx F
bx E
bx D
bx C
bx B
bx A
x@
bx ?
bx >
bx =
bx <
bx ;
bx :
bx 9
bx 8
bx 7
bx 6
bx 5
x4
x3
x2
x1
bx 0
bx /
bx .
bx -
z,
0+
1*
0)
0(
bx '
bx &
bx %
bx $
bx #
b0 "
bx !
$end
#30
03
#50
b0 !
b0 C
b0 7#
b0 G#
b0 K#
b0 i#
1)
#60
05#
0E#
b1 s
0Q
0R
b0 S
b0 y"
b0 }"
b0 V
b0 x"
b0 |"
0q"
b0 z
b0 {
b0 |
b0 }
b0 t
b0 u
b0 v
b0 !"
b0 ~
b0 y
b0 x
b0 w
0o"
0n"
0r"
0s"
b0 O
b0 (#
b0 [#
b0 Z#
b0 Y#
b0 X#
b0 W#
b0 ~"
0u"
b0 m"
0v"
b0 l"
b0 I"
b0 G"
b0 Q"
b0 J"
b0 P#
b0 O#
0p"
0o
0q
0n
0p
0r
1m
bx h
bx %"
bx T"
bx H#
b0 0"
b0 /"
b0 )"
b0 ("
b0 -"
b0 ,"
b0 +"
b0 *"
b0 '"
b0 ."
b0 7"
b0 3"
b0 2"
b0 4"
b0 5"
b0 1"
b0 6"
bx &"
b0 M
b0 9#
b0 V#
b0 D
b0 '#
b0 :#
b0 T
b0 h"
b0 ,#
b0 W
b0 c"
b0 +#
b0 9
b0 U"
b0 4#
b0 K
b0 Y"
b0 /#
b0 e
b0 >"
b0 *#
b0 H
b0 X"
b0 0#
b0 j
b0 ""
b0 )#
b0 <
b0 Z"
b0 w"
b0 -#
b0 P
b0 <"
b0 .#
b0 ]
b0 k"
b0 3#
b0 a
b0 f"
b0 2#
b0 E
b0 9"
b0 W"
b0 1#
0_
0c
04
b0 7
b0 a"
b0 >#
b0 $
b0 /
b0 b#
b0 I
b0 ]"
b0 #
b0 0
b0 c#
b0 F
b0 ^"
b0 %
b0 .
b0 d#
b0 [
b0 `"
b0 '
b0 -
b0 a#
b0 g
b0 ["
b0 b"
b0 g"
b0 ;#
b0 A
b0 _"
b0 =#
b0 M#
b0 ;
b0 \"
b0 t"
b0 <#
02
b0 6
b0 D#
b0 _#
b0 :
b0 A#
b0 S#
b0 f
b0 @#
b0 ]#
b0 Y
b0 B#
b0 \#
b0 =
b0 C#
b0 ^#
01
b100 ?
b100 J#
b100 L#
#70
bx000 i
bx000 P"
bx000 z"
b0 S"
b0 \
b0 %#
b0 R#
b0 `
b0 &#
b0 Q#
1D"
0B"
1E"
0C"
0A"
1F"
b0 U
b0 ="
b0 ?"
b0 V"
b0 i"
b0 X
b0 :"
b0 @"
b0 d"
b0 5
b0 e"
b0 j"
b0 T#
b0 `#
b100 >
b100 N#
#80
b0 h
b0 %"
b0 T"
b0 H#
b0 &"
b0 k
b0 #"
b0 ;"
b0 l
b0 $"
b0 8"
0H"
0@
#90
b100 B
b100 F#
b100 I#
0^
b0xxx N
b0xxx N"
b0xxx U#
0b
b0 d
b0 O"
b0 {"
b0 i
b0 P"
b0 z"
b1 8
b1 K"
b1 $#
b0 G
b0 L"
b0 "#
b0 J
b0 M"
b0 !#
#100
b100000000 h#
0)
#150
0##
06#
1)
0*
#160
b100 !
b100 C
b100 7#
b100 G#
b100 K#
b100 i#
bx Y
bx B#
bx \#
#170
bx 5
bx e"
bx j"
bx T#
bx `#
b1000 ?
b1000 J#
b1000 L#
#180
b1000 B
b1000 F#
b1000 I#
#200
0)
#220
b100000000000010010011 "
b100000000000010010011 L
b100000000000010010011 8#
b100000000000010010011 j#
#250
1)
#260
b100000000 Z#
b1 Y#
b1 X#
b1 W#
b1 ~"
1u"
b1 m"
b10011 J"
b1 P#
b1000 !
b1000 C
b1000 7#
b1000 G#
b1000 K#
b1000 i#
b100000000000010010011 M
b100000000000010010011 9#
b100000000000010010011 V#
b100 D
b100 '#
b100 :#
b1 9
b1 U"
b1 4#
#270
b1100 ?
b1100 J#
b1100 L#
#280
b1100 B
b1100 F#
b1100 I#
#290
b1 O
b1 (#
b1 [#
b10 N
b10 N"
b10 U#
1^
13
#300
0)
#320
b100010011 "
b100010011 L
b100010011 8#
b100010011 j#
#350
1)
#360
b0 O
b0 (#
b0 [#
b0 Z#
b0 Y#
b10 X#
b0 W#
b10 ~"
0u"
b0 m"
b0 P#
b1100 !
b1100 C
b1100 7#
b1100 G#
b1100 K#
b1100 i#
b1 7
b1 a"
b1 >#
b1 <
b1 Z"
b1 w"
b1 -#
b1 P
b1 <"
b1 .#
b100 E
b100 9"
b100 W"
b100 1#
1_
14
b100010011 M
b100010011 9#
b100010011 V#
b1000 D
b1000 '#
b1000 :#
#370
b1 h
b1 %"
b1 T"
b1 H#
b1 &"
b1 k
b1 #"
b1 ;"
b10000 ?
b10000 J#
b10000 L#
#380
b10000 B
b10000 F#
b10000 I#
#400
0)
#420
b1010010011 "
b1010010011 L
b1010010011 8#
b1010010011 j#
#450
1)
#460
b101 X#
b101 ~"
b10000 !
b10000 C
b10000 7#
b10000 G#
b10000 K#
b10000 i#
b1010010011 M
b1010010011 9#
b1010010011 V#
b1100 D
b1100 '#
b1100 :#
b10 <
b10 Z"
b10 w"
b10 -#
b0 P
b0 <"
b0 .#
b1000 E
b1000 9"
b1000 W"
b1000 1#
b1 '
b1 -
b1 a#
b1 g
b1 ["
b1 b"
b1 g"
b1 ;#
b100 A
b100 _"
b100 =#
b100 M#
b1 ;
b1 \"
b1 t"
b1 <#
12
b1 6
b1 D#
b1 _#
#470
b0 h
b0 %"
b0 T"
b0 H#
b0 &"
b0 k
b0 #"
b0 ;"
b0 5
b0 e"
b0 j"
b0 T#
b0 `#
b10100 ?
b10100 J#
b10100 L#
b1000 >
b1000 N#
#480
b10100 B
b10100 F#
b10100 I#
#500
0)
#520
b11000000000001110010011 "
b11000000000001110010011 L
b11000000000001110010011 8#
b11000000000001110010011 j#
#550
1)
#560
b110 O
b110 (#
b110 [#
b11000000000 Z#
b110 Y#
b111 X#
b110 W#
b111 ~"
1u"
b110 m"
b110 P#
b10100 !
b10100 C
b10100 7#
b10100 G#
b10100 K#
b10100 i#
b1 :
b1 A#
b1 S#
b1 f
b1 @#
b1 ]#
b100 =
b100 C#
b100 ^#
11
b0 '
b0 -
b0 a#
b0 g
b0 ["
b0 b"
b0 g"
b0 ;#
b1000 A
b1000 _"
b1000 =#
b1000 M#
b10 ;
b10 \"
b10 t"
b10 <#
b101 <
b101 Z"
b101 w"
b101 -#
b1100 E
b1100 9"
b1100 W"
b1100 1#
b11000000000001110010011 M
b11000000000001110010011 9#
b11000000000001110010011 V#
b10000 D
b10000 '#
b10000 :#
#570
b1 5
b1 e"
b1 j"
b1 T#
b1 `#
b11000 ?
b11000 J#
b11000 L#
b1100 >
b1100 N#
#580
b11000 B
b11000 F#
b11000 I#
#600
0)
#620
b1000001000000110110011 "
b1000001000000110110011 L
b1000001000000110110011 8#
b1000001000000110110011 j#
#650
1)
#660
b10 O
b10 (#
b10 [#
b1000001000 Z#
b10 Y#
b11 X#
b10 W#
b11 ~"
b10 m"
1v"
b1 l"
b110011 J"
b10 P#
b1 O#
b11000 !
b11000 C
b11000 7#
b11000 G#
b11000 K#
b11000 i#
b1000001000000110110011 M
b1000001000000110110011 9#
b1000001000000110110011 V#
b10100 D
b10100 '#
b10100 :#
b111 <
b111 Z"
b111 w"
b111 -#
b110 P
b110 <"
b110 .#
b10000 E
b10000 9"
b10000 W"
b10000 1#
b1100 A
b1100 _"
b1100 =#
b1100 M#
b101 ;
b101 \"
b101 t"
b101 <#
b10 :
b10 A#
b10 S#
b0 f
b0 @#
b0 ]#
b1000 =
b1000 C#
b1000 ^#
#670
b110 h
b110 %"
b110 T"
b110 H#
b110 &"
b0 5
b0 e"
b0 j"
b0 T#
b0 `#
b1 `
b1 &#
b1 Q#
b110 k
b110 #"
b110 ;"
b11100 ?
b11100 J#
b11100 L#
b10000 >
b10000 N#
#680
b11100 B
b11100 F#
b11100 I#
#690
b0 O
b0 (#
b0 [#
b0xxx N
b0xxx N"
b0xxx U#
0^
#700
0)
#720
b1000000100010011 "
b1000000100010011 L
b1000000100010011 8#
b1000000100010011 j#
#750
1)
#760
b1000 Z#
b0 Y#
b10 X#
b0 W#
b10 ~"
0u"
b0 m"
b10011 J"
b0 P#
b11100 !
b11100 C
b11100 7#
b11100 G#
b11100 K#
b11100 i#
b101 :
b101 A#
b101 S#
b1100 =
b1100 C#
b1100 ^#
b110 '
b110 -
b110 a#
b110 g
b110 ["
b110 b"
b110 g"
b110 ;#
b10000 A
b10000 _"
b10000 =#
b10000 M#
b111 ;
b111 \"
b111 t"
b111 <#
b11 <
b11 Z"
b11 w"
b11 -#
b0 P
b0 <"
b0 .#
b1 a
b1 f"
b1 2#
b10100 E
b10100 9"
b10100 W"
b10100 1#
0_
b1000000100010011 M
b1000000100010011 9#
b1000000100010011 V#
b11000 D
b11000 '#
b11000 :#
#770
b0 h
b0 %"
b0 T"
b0 H#
b0 &"
b0 k
b0 #"
b0 ;"
1A"
0F"
b1 X
b1 :"
b1 @"
b1 d"
b100000 ?
b100000 J#
b100000 L#
b10100 >
b10100 N#
#780
b1 h
b1 %"
b1 T"
b1 H#
b1 &"
b1 l
b1 $"
b1 8"
b100000 B
b100000 F#
b100000 I#
#790
b10 N
b10 N"
b10 U#
1^
#800
0)
#820
b11000000010010011 "
b11000000010010011 L
b11000000010010011 8#
b11000000010010011 j#
#850
1)
#860
b10 V
b10 x"
b10 |"
1r"
b11000 Z#
b1 X#
b1 ~"
b11 l"
b11 O#
b100000 !
b100000 C
b100000 7#
b100000 G#
b100000 K#
b100000 i#
b11000000010010011 M
b11000000010010011 9#
b11000000010010011 V#
b11100 D
b11100 '#
b11100 :#
b10 <
b10 Z"
b10 w"
b10 -#
b11000 E
b11000 9"
b11000 W"
b11000 1#
1_
b1 '
b1 -
b1 a#
b1 g
b1 ["
b1 b"
b1 g"
b1 ;#
b10100 A
b10100 _"
b10100 =#
b10100 M#
b11 ;
b11 \"
b11 t"
b11 <#
b111 :
b111 A#
b111 S#
b110 f
b110 @#
b110 ]#
b10000 =
b10000 C#
b10000 ^#
#870
b110 5
b110 e"
b110 j"
b110 T#
b110 `#
b0 `
b0 &#
b0 Q#
b100100 ?
b100100 J#
b100100 L#
b11000 >
b11000 N#
#880
b100100 B
b100100 F#
b100100 I#
#900
0)
#920
b1100101010000000100011 "
b1100101010000000100011 L
b1100101010000000100011 8#
b1100101010000000100011 j#
#950
1)
#960
b0 V
b0 x"
b0 |"
0r"
b11 O
b11 (#
b11 [#
b1100101010 Z#
b11 Y#
b0 X#
b11 W#
b0 ~"
1u"
b11 m"
b101 l"
b10 G"
b10 Q"
b100011 J"
b11 P#
b101 O#
b100100 !
b100100 C
b100100 7#
b100100 G#
b100100 K#
b100100 i#
b11 :
b11 A#
b11 S#
b1 f
b1 @#
b1 ]#
b10100 =
b10100 C#
b10100 ^#
b11000 A
b11000 _"
b11000 =#
b11000 M#
b10 ;
b10 \"
b10 t"
b10 <#
b10 W
b10 c"
b10 +#
b1 <
b1 Z"
b1 w"
b1 -#
b0 a
b0 f"
b0 2#
b11100 E
b11100 9"
b11100 W"
b11100 1#
b1100101010000000100011 M
b1100101010000000100011 9#
b1100101010000000100011 V#
b100000 D
b100000 '#
b100000 :#
#970
b1 5
b1 e"
b1 j"
b1 T#
b1 `#
b10 i
b10 P"
b10 z"
b10 S"
b110 X
b110 :"
b110 @"
b110 d"
b101000 ?
b101000 J#
b101000 L#
b11100 >
b11100 N#
#980
b110 h
b110 %"
b110 T"
b110 H#
b110 &"
b1 X
b1 :"
b1 @"
b1 d"
b110 l
b110 $"
b110 8"
b101000 B
b101000 F#
b101000 I#
1H"
#990
b1 h
b1 %"
b1 T"
b1 H#
b1 &"
b0 O
b0 (#
b0 [#
b0 i
b0 P"
b0 z"
b0 S"
b1 l
b1 $"
b1 8"
03
b100 N
b100 N"
b100 U#
b10 d
b10 O"
b10 {"
b10 J
b10 M"
b10 !#
b110 G
b110 L"
b110 "#
#1000
0)
#1020
b10000101000001010010011 "
b10000101000001010010011 L
b10000101000001010010011 8#
b10000101000001010010011 j#
#1030
b1 \
b1 %#
b1 R#
#1050
1)
#1060
b101 O
b101 (#
b101 [#
b10000101000 Z#
b100 Y#
b101 X#
b100 W#
b101 ~"
b100 m"
b0 G"
b0 Q"
b10011 J"
b100 P#
b101000 !
b101000 C
b101000 7#
b101000 G#
b101000 K#
b101000 i#
b10000101000001010010011 M
b10000101000001010010011 9#
b10000101000001010010011 V#
b100100 D
b100100 '#
b100100 :#
b0 W
b0 c"
b0 +#
b10 K
b10 Y"
b10 /#
b10 e
b10 >"
b10 *#
b110 H
b110 X"
b110 0#
b0 <
b0 Z"
b0 w"
b0 -#
b1 ]
b1 k"
b1 3#
b100000 E
b100000 9"
b100000 W"
b100000 1#
04
b11100 A
b11100 _"
b11100 =#
b11100 M#
b1 ;
b1 \"
b1 t"
b1 <#
b10 :
b10 A#
b10 S#
b11000 =
b11000 C#
b11000 ^#
#1070
b0 \
b0 %#
b0 R#
0D"
1B"
0E"
1C"
b0 X
b0 :"
b0 @"
b0 d"
1A"
0F"
b1 U
b1 ="
b1 ?"
b1 V"
b1 i"
b101100 ?
b101100 J#
b101100 L#
b100000 >
b100000 N#
#1080
b0 h
b0 %"
b0 T"
b0 H#
b0 &"
b0 l
b0 $"
b0 8"
b101100 B
b101100 F#
b101100 I#
0H"
