cpu/cpu_tb.vcd
$date
	Fri May 16 09:06:02 2025
$end
$version
	Icarus Verilog
$end
$timescale
	100ps
$end
$scope module cpu_tb $end
$var wire 32 ! PC [31:0] $end
$var wire 32 " INST [31:0] $end
$var wire 3 # DMEM_WRITE [2:0] $end
$var wire 4 $ DMEM_READ [3:0] $end
$var wire 32 % DMEM_DATA_WRITE [31:0] $end
$var wire 32 & DMEM_DATA_READ [31:0] $end
$var wire 32 ' DMEM_ADDR [31:0] $end
$var wire 1 ( BUSYWAIT $end
$var reg 1 ) CLK $end
$var reg 1 * RST $end
$scope module cpu_inst $end
$var wire 1 + BUSYWAIT $end
$var wire 1 , BUSYWAIT_OUT $end
$var wire 1 ) CLK $end
$var wire 32 - DMEM_ADDR_MA [31:0] $end
$var wire 32 . DMEM_DATA_WRITE_MA [31:0] $end
$var wire 4 / DMEM_READ_MA [3:0] $end
$var wire 3 0 DMEM_WRITE_MA [2:0] $end
$var wire 1 * RST $end
$var wire 1 1 WRITE_EN_WB $end
$var wire 1 2 WRITE_EN_MA $end
$var wire 1 3 WRITE_EN_ID $end
$var wire 1 4 WRITE_EN_EX $end
$var wire 32 5 WRITE_DATA_WB [31:0] $end
$var wire 2 6 WB_SEL_WB [1:0] $end
$var wire 2 7 WB_SEL_MA [1:0] $end
$var wire 2 8 WB_SEL_ID [1:0] $end
$var wire 2 9 WB_SEL_EX [1:0] $end
$var wire 5 : WADDR_WB [4:0] $end
$var wire 5 ; WADDR_MA [4:0] $end
$var wire 5 < WADDR_EX [4:0] $end
$var wire 32 = PC_WB [31:0] $end
$var wire 32 > PC_PLUS_4_MA [31:0] $end
$var wire 32 ? PC_PLUS_4_IF [31:0] $end
$var wire 1 @ PC_MUX_SEL_EX $end
$var wire 32 A PC_MA [31:0] $end
$var wire 32 B PC_INT_IF [31:0] $end
$var wire 32 C PC_IF [31:0] $end
$var wire 32 D PC_ID [31:0] $end
$var wire 32 E PC_EX [31:0] $end
$var wire 3 F MEM_WRITE_MA [2:0] $end
$var wire 3 G MEM_WRITE_ID [2:0] $end
$var wire 3 H MEM_WRITE_EX [2:0] $end
$var wire 4 I MEM_READ_MA [3:0] $end
$var wire 4 J MEM_READ_ID [3:0] $end
$var wire 4 K MEM_READ_EX [3:0] $end
$var wire 32 L INST_IF [31:0] $end
$var wire 32 M INST_ID [31:0] $end
$var wire 4 N IMM_SEL_ID [3:0] $end
$var wire 32 O IMM_ID [31:0] $end
$var wire 32 P IMM_EX [31:0] $end
$var wire 1 Q HAZARD_STALL $end
$var wire 1 R HAZARD_BUBBLE $end
$var wire 2 S FORWARDING_DATA2_SEL_ID [1:0] $end
$var wire 2 T FORWARDING_DATA2_SEL_EX [1:0] $end
$var wire 32 U FORWARDING_DATA2 [31:0] $end
$var wire 2 V FORWARDING_DATA1_SEL_ID [1:0] $end
$var wire 2 W FORWARDING_DATA1_SEL_EX [1:0] $end
$var wire 32 X FORWARDING_DATA1 [31:0] $end
$var wire 32 Y DMEM_DATA_READ_WB [31:0] $end
$var wire 32 Z DMEM_DATA_READ_MA [31:0] $end
$var wire 32 [ DATA2_MA [31:0] $end
$var wire 32 \ DATA2_ID [31:0] $end
$var wire 32 ] DATA2_EX [31:0] $end
$var wire 1 ^ DATA2_ALU_SEL_ID $end
$var wire 1 _ DATA2_ALU_SEL_EX $end
$var wire 32 ` DATA1_ID [31:0] $end
$var wire 32 a DATA1_EX [31:0] $end
$var wire 1 b DATA1_ALU_SEL_ID $end
$var wire 1 c DATA1_ALU_SEL_EX $end
$var wire 1 ( BUSYWAIT_IN $end
$var wire 4 d BRANCH_JUMP_ID [3:0] $end
$var wire 4 e BRANCH_JUMP_EX [3:0] $end
$var wire 32 f ALU_OUT_WB [31:0] $end
$var wire 32 g ALU_OUT_MA [31:0] $end
$var wire 32 h ALU_OUT_EX [31:0] $end
$var wire 5 i ALU_OP_ID [4:0] $end
$var wire 5 j ALU_OP_EX [4:0] $end
$var wire 32 k ALU_DATA2_EX [31:0] $end
$var wire 32 l ALU_DATA1_EX [31:0] $end
$scope module alu_inst $end
$var wire 1 m do_add_sub $end
$var wire 1 n do_compare $end
$var wire 1 o do_div $end
$var wire 1 p do_logic $end
$var wire 1 q do_mul $end
$var wire 1 r do_shifts $end
$var wire 32 s safe_div_op2 [31:0] $end
$var wire 64 t mulhu_prod [63:0] $end
$var wire 64 u mulhsu_prod [63:0] $end
$var wire 64 v mulh_prod [63:0] $end
$var wire 64 w mul_prod_ss [63:0] $end
$var wire 32 x mul_op2 [31:0] $end
$var wire 32 y mul_op1 [31:0] $end
$var wire 32 z divu_remainder [31:0] $end
$var wire 32 { divu_quotient [31:0] $end
$var wire 32 | div_remainder [31:0] $end
$var wire 32 } div_quotient [31:0] $end
$var wire 32 ~ div_op2 [31:0] $end
$var wire 32 !" div_op1 [31:0] $end
$var wire 5 "" SELECT [4:0] $end
$var wire 32 #" DATA2 [31:0] $end
$var wire 32 $" DATA1 [31:0] $end
$var reg 32 %" RESULT [31:0] $end
$var reg 32 &" addData [31:0] $end
$var reg 32 '" andData [31:0] $end
$var reg 32 (" divData [31:0] $end
$var reg 32 )" divuData [31:0] $end
$var reg 32 *" mulData [31:0] $end
$var reg 32 +" mulhData [31:0] $end
$var reg 32 ," mulhsuData [31:0] $end
$var reg 32 -" mulhuData [31:0] $end
$var reg 32 ." orData [31:0] $end
$var reg 32 /" remData [31:0] $end
$var reg 32 0" remuData [31:0] $end
$var reg 32 1" sllData [31:0] $end
$var reg 32 2" sltData [31:0] $end
$var reg 32 3" sltuData [31:0] $end
$var reg 32 4" sraData [31:0] $end
$var reg 32 5" srlData [31:0] $end
$var reg 32 6" subData [31:0] $end
$var reg 32 7" xorData [31:0] $end
$upscope $end
$scope module alu_mux_1 $end
$var wire 1 c sel $end
$var wire 32 8" out [31:0] $end
$var wire 32 9" data2 [31:0] $end
$var wire 32 :" data1 [31:0] $end
$upscope $end
$scope module alu_mux_2 $end
$var wire 1 _ sel $end
$var wire 32 ;" out [31:0] $end
$var wire 32 <" data2 [31:0] $end
$var wire 32 =" data1 [31:0] $end
$upscope $end
$scope module branch_logic_inst $end
$var wire 4 >" op [3:0] $end
$var wire 32 ?" data2 [31:0] $end
$var wire 32 @" data1 [31:0] $end
$var wire 1 A" BNE $end
$var wire 1 B" BLTU $end
$var wire 1 C" BLT $end
$var wire 1 D" BGEU $end
$var wire 1 E" BGE $end
$var wire 1 F" BEQ $end
$var reg 1 @ out $end
$upscope $end
$scope module control_unit_inst $end
$var wire 1 b data1_alu_sel $end
$var wire 1 ^ data2_alu_sel $end
$var wire 3 G" funct3 [2:0] $end
$var wire 1 H" funct3_mux_select $end
$var wire 7 I" funct7 [6:0] $end
$var wire 7 J" opcode [6:0] $end
$var wire 1 3 reg_write_en $end
$var wire 1 * reset $end
$var wire 2 K" wb_sel [1:0] $end
$var wire 3 L" mem_write [2:0] $end
$var wire 4 M" mem_read [3:0] $end
$var wire 4 N" imm_sel [3:0] $end
$var wire 4 O" branch_jump [3:0] $end
$var wire 5 P" alu_op [4:0] $end
$scope module funct3_mux $end
$var wire 3 Q" data1 [2:0] $end
$var wire 3 R" data2 [2:0] $end
$var wire 1 H" sel $end
$var wire 3 S" out [2:0] $end
$upscope $end
$upscope $end
$scope module ex_mem_pipeline_reg_inst $end
$var wire 32 T" alu_result_in [31:0] $end
$var wire 1 + busywait $end
$var wire 1 ) clk $end
$var wire 1 * rst $end
$var wire 2 U" wb_sel_in [1:0] $end
$var wire 1 4 reg_write_in $end
$var wire 32 V" read_data2_in [31:0] $end
$var wire 32 W" pc_in [31:0] $end
$var wire 3 X" mem_write_in [2:0] $end
$var wire 4 Y" mem_read_in [3:0] $end
$var wire 5 Z" dest_addr_in [4:0] $end
$var reg 32 [" alu_result_out [31:0] $end
$var reg 5 \" dest_addr_out [4:0] $end
$var reg 4 ]" mem_read_out [3:0] $end
$var reg 3 ^" mem_write_out [2:0] $end
$var reg 32 _" pc_out [31:0] $end
$var reg 32 `" read_data2_out [31:0] $end
$var reg 1 2 reg_write_out $end
$var reg 2 a" wb_sel_out [1:0] $end
$upscope $end
$scope module forwarding_mux_1 $end
$var wire 32 b" data2 [31:0] $end
$var wire 2 c" sel [1:0] $end
$var wire 32 d" out [31:0] $end
$var wire 32 e" data3 [31:0] $end
$var wire 32 f" data1 [31:0] $end
$upscope $end
$scope module forwarding_mux_2 $end
$var wire 32 g" data2 [31:0] $end
$var wire 2 h" sel [1:0] $end
$var wire 32 i" out [31:0] $end
$var wire 32 j" data3 [31:0] $end
$var wire 32 k" data1 [31:0] $end
$upscope $end
$scope module hazard_unit_inst $end
$var wire 5 l" addr1 [4:0] $end
$var wire 5 m" addr2 [4:0] $end
$var wire 1 n" ex_hazard_rs1 $end
$var wire 1 o" ex_hazard_rs2 $end
$var wire 1 p" ex_memr $end
$var wire 1 q" load_use_hazard $end
$var wire 1 r" mem_hazard_rs1 $end
$var wire 1 s" mem_hazard_rs2 $end
$var wire 1 t" mem_memr $end
$var wire 5 u" mem_rd [4:0] $end
$var wire 1 2 mem_we $end
$var wire 1 v" rs2_used $end
$var wire 1 w" rs1_used $end
$var wire 1 4 ex_we $end
$var wire 5 x" ex_rd [4:0] $end
$var reg 1 R bubble $end
$var reg 2 y" forwarding_data1sel [1:0] $end
$var reg 2 z" forwarding_data2sel [1:0] $end
$var reg 1 Q stall $end
$upscope $end
$scope module id_ex_pipeline_reg_inst $end
$var wire 5 {" aluop_in [4:0] $end
$var wire 4 |" branch_jump_in [3:0] $end
$var wire 1 + busywait $end
$var wire 1 ) clk $end
$var wire 1 b data1_alu_sel_in $end
$var wire 2 }" data1sel_in [1:0] $end
$var wire 1 ^ data2_alu_sel_in $end
$var wire 2 ~" data2sel_in [1:0] $end
$var wire 5 !# dest_addr_in [4:0] $end
$var wire 4 "# mem_read_in [3:0] $end
$var wire 3 ## mem_write_in [2:0] $end
$var wire 1 3 reg_write_en_in $end
$var wire 1 $# rst $end
$var wire 2 %# wb_sel_in [1:0] $end
$var wire 32 &# read_data2_in [31:0] $end
$var wire 32 '# read_data1_in [31:0] $end
$var wire 32 (# pc_in [31:0] $end
$var wire 32 )# imm_in [31:0] $end
$var reg 5 *# aluop_out [4:0] $end
$var reg 4 +# branch_jump_out [3:0] $end
$var reg 1 c data1_alu_sel_out $end
$var reg 2 ,# data1sel_out [1:0] $end
$var reg 1 _ data2_alu_sel_out $end
$var reg 2 -# data2sel_out [1:0] $end
$var reg 5 .# dest_addr_out [4:0] $end
$var reg 32 /# imm_out [31:0] $end
$var reg 4 0# mem_read_out [3:0] $end
$var reg 3 1# mem_write_out [2:0] $end
$var reg 32 2# pc_out [31:0] $end
$var reg 32 3# read_data1_out [31:0] $end
$var reg 32 4# read_data2_out [31:0] $end
$var reg 1 4 reg_write_en_out $end
$var reg 2 5# wb_sel_out [1:0] $end
$upscope $end
$scope module if_id_pipeline_reg_inst $end
$var wire 1 6# busywait $end
$var wire 1 ) clk $end
$var wire 1 7# rst $end
$var wire 32 8# pc_in [31:0] $end
$var wire 32 9# instr_in [31:0] $end
$var reg 32 :# instr_out [31:0] $end
$var reg 32 ;# pc_out [31:0] $end
$upscope $end
$scope module mem_wb_pipeline_reg_inst $end
$var wire 32 <# alu_result_in [31:0] $end
$var wire 1 + busywait $end
$var wire 1 ) clk $end
$var wire 5 =# dest_addr_in [4:0] $end
$var wire 32 ># pc_in [31:0] $end
$var wire 1 2 reg_write_in $end
$var wire 1 * rst $end
$var wire 2 ?# wb_sel_in [1:0] $end
$var wire 32 @# mem_data_in [31:0] $end
$var reg 32 A# alu_result_out [31:0] $end
$var reg 5 B# dest_addr_out [4:0] $end
$var reg 32 C# mem_data_out [31:0] $end
$var reg 32 D# pc_out [31:0] $end
$var reg 1 1 reg_write_out $end
$var reg 2 E# wb_sel_out [1:0] $end
$upscope $end
$scope module pc_inst $end
$var wire 1 F# busywait $end
$var wire 1 ) clk $end
$var wire 1 * rst $end
$var wire 32 G# pc_in [31:0] $end
$var reg 32 H# pc_out [31:0] $end
$upscope $end
$scope module pc_mux $end
$var wire 32 I# data2 [31:0] $end
$var wire 1 @ sel $end
$var wire 32 J# out [31:0] $end
$var wire 32 K# data1 [31:0] $end
$upscope $end
$scope module pc_plus_4 $end
$var wire 32 L# data [31:0] $end
$var wire 32 M# out [31:0] $end
$upscope $end
$scope module pc_plus_4_ma $end
$var wire 32 N# data [31:0] $end
$var wire 32 O# out [31:0] $end
$upscope $end
$scope module reg_files_inst $end
$var wire 5 P# addr1 [4:0] $end
$var wire 5 Q# addr2 [4:0] $end
$var wire 1 ) clk $end
$var wire 32 R# data1 [31:0] $end
$var wire 32 S# data2 [31:0] $end
$var wire 1 * rst $end
$var wire 5 T# waddr [4:0] $end
$var wire 1 1 we $end
$var wire 32 U# wd [31:0] $end
$upscope $end
$scope module sign_extender_inst $end
$var wire 4 V# imm_sel [3:0] $end
$var wire 32 W# inst [31:0] $end
$var wire 5 X# TYPE6 [4:0] $end
$var wire 12 Y# TYPE5 [11:0] $end
$var wire 12 Z# TYPE3 [11:0] $end
$var wire 20 [# TYPE1 [19:0] $end
$var reg 32 \# imm_ext [31:0] $end
$upscope $end
$scope module wb_mux $end
$var wire 32 ]# data1 [31:0] $end
$var wire 32 ^# data2 [31:0] $end
$var wire 32 _# data3 [31:0] $end
$var wire 2 `# sel [1:0] $end
$var wire 32 a# out [31:0] $end
$upscope $end
$upscope $end
$scope module dmem_inst $end
$var wire 32 b# address [31:0] $end
$var wire 1 ) clock $end
$var wire 4 c# read [3:0] $end
$var wire 1 * reset $end
$var wire 3 d# write [2:0] $end
$var wire 32 e# writedata [31:0] $end
$var reg 1 ( busywait $end
$var reg 1 f# readaccess $end
$var reg 32 g# readdata [31:0] $end
$var reg 1 h# writeaccess $end
$var integer 32 i# i [31:0] $end
$upscope $end
$scope module imem_inst $end
$var wire 1 ) clk $end
$var wire 32 j# pc [31:0] $end
$var wire 1 * rst $end
$var reg 32 k# instr [31:0] $end
$upscope $end
$upscope $end
$enddefinitions $end
$comment Show the parameter values. $end
$dumpall
$end
#0
$dumpvars
b0 k#
bx j#
b100000000 i#
0h#
bx g#
0f#
bx e#
bx d#
bx c#
bx b#
bx a#
bx `#
bx _#
bx ^#
bx ]#
bx \#
bx [#
bx Z#
bx Y#
bx X#
bx W#
bx V#
bx U#
bx T#
bx S#
bx R#
bx Q#
bx P#
bx O#
bx N#
bx M#
bx L#
bx K#
bx J#
bx I#
bx H#
bx G#
xF#
bx E#
bx D#
bx C#
bx B#
bx A#
bx @#
bx ?#
bx >#
bx =#
bx <#
bx ;#
bx :#
b0 9#
bx 8#
17#
x6#
bx 5#
bx 4#
bx 3#
bx 2#
bx 1#
bx 0#
bx /#
bx .#
bx -#
bx ,#
bx +#
bx *#
bx )#
bx (#
bx '#
bx &#
bx %#
1$#
bx ##
bx "#
bx !#
bx ~"
bx }"
bx |"
bx {"
bx z"
bx y"
bx x"
xw"
xv"
bx u"
xt"
xs"
xr"
xq"
xp"
xo"
xn"
bx m"
bx l"
bx k"
bx j"
bx i"
bx h"
bx g"
bx f"
bx e"
bx d"
bx c"
bx b"
bx a"
bx `"
bx _"
bx ^"
bx ]"
bx \"
bx ["
bx Z"
bx Y"
bx X"
bx W"
bx V"
bx U"
bx T"
bx S"
b0 R"
bx Q"
bx P"
bx O"
bx N"
bx M"
bx L"
bx K"
bx J"
bx I"
xH"
bx G"
xF"
xE"
xD"
xC"
xB"
xA"
bx @"
bx ?"
bx >"
bx ="
bx <"
bx ;"
bx :"
bx 9"
bx 8"
bx 7"
bx 6"
bx 5"
bx 4"
bx 3"
bx 2"
bx 1"
bx 0"
bx /"
bx ."
bx -"
bx ,"
bx +"
bx *"
bx )"
bx ("
bx '"
bx &"
bx %"
bx $"
bx #"
bx ""
bx !"
bx ~
bx }
bx |
bx {
bx z
bx y
bx x
bx w
bx v
bx u
bx t
bx s
xr
xq
xp
xo
xn
xm
bx l
bx k
bx j
bx i
bx h
bx g
bx f
bx e
bx d
xc
xb
bx a
bx `
x_
x^
bx ]
bx \
bx [
bx Z
bx Y
bx X
bx W
bx V
bx U
bx T
bx S
xR
xQ
bx P
bx O
bx N
bx M
b0 L
bx K
bx J
bx I
bx H
bx G
bx F
bx E
bx D
bx C
bx B
bx A
x@
bx ?
bx >
bx =
bx <
bx ;
bx :
bx 9
bx 8
bx 7
bx 6
bx 5
x4
x3
x2
x1
bx 0
bx /
bx .
bx -
z,
0+
1*
0)
0(
bx '
bx &
bx %
bx $
bx #
b0 "
bx !
$end
#30
03
#50
b0 !
b0 C
b0 8#
b0 H#
b0 L#
b0 j#
1)
#60
06#
0F#
b1 s
0Q
0R
b0 S
b0 z"
b0 ~"
b0 V
b0 y"
b0 }"
0q"
b0 z
b0 {
b0 |
b0 }
b0 t
b0 u
b0 v
b0 !"
b0 ~
b0 y
b0 x
b0 w
0o"
0n"
0r"
0s"
b0 O
b0 )#
b0 \#
b0 [#
b0 Z#
b0 Y#
b0 X#
b0 !#
0v"
b0 m"
0w"
b0 l"
b0 I"
b0 G"
b0 Q"
b0 J"
b0 Q#
b0 P#
0p"
0o
0q
0n
0p
0r
1m
bx h
bx %"
bx T"
bx I#
b0 0"
b0 /"
b0 )"
b0 ("
b0 -"
b0 ,"
b0 +"
b0 *"
b0 '"
b0 ."
b0 7"
b0 3"
b0 2"
b0 4"
b0 5"
b0 1"
b0 6"
bx &"
0t"
b0 M
b0 :#
b0 W#
b0 D
b0 (#
b0 ;#
b0 T
b0 h"
b0 -#
b0 W
b0 c"
b0 ,#
b0 9
b0 U"
b0 5#
b0 K
b0 Y"
b0 0#
b0 e
b0 >"
b0 +#
b0 H
b0 X"
b0 1#
b0 j
b0 ""
b0 *#
b0 <
b0 Z"
b0 x"
b0 .#
b0 P
b0 <"
b0 /#
b0 ]
b0 k"
b0 4#
b0 a
b0 f"
b0 3#
b0 E
b0 9"
b0 W"
b0 2#
0_
0c
04
b0 7
b0 a"
b0 ?#
b0 $
b0 /
b0 c#
b0 I
b0 ]"
b0 #
b0 0
b0 d#
b0 F
b0 ^"
b0 %
b0 .
b0 e#
b0 [
b0 `"
b0 '
b0 -
b0 b#
b0 g
b0 ["
b0 b"
b0 g"
b0 <#
b0 A
b0 _"
b0 >#
b0 N#
b0 ;
b0 \"
b0 u"
b0 =#
02
b0 6
b0 E#
b0 `#
b0 :
b0 B#
b0 T#
b0 f
b0 A#
b0 ^#
b0 Y
b0 C#
b0 ]#
b0 =
b0 D#
b0 _#
01
b100 ?
b100 K#
b100 M#
#70
bx000 i
bx000 P"
bx000 {"
b0 S"
b0 \
b0 &#
b0 S#
b0 `
b0 '#
b0 R#
1D"
0B"
1E"
0C"
0A"
1F"
b0 U
b0 ="
b0 ?"
b0 V"
b0 i"
b0 X
b0 :"
b0 @"
b0 d"
b0 5
b0 e"
b0 j"
b0 U#
b0 a#
b100 >
b100 O#
#80
b0 h
b0 %"
b0 T"
b0 I#
b0 &"
b0 k
b0 #"
b0 ;"
b0 l
b0 $"
b0 8"
0H"
0@
#90
b100 B
b100 G#
b100 J#
0^
b0xxx N
b0xxx N"
b0xxx V#
0b
b0 d
b0 O"
b0 |"
b0 i
b0 P"
b0 {"
b1 8
b1 K"
b1 %#
b0 G
b0 L"
b0 ##
b0 J
b0 M"
b0 "#
#100
b100000000 i#
0)
#150
0$#
07#
1)
0*
#160
b100 !
b100 C
b100 8#
b100 H#
b100 L#
b100 j#
bx Y
bx C#
bx ]#
#170
bx 5
bx e"
bx j"
bx U#
bx a#
b1000 ?
b1000 K#
b1000 M#
#180
b1000 B
b1000 G#
b1000 J#
#200
0)
#220
b100000000000010010011 "
b100000000000010010011 L
b100000000000010010011 9#
b100000000000010010011 k#
#250
1)
#260
b100000000 [#
b1 Z#
b1 Y#
b1 X#
b1 !#
1v"
b1 m"
b10011 J"
b1 Q#
b1000 !
b1000 C
b1000 8#
b1000 H#
b1000 L#
b1000 j#
b100000000000010010011 M
b100000000000010010011 :#
b100000000000010010011 W#
b100 D
b100 (#
b100 ;#
b1 9
b1 U"
b1 5#
#270
b1100 ?
b1100 K#
b1100 M#
#280
b1100 B
b1100 G#
b1100 J#
#290
b1 O
b1 )#
b1 \#
b10 N
b10 N"
b10 V#
1^
13
#300
0)
#320
b100010011 "
b100010011 L
b100010011 9#
b100010011 k#
#350
1)
#360
b0 O
b0 )#
b0 \#
b0 [#
b0 Z#
b10 Y#
b0 X#
b10 !#
0v"
b0 m"
b0 Q#
b1100 !
b1100 C
b1100 8#
b1100 H#
b1100 L#
b1100 j#
b1 7
b1 a"
b1 ?#
b1 <
b1 Z"
b1 x"
b1 .#
b1 P
b1 <"
b1 /#
b100 E
b100 9"
b100 W"
b100 2#
1_
14
b100010011 M
b100010011 :#
b100010011 W#
b1000 D
b1000 (#
b1000 ;#
#370
b1 h
b1 %"
b1 T"
b1 I#
b1 &"
b1 k
b1 #"
b1 ;"
b10000 ?
b10000 K#
b10000 M#
#380
b10000 B
b10000 G#
b10000 J#
#400
0)
#420
b1010010011 "
b1010010011 L
b1010010011 9#
b1010010011 k#
#450
1)
#460
b101 Y#
b101 !#
b10000 !
b10000 C
b10000 8#
b10000 H#
b10000 L#
b10000 j#
b1010010011 M
b1010010011 :#
b1010010011 W#
b1100 D
b1100 (#
b1100 ;#
b10 <
b10 Z"
b10 x"
b10 .#
b0 P
b0 <"
b0 /#
b1000 E
b1000 9"
b1000 W"
b1000 2#
b1 '
b1 -
b1 b#
b1 g
b1 ["
b1 b"
b1 g"
b1 <#
b100 A
b100 _"
b100 >#
b100 N#
b1 ;
b1 \"
b1 u"
b1 =#
12
b1 6
b1 E#
b1 `#
#470
b0 h
b0 %"
b0 T"
b0 I#
b0 &"
b0 k
b0 #"
b0 ;"
b0 5
b0 e"
b0 j"
b0 U#
b0 a#
b10100 ?
b10100 K#
b10100 M#
b1000 >
b1000 O#
#480
b10100 B
b10100 G#
b10100 J#
#500
0)
#520
b11000000000001110010011 "
b11000000000001110010011 L
b11000000000001110010011 9#
b11000000000001110010011 k#
#550
1)
#560
b110 O
b110 )#
b110 \#
b11000000000 [#
b110 Z#
b111 Y#
b110 X#
b111 !#
1v"
b110 m"
b110 Q#
b10100 !
b10100 C
b10100 8#
b10100 H#
b10100 L#
b10100 j#
b1 :
b1 B#
b1 T#
b1 f
b1 A#
b1 ^#
b100 =
b100 D#
b100 _#
11
b0 '
b0 -
b0 b#
b0 g
b0 ["
b0 b"
b0 g"
b0 <#
b1000 A
b1000 _"
b1000 >#
b1000 N#
b10 ;
b10 \"
b10 u"
b10 =#
b101 <
b101 Z"
b101 x"
b101 .#
b1100 E
b1100 9"
b1100 W"
b1100 2#
b11000000000001110010011 M
b11000000000001110010011 :#
b11000000000001110010011 W#
b10000 D
b10000 (#
b10000 ;#
#570
b1 5
b1 e"
b1 j"
b1 U#
b1 a#
b11000 ?
b11000 K#
b11000 M#
b1100 >
b1100 O#
#580
b11000 B
b11000 G#
b11000 J#
#600
0)
#620
b1000001000000110110011 "
b1000001000000110110011 L
b1000001000000110110011 9#
b1000001000000110110011 k#
#650
1)
#660
b10 O
b10 )#
b10 \#
b1000001000 [#
b10 Z#
b11 Y#
b10 X#
b11 !#
b10 m"
1w"
b1 l"
b110011 J"
b10 Q#
b1 P#
b11000 !
b11000 C
b11000 8#
b11000 H#
b11000 L#
b11000 j#
b1000001000000110110011 M
b1000001000000110110011 :#
b1000001000000110110011 W#
b10100 D
b10100 (#
b10100 ;#
b111 <
b111 Z"
b111 x"
b111 .#
b110 P
b110 <"
b110 /#
b10000 E
b10000 9"
b10000 W"
b10000 2#
b1100 A
b1100 _"
b1100 >#
b1100 N#
b101 ;
b101 \"
b101 u"
b101 =#
b10 :
b10 B#
b10 T#
b0 f
b0 A#
b0 ^#
b1000 =
b1000 D#
b1000 _#
#670
b110 h
b110 %"
b110 T"
b110 I#
b110 &"
b0 5
b0 e"
b0 j"
b0 U#
b0 a#
b1 `
b1 '#
b1 R#
b110 k
b110 #"
b110 ;"
b11100 ?
b11100 K#
b11100 M#
b10000 >
b10000 O#
#680
b11100 B
b11100 G#
b11100 J#
#690
b0 O
b0 )#
b0 \#
b0xxx N
b0xxx N"
b0xxx V#
0^
#700
0)
#720
b1000000100010011 "
b1000000100010011 L
b1000000100010011 9#
b1000000100010011 k#
#750
1)
#760
b1000 [#
b0 Z#
b10 Y#
b0 X#
b10 !#
0v"
b0 m"
b10011 J"
b0 Q#
b11100 !
b11100 C
b11100 8#
b11100 H#
b11100 L#
b11100 j#
b101 :
b101 B#
b101 T#
b1100 =
b1100 D#
b1100 _#
b110 '
b110 -
b110 b#
b110 g
b110 ["
b110 b"
b110 g"
b110 <#
b10000 A
b10000 _"
b10000 >#
b10000 N#
b111 ;
b111 \"
b111 u"
b111 =#
b11 <
b11 Z"
b11 x"
b11 .#
b0 P
b0 <"
b0 /#
b1 a
b1 f"
b1 3#
b10100 E
b10100 9"
b10100 W"
b10100 2#
0_
b1000000100010011 M
b1000000100010011 :#
b1000000100010011 W#
b11000 D
b11000 (#
b11000 ;#
#770
b0 h
b0 %"
b0 T"
b0 I#
b0 &"
b0 k
b0 #"
b0 ;"
1A"
0F"
b1 X
b1 :"
b1 @"
b1 d"
b100000 ?
b100000 K#
b100000 M#
b10100 >
b10100 O#
#780
b1 h
b1 %"
b1 T"
b1 I#
b1 &"
b1 l
b1 $"
b1 8"
b100000 B
b100000 G#
b100000 J#
#790
b10 N
b10 N"
b10 V#
1^
#800
0)
#820
b11000000010010011 "
b11000000010010011 L
b11000000010010011 9#
b11000000010010011 k#
#850
1)
#860
b10 V
b10 y"
b10 }"
1r"
b11000 [#
b1 Y#
b1 !#
b11 l"
b11 P#
b100000 !
b100000 C
b100000 8#
b100000 H#
b100000 L#
b100000 j#
b11000000010010011 M
b11000000010010011 :#
b11000000010010011 W#
b11100 D
b11100 (#
b11100 ;#
b10 <
b10 Z"
b10 x"
b10 .#
b11000 E
b11000 9"
b11000 W"
b11000 2#
1_
b1 '
b1 -
b1 b#
b1 g
b1 ["
b1 b"
b1 g"
b1 <#
b10100 A
b10100 _"
b10100 >#
b10100 N#
b11 ;
b11 \"
b11 u"
b11 =#
b111 :
b111 B#
b111 T#
b110 f
b110 A#
b110 ^#
b10000 =
b10000 D#
b10000 _#
#870
b110 5
b110 e"
b110 j"
b110 U#
b110 a#
b0 `
b0 '#
b0 R#
b100100 ?
b100100 K#
b100100 M#
b11000 >
b11000 O#
#880
b100100 B
b100100 G#
b100100 J#
#900
0)
#920
b1100101010000000100011 "
b1100101010000000100011 L
b1100101010000000100011 9#
b1100101010000000100011 k#
#950
1)
#960
b0 V
b0 y"
b0 }"
0r"
b11 O
b11 )#
b11 \#
b1100101010 [#
b11 Z#
b0 Y#
b11 X#
b0 !#
1v"
b11 m"
b101 l"
b10 G"
b10 Q"
b100011 J"
b11 Q#
b101 P#
b100100 !
b100100 C
b100100 8#
b100100 H#
b100100 L#
b100100 j#
b11 :
b11 B#
b11 T#
b1 f
b1 A#
b1 ^#
b10100 =
b10100 D#
b10100 _#
b11000 A
b11000 _"
b11000 >#
b11000 N#
b10 ;
b10 \"
b10 u"
b10 =#
b10 W
b10 c"
b10 ,#
b1 <
b1 Z"
b1 x"
b1 .#
b0 a
b0 f"
b0 3#
b11100 E
b11100 9"
b11100 W"
b11100 2#
b1100101010000000100011 M
b1100101010000000100011 :#
b1100101010000000100011 W#
b100000 D
b100000 (#
b100000 ;#
#970
b1 5
b1 e"
b1 j"
b1 U#
b1 a#
b10 i
b10 P"
b10 {"
b10 S"
b110 X
b110 :"
b110 @"
b110 d"
b101000 ?
b101000 K#
b101000 M#
b11100 >
b11100 O#
#980
b110 h
b110 %"
b110 T"
b110 I#
b110 &"
b1 X
b1 :"
b1 @"
b1 d"
b110 l
b110 $"
b110 8"
b101000 B
b101000 G#
b101000 J#
1H"
#990
b1 h
b1 %"
b1 T"
b1 I#
b1 &"
b0 O
b0 )#
b0 \#
b0 i
b0 P"
b0 {"
b0 S"
b1 l
b1 $"
b1 8"
03
b100 N
b100 N"
b100 V#
b10 d
b10 O"
b10 |"
b10 J
b10 M"
b10 "#
b110 G
b110 L"
b110 ##
#1000
0)
#1020
b10000101000001010010011 "
b10000101000001010010011 L
b10000101000001010010011 9#
b10000101000001010010011 k#
#1030
b1 \
b1 &#
b1 S#
#1050
1)
#1060
b101 O
b101 )#
b101 \#
b10000101000 [#
b100 Z#
b101 Y#
b100 X#
b101 !#
b100 m"
b0 G"
b0 Q"
b10011 J"
b100 Q#
b101000 !
b101000 C
b101000 8#
b101000 H#
b101000 L#
b101000 j#
b10000101000001010010011 M
b10000101000001010010011 :#
b10000101000001010010011 W#
b100100 D
b100100 (#
b100100 ;#
b0 W
b0 c"
b0 ,#
b10 K
b10 Y"
b10 0#
b10 e
b10 >"
b10 +#
b110 H
b110 X"
b110 1#
b0 <
b0 Z"
b0 x"
b0 .#
b1 ]
b1 k"
b1 4#
b100000 E
b100000 9"
b100000 W"
b100000 2#
04
b11100 A
b11100 _"
b11100 >#
b11100 N#
b1 ;
b1 \"
b1 u"
b1 =#
b10 :
b10 B#
b10 T#
b11000 =
b11000 D#
b11000 _#
#1070
b0 \
b0 &#
b0 S#
0D"
1B"
0E"
1C"
b0 X
b0 :"
b0 @"
b0 d"
1A"
0F"
b1 U
b1 ="
b1 ?"
b1 V"
b1 i"
b101100 ?
b101100 K#
b101100 M#
b100000 >
b100000 O#
#1080
b0 h
b0 %"
b0 T"
b0 I#
b0 &"
b0 l
b0 $"
b0 8"
b101100 B
b101100 G#
b101100 J#
0H"
